<?xml version="1.0" encoding="UTF-8" standalone="no"?>
<!-- Created with Inkscape (http://www.inkscape.org/) -->

<svg
   width="1122.5197"
   height="1587.4016"
   viewBox="0 0 296.99999 420.00001"
   version="1.1"
   id="svg1"
   inkscape:version="1.3.2 (091e20ef0f, 2023-11-25)"
   sodipodi:docname="arancione_fronte.svg"
   xmlns:inkscape="http://www.inkscape.org/namespaces/inkscape"
   xmlns:sodipodi="http://sodipodi.sourceforge.net/DTD/sodipodi-0.dtd"
   xmlns="http://www.w3.org/2000/svg"
   xmlns:svg="http://www.w3.org/2000/svg">
  <sodipodi:namedview
     id="namedview1"
     pagecolor="#ffffff"
     bordercolor="#666666"
     borderopacity="1.0"
     inkscape:showpageshadow="2"
     inkscape:pageopacity="0.0"
     inkscape:pagecheckerboard="0"
     inkscape:deskcolor="#d1d1d1"
     inkscape:document-units="mm"
     inkscape:export-bgcolor="#ffffff00"
     inkscape:zoom="0.45770635"
     inkscape:cx="610.65353"
     inkscape:cy="771.23684"
     inkscape:window-width="1920"
     inkscape:window-height="982"
     inkscape:window-x="0"
     inkscape:window-y="32"
     inkscape:window-maximized="1"
     inkscape:current-layer="layer1" />
  <defs
     id="defs1" />
  <g
     inkscape:label="Layer 1"
     inkscape:groupmode="layer"
     id="layer1">
    <rect
       style="fill:#ff7f2a;stroke:#030303;stroke-width:0.449934;stroke-linecap:round"
       id="rect1"
       width="296.55005"
       height="419.55008"
       x="0.22496705"
       y="0.22496705" />
    <g
       id="g323"
       transform="matrix(3.2865181,0,0,3.2865181,-437.33333,-1214.6026)">
      <path
         id="path1-2"
         data-name="path1"
         class="cls-6"
         d="m 206.14,385.17 c -0.05,-0.57 -0.13,-1.14 -0.26,-1.69 -0.19,-0.82 -0.48,-1.6 -0.85,-2.35 -0.15,-0.31 -0.32,-0.59 -0.37,-0.95 -0.1,-0.67 -0.28,-1.32 -0.52,-1.95 -0.13,-0.35 -0.24,-0.72 -0.47,-1.03 -0.15,-0.2 -0.23,-0.2 -0.38,0 -0.24,0.34 -0.44,0.72 -0.66,1.07 -0.02,0.04 -0.04,0.11 -0.11,0.09 -0.05,-0.02 -0.05,-0.07 -0.06,-0.12 -0.03,-0.26 -0.06,-0.52 -0.1,-0.78 -0.14,-0.92 -0.38,-1.81 -0.78,-2.66 -0.38,-0.82 -0.83,-1.61 -1.4,-2.31 -0.22,-0.27 -0.42,-0.57 -0.71,-0.78 -0.14,-0.1 -0.28,-0.12 -0.44,-0.03 -0.22,0.12 -0.36,0.31 -0.52,0.5 -0.48,0.55 -0.89,1.16 -1.24,1.8 -0.32,0.59 -0.61,1.2 -0.82,1.84 -0.16,0.5 -0.3,1 -0.39,1.51 -0.06,0.31 -0.1,0.63 -0.16,0.95 0,0.03 0,0.08 -0.05,0.08 -0.04,0 -0.05,-0.03 -0.07,-0.06 -0.08,-0.15 -0.16,-0.31 -0.24,-0.46 -0.13,-0.25 -0.25,-0.51 -0.44,-0.73 -0.09,-0.1 -0.17,-0.11 -0.26,-0.01 -0.13,0.13 -0.19,0.29 -0.26,0.45 -0.3,0.67 -0.52,1.36 -0.68,2.08 -0.08,0.36 -0.1,0.73 -0.29,1.06 -0.18,0.31 -0.33,0.63 -0.46,0.97 -0.24,0.6 -0.43,1.21 -0.57,1.84 -0.13,0.59 -0.19,1.19 -0.23,1.79 -0.04,0.63 -0.03,1.26 0.05,1.89 0.09,0.75 0.27,1.48 0.54,2.18 0.22,0.57 0.49,1.11 0.84,1.61 0.35,0.5 0.75,0.97 1.24,1.35 0.68,0.53 1.42,0.94 2.26,1.15 0.08,0.02 0.14,0.06 0.18,0.14 0.08,0.15 0.17,0.29 0.24,0.44 0.15,0.3 0.26,0.6 0.26,0.96 0,1.32 -0.04,2.63 0.02,3.95 0.02,0.53 0,1.05 0,1.58 0,0.08 -0.01,0.15 -0.06,0.21 -0.09,0.11 -0.13,0.11 -0.2,-0.02 -0.27,-0.5 -0.59,-0.96 -0.91,-1.42 -0.46,-0.66 -0.95,-1.31 -1.47,-1.93 -0.41,-0.48 -0.8,-0.98 -1.25,-1.42 -0.48,-0.48 -0.95,-0.97 -1.45,-1.43 -0.34,-0.32 -0.7,-0.62 -1.06,-0.92 -0.66,-0.54 -1.34,-1.05 -2.05,-1.53 -0.08,-0.05 -0.17,-0.1 -0.2,-0.21 -0.2,-0.63 -0.39,-1.26 -0.55,-1.89 -0.25,-1.02 -0.45,-2.04 -0.59,-3.08 -0.08,-0.61 -0.15,-1.23 -0.21,-1.84 -0.05,-0.55 -0.08,-1.11 -0.1,-1.67 -0.02,-0.58 -0.06,-1.16 -0.13,-1.74 -0.07,-0.59 -0.16,-1.17 -0.3,-1.74 -0.23,-0.94 -0.54,-1.85 -1,-2.7 -0.37,-0.68 -0.81,-1.32 -1.35,-1.88 -0.59,-0.61 -1.25,-1.12 -1.97,-1.57 -0.59,-0.36 -1.21,-0.64 -1.85,-0.89 -0.66,-0.26 -1.35,-0.45 -2.04,-0.6 -0.18,-0.04 -1.41,-0.15 -1.52,-0.16 -0.88,-0.01 -1.76,0 -2.64,0.12 -0.68,0.09 -1.35,0.2 -2.01,0.37 -0.88,0.24 -1.73,0.56 -2.53,1 -0.95,0.53 -1.78,1.19 -2.47,2.03 -0.71,0.87 -1.23,1.85 -1.57,2.91 -0.27,0.84 -0.45,1.7 -0.59,2.58 -0.16,0.95 -0.26,1.9 -0.33,2.86 -0.05,0.65 -0.07,1.3 -0.1,1.95 -0.01,0.18 -0.02,0.36 -0.04,0.53 -0.06,0.53 -0.08,1.06 -0.15,1.58 -0.07,0.56 -0.12,1.12 -0.21,1.67 -0.12,0.71 -0.27,1.42 -0.4,2.13 -0.02,0.11 -0.06,0.2 -0.18,0.24 -0.41,0.14 -0.82,0.31 -1.22,0.47 -0.88,0.34 -1.74,0.72 -2.59,1.12 -0.75,0.35 -1.47,0.74 -2.19,1.17 -0.92,0.54 -1.81,1.11 -2.64,1.78 -0.68,0.54 -1.27,1.16 -1.84,1.81 -0.63,0.72 -1.19,1.5 -1.69,2.31 -0.46,0.75 -0.87,1.52 -1.19,2.33 -0.46,1.17 -0.85,2.37 -0.76,3.66 0.03,0.44 0.15,0.85 0.38,1.22 0.05,0.08 0.1,0.11 0.19,0.11 0.23,0 0.45,-0.04 0.67,-0.09 0.98,-0.21 1.85,-0.65 2.7,-1.15 0.6,-0.35 1.17,-0.75 1.72,-1.17 0.5,-0.38 0.99,-0.76 1.48,-1.15 0.59,-0.46 1.17,-0.92 1.76,-1.38 0.04,-0.03 0.07,-0.11 0.13,-0.06 0.04,0.03 0.02,0.1 0,0.15 -0.09,0.3 -0.16,0.61 -0.22,0.92 -0.18,0.83 -0.27,1.68 -0.29,2.53 -0.03,0.91 -0.02,1.82 0.05,2.73 0.04,0.58 0.08,1.15 0.13,1.73 0.05,0.5 0.11,0.99 0.21,1.48 0.22,1.16 0.55,2.29 0.97,3.39 0.25,0.66 0.55,1.3 0.87,1.93 0.3,0.59 0.64,1.16 1,1.71 0.32,0.48 0.66,0.94 1.03,1.38 0.21,0.25 0.44,0.48 0.65,0.73 0.45,0.54 0.99,1.01 1.5,1.49 0.07,0.07 0.08,0.12 0,0.17 -0.11,0.08 -0.24,0.14 -0.37,0.18 -0.53,0.16 -1.07,0.22 -1.62,0.24 -0.99,0.03 -1.98,-0.03 -2.97,0.03 -0.57,0.04 -1.11,0.14 -1.63,0.38 -0.52,0.24 -0.87,0.62 -1.06,1.15 -0.29,0.83 0.03,1.74 0.6,2.34 0.16,0.17 0.38,0.13 0.5,-0.08 0.08,-0.14 0.14,-0.3 0.17,-0.46 0.02,-0.08 0.06,-0.12 0.14,-0.08 0.11,0.05 0.21,0.09 0.32,0.13 0.72,0.28 1.45,0.53 2.2,0.73 0.51,0.13 1.02,0.24 1.54,0.34 0.89,0.16 1.78,0.28 2.68,0.36 0.69,0.06 1.37,0.08 2.06,0.11 0.29,0.02 0.59,-0.01 0.88,-0.02 0.56,-0.02 1.11,-0.04 1.67,-0.1 0.72,-0.08 1.42,-0.23 2.09,-0.49 0.62,-0.24 1.2,-0.55 1.71,-0.97 0.05,-0.04 0.12,-0.1 0.2,-0.07 0.2,0.06 0.4,0.08 0.6,0.13 0.58,0.13 1.16,0.2 1.75,0.23 0.39,0.01 0.78,0.04 1.18,0.02 0.57,-0.04 1.13,-0.08 1.68,-0.22 0.1,-0.02 0.18,-0.01 0.27,0.04 0.2,0.13 0.4,0.27 0.61,0.39 0.59,0.33 1.21,0.56 1.86,0.72 0.46,0.11 0.94,0.18 1.41,0.23 0.58,0.06 1.17,0.11 1.76,0.12 0.76,0 1.52,0 2.29,-0.05 0.43,-0.03 0.87,-0.07 1.3,-0.11 0.49,-0.05 0.99,-0.13 1.48,-0.22 0.7,-0.12 1.4,-0.26 2.09,-0.45 0.72,-0.2 1.42,-0.42 2.09,-0.74 0.13,-0.06 0.18,-0.03 0.24,0.1 0.06,0.15 0.12,0.3 0.25,0.41 0.12,0.1 0.25,0.12 0.37,0.02 0.06,-0.05 0.11,-0.11 0.16,-0.18 0.24,-0.36 0.41,-0.74 0.5,-1.16 0.2,-0.87 -0.21,-1.77 -1.01,-2.18 -0.61,-0.31 -1.27,-0.38 -1.93,-0.4 -1,-0.03 -2,0.03 -3,-0.03 -0.41,-0.03 -0.8,-0.12 -1.19,-0.24 -0.19,-0.06 -0.19,-0.07 -0.05,-0.21 0.02,-0.01 0.03,-0.03 0.05,-0.04 0.51,-0.42 0.98,-0.88 1.45,-1.35 0.47,-0.47 0.89,-0.97 1.28,-1.49 0.68,-0.9 1.26,-1.86 1.73,-2.89 0.41,-0.88 0.71,-1.8 0.95,-2.74 0.17,-0.67 0.3,-1.35 0.38,-2.04 0.07,-0.62 0.15,-1.24 0.15,-1.87 0,-0.61 0.02,-1.22 -0.05,-1.83 -0.05,-0.43 -0.1,-0.85 -0.16,-1.28 -0.07,-0.52 -0.16,-1.05 -0.29,-1.56 0,-0.04 -0.02,-0.08 0.01,-0.1 0.04,-0.03 0.08,0 0.11,0.03 0.46,0.27 0.92,0.53 1.4,0.76 0.52,0.25 1.06,0.47 1.62,0.63 0.13,0.04 0.18,0.09 0.18,0.22 0.02,4.38 -0.03,8.77 0.02,13.15 0.03,1.97 0,3.94 0,5.91 0,0.29 0.11,0.5 0.34,0.63 0.52,0.28 1.07,0.31 1.61,0.06 0.18,-0.09 0.32,-0.26 0.35,-0.46 0.03,-0.17 0.04,-0.34 0.04,-0.52 0.02,-1.82 -0.01,-3.65 0.03,-5.47 0.04,-1.93 0,-3.87 0.03,-5.8 0.02,-2 0.06,-4 0.04,-6.01 0,-0.03 0,-0.06 0,-0.09 0.01,-0.1 0.05,-0.16 0.17,-0.16 0.12,0 0.25,-0.02 0.37,-0.05 1.13,-0.24 1.73,-1.03 2.1,-2.04 0.11,-0.31 0.15,-0.64 0.19,-0.96 0.07,-0.49 0.01,-0.97 -0.05,-1.46 -0.05,-0.39 -0.19,-0.76 -0.33,-1.13 -0.24,-0.6 -0.57,-1.15 -1.01,-1.62 -0.37,-0.4 -0.79,-0.74 -1.25,-1.03 -0.11,-0.07 -0.17,-0.16 -0.16,-0.3 0.01,-0.24 0.03,-0.47 0.03,-0.71 0.01,-1.56 0,-3.13 0.01,-4.69 0,-0.14 0,-0.29 0.06,-0.42 0.15,-0.28 0.29,-0.56 0.44,-0.84 0.09,-0.18 0.22,-0.29 0.43,-0.32 0.16,-0.02 0.31,-0.1 0.46,-0.15 0.65,-0.25 1.22,-0.61 1.74,-1.06 0.63,-0.54 1.11,-1.19 1.49,-1.92 0.38,-0.72 0.63,-1.49 0.79,-2.29 0.1,-0.52 0.18,-1.05 0.2,-1.57 0.02,-0.43 0.02,-0.86 -0.02,-1.29"
         style="fill:#212020;stroke-width:0px" />
      <path
         id="path3-2"
         data-name="path3"
         class="cls-7"
         d="m 174.59,421.78 c 0.04,0.06 0.09,0.06 0.13,0.07 0.38,0.09 0.77,0.14 1.16,0.2 0.83,0.12 1.66,0.16 2.5,0.18 0.65,0.01 1.29,-0.02 1.94,-0.09 0.43,-0.05 0.85,-0.12 1.27,-0.21 0.03,0 0.09,0 0.09,-0.05 0,-0.06 -0.06,-0.04 -0.1,-0.05 -0.54,-0.12 -1.09,-0.06 -1.63,-0.08 -0.85,-0.04 -1.7,-0.01 -2.55,0 -0.4,0 -0.8,0.02 -1.21,0.03 -0.47,0 -0.95,0 -1.42,0 -0.05,0 -0.11,-0.02 -0.17,0.03 m 12.53,-23.31 c 0.11,0.04 0.16,0.14 0.23,0.23 0.95,1.15 1.72,2.41 2.33,3.77 0.61,1.34 1.07,2.74 1.43,4.16 0.24,0.94 0.43,1.9 0.58,2.86 0.09,0.56 0.15,1.12 0.2,1.68 0.05,0.64 0.1,1.29 0.13,1.93 0.02,0.51 0.02,1.01 -0.01,1.51 -0.04,0.67 -0.13,1.33 -0.27,1.98 -0.09,0.47 -0.2,0.93 -0.33,1.39 -0.26,0.95 -0.58,1.87 -1.14,2.69 -0.31,0.46 -0.72,0.81 -1.15,1.15 -0.66,0.51 -1.38,0.88 -2.13,1.23 -0.73,0.34 -1.49,0.61 -2.27,0.84 -1.4,0.42 -2.82,0.72 -4.27,0.93 -1.18,0.17 -2.37,0.26 -3.56,0.24 -0.73,-0.01 -1.46,-0.07 -2.19,-0.14 -0.33,-0.03 -0.65,-0.06 -0.97,-0.11 -0.44,-0.08 -0.88,-0.15 -1.32,-0.24 -0.61,-0.13 -1.22,-0.27 -1.82,-0.42 -0.65,-0.17 -1.28,-0.37 -1.91,-0.59 -0.65,-0.23 -1.29,-0.48 -1.9,-0.8 -0.68,-0.35 -1.33,-0.75 -1.93,-1.23 -0.74,-0.59 -1.19,-1.36 -1.53,-2.22 -0.36,-0.93 -0.62,-1.89 -0.81,-2.86 -0.07,-0.36 -0.12,-0.73 -0.18,-1.1 -0.05,-0.38 -0.06,-0.76 -0.07,-1.14 -0.03,-1.27 0.07,-2.53 0.21,-3.78 0.23,-1.97 0.64,-3.91 1.27,-5.79 0.31,-0.92 0.67,-1.82 1.1,-2.69 0.38,-0.75 0.77,-1.49 1.27,-2.17 0.22,-0.31 0.45,-0.61 0.7,-0.91 0.05,0.04 0.01,0.08 0,0.12 -0.21,0.58 -0.35,1.18 -0.48,1.78 -0.13,0.61 -0.27,1.22 -0.29,1.84 -0.02,0.43 -0.04,0.87 -0.02,1.31 0.03,0.67 0.11,1.33 0.26,1.98 0.17,0.74 0.42,1.44 0.77,2.11 0.34,0.65 0.77,1.24 1.24,1.8 0.08,0.1 0.17,0.12 0.3,0.07 0.31,-0.12 0.58,-0.32 0.89,-0.46 0.58,-0.25 1.17,-0.41 1.79,-0.49 0.57,-0.07 1.14,-0.06 1.72,-0.07 0.4,-0.01 0.8,0.01 1.21,0 0.52,-0.01 1.05,0 1.57,0 0.12,0 0.24,0.04 0.36,0.03 0.29,-0.02 0.59,-0.04 0.88,-0.06 0.46,-0.02 0.93,0.04 1.39,0.02 0.24,-0.01 0.49,-0.02 0.73,0 0.45,0.02 0.9,0.02 1.35,0.04 0.58,0.03 1.15,0 1.73,0.01 0.31,0 0.62,0 0.92,-0.02 0.46,-0.05 0.9,0.03 1.34,0.13 0.33,0.08 0.62,0.21 0.93,0.34 0.23,0.1 0.48,0.19 0.68,0.34 0.17,0.12 0.36,0.18 0.53,0.3 0.07,0.05 0.17,0.03 0.24,-0.05 0.11,-0.13 0.22,-0.26 0.33,-0.39 0.99,-1.2 1.51,-2.59 1.68,-4.13 0.04,-0.33 0.02,-0.65 0.03,-0.98 0.01,-0.32 -0.06,-0.63 -0.08,-0.94 -0.02,-0.43 -0.15,-0.84 -0.25,-1.26 -0.13,-0.53 -0.28,-1.05 -0.49,-1.56 -0.21,-0.5 -0.39,-1.02 -0.66,-1.5 -0.13,-0.22 -0.23,-0.46 -0.32,-0.7"
         style="fill:#c8cab5;stroke-width:0px" />
      <path
         id="path5-2"
         data-name="path5"
         class="cls-11"
         d="m 187.13,398.5 c 0.08,0.24 0.19,0.48 0.32,0.7 0.27,0.48 0.45,0.99 0.66,1.5 0.21,0.5 0.36,1.03 0.49,1.56 0.1,0.42 0.23,0.83 0.25,1.26 0.02,0.32 0.09,0.62 0.08,0.94 -0.01,0.33 0,0.65 -0.03,0.98 -0.17,1.53 -0.7,2.93 -1.68,4.13 -0.11,0.13 -0.22,0.26 -0.33,0.39 -0.07,0.08 -0.17,0.1 -0.24,0.05 -0.17,-0.12 -0.36,-0.18 -0.53,-0.3 -0.2,-0.15 -0.44,-0.24 -0.68,-0.34 -0.3,-0.13 -0.6,-0.26 -0.93,-0.34 -0.44,-0.1 -0.88,-0.18 -1.34,-0.13 -0.3,0.03 -0.61,0.03 -0.92,0.02 -0.58,-0.02 -1.16,0.02 -1.73,-0.01 -0.45,-0.02 -0.9,-0.02 -1.35,-0.04 -0.24,-0.01 -0.49,0 -0.73,0 -0.46,0.02 -0.92,-0.05 -1.39,-0.02 -0.29,0.01 -0.59,0.04 -0.88,0.06 -0.12,0 -0.24,-0.03 -0.36,-0.03 -0.52,0 -1.05,0 -1.57,0 -0.4,0.01 -0.8,-0.01 -1.21,0 -0.57,0.01 -1.15,0 -1.72,0.07 -0.62,0.07 -1.21,0.24 -1.79,0.49 -0.31,0.13 -0.58,0.33 -0.89,0.46 -0.12,0.05 -0.21,0.03 -0.3,-0.07 -0.47,-0.56 -0.9,-1.15 -1.24,-1.8 -0.35,-0.67 -0.6,-1.38 -0.77,-2.11 -0.15,-0.65 -0.23,-1.31 -0.26,-1.98 -0.02,-0.44 0,-0.87 0.02,-1.31 0.03,-0.62 0.16,-1.24 0.29,-1.84 0.13,-0.6 0.27,-1.2 0.48,-1.78 0.01,-0.04 0.05,-0.08 0,-0.12 0.28,-0.4 0.62,-0.74 0.97,-1.08 1.63,-1.6 3.51,-2.78 5.7,-3.45 0.67,-0.2 1.35,-0.34 2.05,-0.44 0.74,-0.1 1.48,-0.12 2.22,-0.08 0.32,0.02 0.64,0.09 0.97,0.11 0.38,0.03 0.74,0.09 1.11,0.17 1.18,0.26 2.31,0.67 3.37,1.26 0.49,0.28 0.97,0.58 1.43,0.9 0.3,0.2 0.59,0.4 0.87,0.63 0.49,0.42 0.97,0.87 1.41,1.34 0.07,0.08 0.13,0.17 0.19,0.26"
         style="fill:#ffffff;stroke-width:0px" />
      <path
         id="path7-2"
         data-name="path7"
         class="cls-8"
         d="m 196.55,388.49 c 0,-0.25 0,-0.5 0.02,-0.74 0.08,-1.21 0.39,-2.37 0.81,-3.51 0.29,-0.78 0.64,-1.53 0.98,-2.29 0.17,-0.38 0.38,-0.74 0.56,-1.12 0.09,-0.19 0.16,-0.39 0.24,-0.58 -0.05,0.04 -0.08,0.08 -0.1,0.13 -0.32,0.62 -0.65,1.24 -0.96,1.86 -0.46,0.92 -0.91,1.85 -1.24,2.83 -0.43,1.28 -0.54,2.58 -0.32,3.91 0,0.22 0.08,0.42 0.13,0.64 -0.02,-0.19 -0.04,-0.36 -0.06,-0.53 0,-0.04 -0.02,-0.07 -0.03,-0.11 0,-0.02 0,-0.05 0,-0.07 0,0 0,0 0,-0.01 0,0 0,-0.01 -0.01,-0.02 0,-0.08 0,-0.17 -0.01,-0.25 0.02,-0.05 0.02,-0.1 0,-0.15 m 5.06,3.93 c 0.63,-0.4 1.08,-0.95 1.39,-1.62 0.39,-0.84 0.47,-1.73 0.4,-2.64 -0.15,-1.93 -0.85,-3.69 -1.76,-5.38 -0.18,-0.35 -0.2,-0.21 0.05,-0.52 0.53,-0.67 1.07,-1.33 1.6,-2 0.07,-0.09 0.2,-0.02 0.2,-0.02 0,0 0.58,0.42 0.76,0.75 0.22,0.39 0.42,0.8 0.59,1.22 0.31,0.76 0.53,1.55 0.64,2.37 0.08,0.57 0.13,1.15 0.1,1.73 -0.07,1.41 -0.36,2.77 -1.06,4.01 -0.7,1.23 -1.69,2.12 -3.03,2.61 -0.52,0.19 -1.05,0.3 -1.6,0.36 -0.37,0.04 -0.74,0.05 -1.1,0.02 -0.62,-0.05 -1.22,-0.18 -1.81,-0.39 -0.55,-0.2 -1.07,-0.45 -1.53,-0.8 -0.31,-0.23 -0.62,-0.47 -0.86,-0.79 -0.11,-0.15 -0.26,-0.25 -0.37,-0.4 -0.64,-0.96 -1.09,-2 -1.31,-3.14 -0.19,-0.97 -0.22,-1.94 -0.14,-2.92 0.11,-1.35 0.52,-2.6 1.15,-3.78 0.17,-0.32 1.07,-1.07 1.23,-1.1 0.07,-0.01 0.11,0 0.14,0.06 0.42,0.6 0.93,1.12 1.38,1.69 0.1,0.12 0.26,0.23 0.26,0.38 0,0.13 -0.13,0.27 -0.2,0.4 -0.73,1.31 -1.31,2.69 -1.63,4.16 -0.25,1.15 -0.33,2.32 -0.05,3.48 0.19,0.8 0.57,1.49 1.2,2.04 0.19,0.17 0.4,0.33 0.64,0.43 0.01,0.02 0.03,0.04 0.05,0.02 0.02,-0.02 -0.02,-0.03 -0.03,-0.04 -0.23,-0.27 -0.44,-0.55 -0.63,-0.85 -0.39,-0.65 -0.66,-1.35 -0.77,-2.1 -0.19,-1.3 0,-2.57 0.37,-3.82 0.32,-1.08 0.77,-2.1 1.32,-3.07 0.56,-0.99 1.19,-1.92 1.95,-2.79 0.21,0.26 0.4,0.53 0.58,0.8 0.75,1.1 1.47,2.22 2.02,3.44 0.48,1.05 0.86,2.14 1.04,3.29 0.22,1.44 0.09,2.84 -0.64,4.13 -0.16,0.28 -0.36,0.53 -0.55,0.79 -0.02,0.02 -0.03,0.03 -0.05,0.05 0,0 0,0 -0.01,0 0,0 0,0 0,0 0,0 0,-0.01 0,-0.02 0.03,0.02 0.05,0 0.07,-0.02"
         style="fill:#b4c001;stroke-width:0px" />
      <path
         id="path9-2"
         data-name="path9"
         class="cls-3"
         d="m 183.68,388.74 -0.03,0.03 c 0,0 -0.08,0 -0.06,0.07 -0.02,0 -0.04,0 -0.03,0.03 -0.15,0.05 -0.27,0.15 -0.41,0.22 -0.95,0.35 -1.91,0.33 -2.87,0.04 -0.29,-0.09 -0.56,-0.21 -0.85,-0.29 -0.91,-0.25 -1.83,-0.31 -2.77,-0.28 -0.99,0.03 -1.94,0.2 -2.86,0.58 -0.75,0.31 -1.54,0.44 -2.36,0.4 -0.19,0 -0.39,-0.06 -0.58,-0.02 0.11,0.04 0.22,0.07 0.33,0.09 0.94,0.22 1.87,0.22 2.78,-0.15 1.22,-0.5 2.48,-0.66 3.79,-0.53 0.68,0.06 1.34,0.17 1.98,0.38 0.73,0.23 1.47,0.29 2.23,0.2 0.43,-0.05 0.86,-0.15 1.24,-0.38 0.13,-0.06 0.26,-0.13 0.35,-0.25 l 0.03,-0.03 c 0,0 0,-0.07 0.06,-0.07 0.01,0 0.02,-0.02 0.03,-0.03 0,0 0,0 0,0 0,0 0,0 0,0.01 m -12.23,-3.81 c 0.5,-0.52 1.07,-0.97 1.67,-1.37 0.85,-0.56 1.76,-0.98 2.77,-1.18 0.95,-0.18 1.88,-0.09 2.79,0.21 1.41,0.46 2.63,1.25 3.64,2.33 0.72,0.76 1.32,1.61 1.62,2.64 0.19,0.67 0.15,1.32 -0.28,1.9 -0.3,0.41 -0.69,0.73 -1.13,0.98 -1.08,0.61 -2.23,0.99 -3.46,1.15 -0.8,0.11 -1.61,0.12 -2.42,0.09 -0.68,-0.03 -1.35,-0.12 -2.02,-0.25 -0.72,-0.14 -1.42,-0.32 -2.1,-0.6 -0.61,-0.25 -1.19,-0.54 -1.69,-0.98 -0.25,-0.22 -0.51,-0.43 -0.67,-0.73 -0.17,-0.32 -0.25,-0.65 -0.26,-1 0,-0.43 0.09,-0.85 0.26,-1.25 0.08,-0.18 0.18,-0.36 0.27,-0.54 0.02,0.01 0.04,0.02 0.04,-0.02 v 0 c 0.2,-0.1 0.36,-0.25 0.53,-0.38 1.08,-0.8 2.21,-1.53 3.44,-2.09 0.89,-0.4 1.8,-0.7 2.78,-0.77 0.77,-0.05 1.52,0.03 2.25,0.3 0.13,0.05 0.26,0.1 0.39,0.15 -0.18,-0.16 -0.38,-0.27 -0.59,-0.37 -0.84,-0.39 -1.71,-0.53 -2.63,-0.44 -0.83,0.08 -1.61,0.32 -2.37,0.64 -0.95,0.4 -1.83,0.93 -2.67,1.52 -0.05,0.03 -0.09,0.09 -0.17,0.07"
         style="fill:#facb01;stroke-width:0px" />
      <path
         id="path11-2"
         data-name="path11"
         class="cls-3"
         d="m 167.75,423.81 c 0.57,0.19 1.13,0.4 1.7,0.57 1.52,0.46 3.07,0.8 4.65,1.02 0.34,0.05 0.68,0.09 1.04,0.13 -0.12,0.19 -0.25,0.36 -0.4,0.52 -0.43,0.47 -0.92,0.87 -1.47,1.19 -0.87,0.49 -1.79,0.82 -2.79,0.94 -1.08,0.12 -2.15,0.17 -3.23,0.13 -1.08,-0.04 -2.15,-0.16 -3.22,-0.32 -1.21,-0.18 -2.4,-0.44 -3.56,-0.82 -0.42,-0.14 -0.84,-0.29 -1.23,-0.51 -0.08,-0.04 -0.15,-0.1 -0.24,-0.16 0.14,-0.03 0.25,-0.05 0.37,-0.07 -0.2,-0.13 -0.46,-0.11 -0.6,0.05 -0.18,0.21 -0.27,0.46 -0.38,0.73 -0.14,-0.17 -0.22,-0.37 -0.28,-0.56 -0.08,-0.23 -0.13,-0.48 -0.1,-0.72 0.05,-0.39 0.21,-0.71 0.53,-0.96 0.53,-0.41 1.15,-0.48 1.79,-0.52 0.91,-0.06 1.82,0.02 2.73,-0.03 0.68,-0.03 1.37,-0.08 2.01,-0.34 0.45,-0.18 0.81,-0.48 1.09,-0.87 0.03,-0.04 0.04,-0.12 0.13,-0.07 0.38,0.21 0.79,0.37 1.18,0.56 -0.02,0.02 -0.03,0.04 -0.05,0.06 -0.51,0.32 -1.05,0.61 -1.61,0.84 -0.57,0.24 -1.15,0.32 -1.76,0.21 -0.28,-0.05 -0.56,-0.08 -0.85,-0.11 -0.87,-0.09 -1.74,-0.07 -2.6,-0.03 -0.58,0.03 -1.17,0.08 -1.72,0.28 -0.1,0.04 -0.21,0.06 -0.29,0.14 0.03,0.03 0.05,0.02 0.08,0.01 0.67,-0.22 1.36,-0.26 2.06,-0.23 1.08,0.04 2.15,0.21 3.22,0.36 0.95,0.13 1.83,0 2.65,-0.53 0.41,-0.27 0.79,-0.58 1.17,-0.88"
         style="fill:#facb01;stroke-width:0px" />
      <path
         id="path13-2"
         data-name="path13"
         class="cls-3"
         d="m 186.69,423.83 c 0.4,-0.18 0.81,-0.34 1.2,-0.55 0.05,-0.03 0.07,0 0.1,0.03 0.18,0.28 0.43,0.48 0.72,0.61 0.4,0.19 0.82,0.33 1.27,0.39 0.94,0.14 1.89,0.11 2.83,0.1 0.57,0 1.16,-0.02 1.72,0.12 0.3,0.07 0.59,0.19 0.83,0.4 0.24,0.21 0.4,0.47 0.45,0.79 0.05,0.3 0,0.6 -0.09,0.88 -0.05,0.15 -0.11,0.29 -0.17,0.44 0,0.03 -0.03,0.05 -0.05,0.05 -0.03,0 -0.03,-0.03 -0.04,-0.05 -0.09,-0.2 -0.17,-0.4 -0.32,-0.57 -0.07,-0.08 -0.13,-0.13 -0.25,-0.12 -0.16,0.02 -0.32,-0.03 -0.52,0.04 0.19,0.08 0.37,0.06 0.54,0.15 -0.1,0.06 -0.19,0.14 -0.29,0.19 -0.78,0.41 -1.63,0.65 -2.48,0.85 -2.13,0.5 -4.29,0.75 -6.48,0.73 -0.75,0 -1.51,-0.05 -2.25,-0.16 -0.99,-0.14 -1.94,-0.44 -2.81,-0.93 -0.43,-0.24 -0.82,-0.55 -1.16,-0.91 -0.19,-0.2 -0.38,-0.4 -0.54,-0.63 -0.03,-0.04 -0.05,-0.08 -0.08,-0.14 2.64,-0.22 5.2,-0.74 7.67,-1.66 0.06,0.11 0.17,0.17 0.26,0.25 1.02,0.86 2.16,1.28 3.51,1.08 0.66,-0.1 1.32,-0.21 1.98,-0.3 1.05,-0.14 2.09,-0.26 3.14,0.14 -0.06,-0.08 -0.13,-0.11 -0.19,-0.15 -0.2,-0.1 -0.4,-0.16 -0.62,-0.19 -1.34,-0.19 -2.69,-0.18 -4.03,0.01 -0.43,0.06 -0.86,0.14 -1.3,0.09 -0.94,-0.11 -1.77,-0.49 -2.55,-1"
         style="fill:#facb01;stroke-width:0px" />
      <path
         id="path15-2"
         data-name="path15"
         class="cls-6"
         d="m 168.48,379.43 c 0.11,-0.32 0.26,-0.59 0.42,-0.86 0.4,-0.67 0.89,-1.26 1.45,-1.8 0.52,-0.5 1.11,-0.92 1.75,-1.26 0.77,-0.41 1.57,-0.73 2.42,-0.93 0.52,-0.12 1.04,-0.19 1.57,-0.25 0.66,-0.07 1.31,-0.06 1.97,-0.05 0.29,0 0.58,0.06 0.88,0.09 0.69,0.09 1.37,0.23 2.03,0.46 0.93,0.32 1.79,0.77 2.53,1.41 0.63,0.55 1.15,1.19 1.55,1.94 0.49,0.92 0.78,1.89 0.93,2.91 0.06,0.4 0.08,0.81 0.11,1.22 0.03,0.35 0.02,0.69 0,1.04 -0.01,0.16 -0.04,0.32 -0.03,0.49 0,0.09 -0.04,0.08 -0.1,0.04 -0.16,-0.11 -0.27,-0.28 -0.42,-0.4 -0.18,-0.15 -0.35,-0.32 -0.55,-0.45 -0.09,-0.06 -0.12,-0.14 -0.1,-0.25 0.07,-0.42 0.11,-0.83 0.09,-1.25 -0.05,-1.22 -0.32,-2.39 -1,-3.42 -0.5,-0.75 -1.13,-1.36 -2.02,-1.64 -0.47,-0.15 -0.95,-0.16 -1.42,0.02 -0.33,0.13 -0.55,0.38 -0.75,0.65 -0.41,0.58 -0.66,1.23 -0.92,1.88 -0.09,0.22 -0.17,0.44 -0.22,0.67 -0.02,0.13 -0.12,0.14 -0.22,0.11 -0.43,-0.1 -0.86,-0.19 -1.3,-0.26 -0.39,-0.06 -0.78,-0.12 -1.17,-0.15 -0.12,0 -0.23,-0.02 -0.34,-0.03 -0.09,0 -0.09,-0.07 -0.11,-0.13 -0.12,-0.47 -0.26,-0.92 -0.5,-1.34 -0.29,-0.53 -0.64,-1.01 -1.2,-1.28 -0.77,-0.37 -1.5,-0.28 -2.18,0.24 -0.63,0.48 -1.04,1.12 -1.37,1.83 -0.05,0.1 -0.1,0.2 -0.12,0.31 -0.04,0.13 -0.12,0.19 -0.25,0.2 -0.45,0.03 -0.88,0.14 -1.31,0.24 -0.03,0 -0.06,0 -0.11,0"
         style="fill:#212020;stroke-width:0px" />
      <path
         id="path17-2"
         data-name="path17"
         class="cls-8"
         d="m 194.21,380.03 v 0 c 0.1,-0.56 0.29,-1.1 0.49,-1.63 0.04,-0.11 0.08,-0.22 0.13,-0.33 0.02,-0.04 0.01,-0.11 0.07,-0.11 0.03,0 0.06,0.05 0.08,0.09 0.14,0.24 0.27,0.47 0.41,0.71 0.29,0.51 0.58,1.02 0.9,1.51 0.02,0.04 0.06,0.07 0.09,0.11 0.06,-0.07 0,-0.12 0,-0.17 -0.07,-0.5 -0.08,-1.01 -0.06,-1.52 0.02,-0.74 0.16,-1.45 0.36,-2.16 0.29,-1.03 0.76,-1.98 1.33,-2.88 0.29,-0.46 0.63,-0.88 0.98,-1.3 0.15,-0.18 0.21,-0.17 0.37,0 0.44,0.46 0.77,0.98 1.09,1.52 0.76,1.24 1.25,2.58 1.41,4.03 0.05,0.44 0.08,0.88 0.05,1.33 -0.02,0.43 -0.04,0.86 -0.13,1.29 0,0.03 -0.04,0.06 0,0.08 0.04,0.01 0.05,-0.02 0.07,-0.05 0.39,-0.65 0.78,-1.3 1.17,-1.96 0.1,-0.17 0.21,-0.35 0.31,-0.52 0.02,-0.03 0.03,-0.08 0.07,-0.07 0.04,0 0.04,0.05 0.06,0.08 0.22,0.54 0.4,1.1 0.54,1.67 0.02,0.09 0.04,0.18 0.07,0.3 -0.19,-0.2 -0.41,-0.3 -0.63,-0.42 -0.25,-0.14 -0.18,-0.16 -0.37,0.08 -0.62,0.76 -1.24,1.53 -1.88,2.3 -0.16,-0.24 -0.31,-0.48 -0.46,-0.72 -0.4,-0.61 -0.81,-1.22 -1.28,-1.78 -0.34,-0.4 -0.27,-0.34 -0.57,-0.01 -0.56,0.63 -1.06,1.31 -1.53,2.01 -0.07,0.11 -0.11,0.11 -0.19,0 -0.53,-0.64 -1.08,-1.22 -1.62,-1.86 -0.05,-0.06 -0.22,-0.26 -0.23,-0.26 0,0 -0.93,0.53 -1.09,0.65"
         style="fill:#b4c001;stroke-width:0px" />
      <path
         id="path19-2"
         data-name="path19"
         class="cls-11"
         d="m 200.63,401.39 c 0.13,0.12 0.27,0.23 0.4,0.35 0.89,0.75 1.38,1.71 1.62,2.83 0.13,0.61 0.16,1.22 0.03,1.82 -0.16,0.72 -0.5,1.36 -1.11,1.81 -0.33,0.24 -0.72,0.38 -1.13,0.36 -0.33,-0.02 -0.65,-0.11 -0.9,-0.35 -0.33,-0.31 -0.3,-0.75 -0.03,-1.08 0.23,-0.28 0.54,-0.47 0.81,-0.71 0.23,-0.2 0.5,-0.35 0.67,-0.63 -0.16,0 -0.29,0.05 -0.42,0.1 -0.31,0.14 -0.59,0.33 -0.88,0.51 -0.5,0.31 -1.03,0.52 -1.62,0.59 -0.44,0.05 -0.83,-0.04 -1.19,-0.3 -0.26,-0.18 -0.33,-0.49 -0.2,-0.79 0.2,-0.45 0.54,-0.75 0.95,-1.01 0.52,-0.33 1.06,-0.64 1.56,-1 0.18,-0.13 0.34,-0.29 0.52,-0.46 -0.23,0.02 -0.45,0.06 -0.65,0.12 -0.48,0.14 -0.91,0.37 -1.35,0.61 -0.33,0.18 -0.66,0.34 -1.03,0.41 -0.51,0.1 -0.99,-0.32 -0.99,-0.79 0,-0.34 0.14,-0.61 0.33,-0.87 0.32,-0.43 0.72,-0.78 1.15,-1.12 0.34,-0.27 0.7,-0.52 1.09,-0.71 0.46,-0.23 0.93,-0.36 1.45,-0.19 0.04,0.01 0.09,0.03 0.13,0.04 0.26,0.12 0.5,0.27 0.74,0.42 0.02,0.01 0.03,0.02 0.05,0.04"
         style="fill:#ffffff;stroke-width:0px" />
      <path
         id="path21-2"
         data-name="path21"
         class="cls-6"
         d="m 201.05,401.14 c 0.13,0.12 0.27,0.23 0.4,0.35 0.89,0.75 1.38,1.71 1.62,2.83 0.13,0.61 0.16,1.22 0.03,1.82 -0.16,0.72 -0.5,1.36 -1.11,1.81 -0.33,0.24 -0.72,0.38 -1.13,0.36 -0.33,-0.02 -0.65,-0.11 -0.9,-0.35 -0.33,-0.31 -0.3,-0.75 -0.03,-1.08 0.23,-0.28 0.54,-0.47 0.81,-0.71 0.23,-0.2 0.5,-0.35 0.67,-0.63 -0.16,0 -0.29,0.05 -0.42,0.1 -0.31,0.14 -0.59,0.33 -0.88,0.51 -0.5,0.31 -1.03,0.52 -1.62,0.59 -0.44,0.05 -0.83,-0.04 -1.19,-0.3 -0.26,-0.18 -0.33,-0.49 -0.2,-0.79 0.2,-0.45 0.54,-0.75 0.95,-1.01 0.52,-0.33 1.06,-0.64 1.56,-1 0.18,-0.13 0.34,-0.29 0.52,-0.46 -0.23,0.02 -0.45,0.06 -0.65,0.12 -0.48,0.14 -0.91,0.37 -1.35,0.61 -0.33,0.18 -0.66,0.34 -1.03,0.41 -0.51,0.1 -0.99,-0.32 -0.99,-0.79 0,-0.34 0.14,-0.61 0.33,-0.87 0.32,-0.43 0.72,-0.78 1.15,-1.12 0.34,-0.27 0.7,-0.52 1.09,-0.71 0.46,-0.23 0.93,-0.36 1.45,-0.19 0.04,0.01 0.09,0.03 0.13,0.04 0.26,0.12 0.5,0.27 0.74,0.42 0.02,0.01 0.03,0.02 0.05,0.04"
         style="fill:#212020;stroke-width:0px" />
      <path
         id="path23-2"
         data-name="path23"
         class="cls-8"
         d="m 199.81,422.49 c 0,0.26 -0.02,0.52 -0.02,0.77 0,0.84 -0.01,1.68 0,2.51 0,0.39 -0.04,0.79 -0.03,1.18 0,0.1 -0.05,0.14 -0.13,0.18 -0.34,0.15 -0.68,0.12 -1.02,0 -0.12,-0.05 -0.19,-0.14 -0.18,-0.29 0.02,-0.18 0,-0.36 0,-0.54 0,-6.08 -0.02,-12.16 -0.02,-18.23 -0.04,-1.2 0,-0.53 0.33,-0.71 0.05,-0.03 0.05,0.55 0.06,0.59 0.14,0.52 0.51,0.82 1.01,0.96 0.09,0.03 0.1,0.07 0.1,0.14 -0.02,1.57 -0.04,3.13 -0.05,4.7 -0.01,1.58 -0.02,3.15 -0.03,4.73 0,1.12 -0.01,2.23 -0.02,3.35 0,0.05 0,0.09 0,0.14 -0.02,0.18 -0.02,0.35 0,0.53"
         style="fill:#b4c001;stroke-width:0px" />
      <path
         id="path25-2"
         data-name="path25"
         class="cls-11"
         d="m 175.49,373.01 c -0.7,0.14 -1.37,0.36 -2.02,0.65 -0.73,0.32 -1.42,0.72 -2.05,1.21 -1.05,0.81 -1.9,1.8 -2.56,2.96 -0.71,1.24 -1.17,2.58 -1.47,3.97 -0.15,0.69 -0.26,1.39 -0.32,2.1 -0.04,0.44 -0.07,0.88 -0.09,1.32 -0.04,0.66 -0.07,1.33 -0.13,1.99 -0.09,0.96 -0.19,1.91 -0.37,2.85 -0.28,1.47 -0.66,2.91 -1.38,4.24 -0.42,0.77 -0.87,1.52 -1.29,2.29 -0.38,0.68 -0.74,1.37 -1.08,2.08 -0.61,1.27 -1.15,2.56 -1.57,3.91 -0.32,1.02 -0.59,2.05 -0.78,3.11 -0.13,0.7 -0.22,1.4 -0.29,2.11 -0.08,0.91 -0.09,1.82 -0.05,2.73 0.03,0.71 0.12,1.41 0.24,2.12 0.15,0.95 0.37,1.88 0.64,2.8 0.27,0.93 0.63,1.83 1.04,2.7 0.02,0.03 0.04,0.06 0.05,0.09 v 0 c -0.08,0.06 -0.08,-0.03 -0.1,-0.06 -0.29,-0.42 -0.54,-0.88 -0.75,-1.35 -0.63,-1.41 -1.02,-2.89 -1.27,-4.41 -0.25,-1.51 -0.35,-3.02 -0.28,-4.55 0.08,-1.69 0.31,-3.36 0.88,-4.97 0.23,-0.63 0.49,-1.25 0.75,-1.87 0.23,-0.56 0.49,-1.11 0.75,-1.66 0.2,-0.44 0.43,-0.87 0.66,-1.3 0.3,-0.58 0.6,-1.17 0.93,-1.73 0.34,-0.58 0.68,-1.16 1.01,-1.74 0.6,-1.05 0.95,-2.19 1.21,-3.37 0.29,-1.27 0.44,-2.56 0.55,-3.86 0.1,-1.24 0.15,-2.48 0.25,-3.72 0.13,-1.64 0.33,-3.27 0.85,-4.84 0.39,-1.17 0.95,-2.24 1.77,-3.17 1.06,-1.2 2.4,-1.91 3.93,-2.3 0.77,-0.2 1.55,-0.3 2.34,-0.34 0,0.02 0,0.03 0,0.05"
         style="fill:#ffffff;stroke-width:0px" />
      <path
         id="path27-2"
         data-name="path27"
         class="cls-11"
         d="m 179.71,381.11 c -0.05,0.18 -0.06,0.37 -0.08,0.56 -0.06,-0.16 -0.07,-0.33 -0.11,-0.49 -0.05,-0.22 -0.05,-0.45 -0.1,-0.67 -0.03,-0.13 0,-0.26 0,-0.39 0,-0.33 -0.03,-0.65 0,-0.98 0.06,-0.63 0.17,-1.26 0.54,-1.8 0.26,-0.38 0.62,-0.57 1.07,-0.6 0.67,-0.04 1.18,0.27 1.64,0.71 0.62,0.59 1.01,1.32 1.27,2.13 0.16,0.51 0.25,1.03 0.29,1.56 0.08,0.99 -0.07,1.93 -0.44,2.85 -0.16,0.39 -0.37,0.76 -0.63,1.09 -0.05,0.06 -0.07,0.11 -0.15,0.01 -0.34,-0.44 -0.73,-0.83 -1.15,-1.2 -0.08,-0.07 -0.11,-0.11 -0.05,-0.23 0.27,-0.58 0.41,-1.19 0.41,-1.83 0.02,-0.66 -0.07,-1.3 -0.35,-1.9 -0.12,-0.26 -0.28,-0.49 -0.52,-0.66 -0.39,-0.26 -0.95,-0.1 -1.14,0.34 0.02,0 0.03,0 0.05,0 0.41,-0.06 0.81,-0.01 1.18,0.19 0.04,0.02 0.11,0.05 0.09,0.11 -0.01,0.05 -0.07,0.05 -0.12,0.07 -0.42,0.13 -0.85,0.16 -1.27,0.03 -0.11,-0.04 -0.14,0 -0.18,0.09 -0.12,0.33 -0.21,0.67 -0.26,1.02"
         style="fill:#ffffff;stroke-width:0px" />
      <path
         id="path29-2"
         data-name="path29"
         class="cls-11"
         d="m 172.04,382.19 c 0,0.43 0.12,0.84 0.25,1.24 0.04,0.13 0.01,0.2 -0.09,0.27 -0.36,0.26 -0.68,0.57 -1,0.88 -0.09,0.09 -0.16,0.21 -0.28,0.29 -0.2,-0.29 -0.36,-0.61 -0.49,-0.94 -0.16,-0.4 -0.28,-0.82 -0.35,-1.24 -0.08,-0.5 -0.09,-1.02 -0.07,-1.53 0.03,-1.01 0.29,-1.96 0.77,-2.85 0.18,-0.33 0.4,-0.65 0.68,-0.91 0.27,-0.25 0.56,-0.48 0.93,-0.56 0.63,-0.14 1.07,0.01 1.53,0.55 0.49,0.58 0.71,1.28 0.86,2.01 0.18,0.86 0.25,1.74 0.24,2.62 0,0.14 -0.03,0.23 -0.18,0.25 -0.07,0.01 -0.14,0.04 -0.2,0.07 -0.08,0.04 -0.09,0 -0.07,-0.05 0.07,-0.21 0.03,-0.43 0.02,-0.64 0,-0.22 -0.04,-0.43 -0.07,-0.64 -0.06,-0.43 -0.19,-0.85 -0.4,-1.24 -0.11,-0.2 -0.24,-0.37 -0.43,-0.5 -0.42,-0.29 -0.94,-0.09 -1.18,0.37 0.01,0 0.02,0 0.03,0 0.03,0 0.05,-0.01 0.08,-0.02 0.45,-0.09 0.89,-0.07 1.31,0.14 0.05,0.03 0.12,0.05 0.12,0.11 0,0.07 -0.09,0.07 -0.14,0.08 -0.33,0.1 -0.66,0.11 -1,0.11 -0.17,-0.02 -0.33,-0.05 -0.48,-0.14 -0.07,-0.05 -0.1,-0.02 -0.13,0.06 -0.25,0.6 -0.33,1.23 -0.3,1.88 0,0.11 0,0.21 0.02,0.32"
         style="fill:#ffffff;stroke-width:0px" />
      <path
         id="path31-2"
         data-name="path31"
         class="cls-11"
         d="m 196.2,400.97 c -0.46,-0.78 -1.06,-1.45 -1.71,-2.07 -0.49,-0.47 -0.95,-0.97 -1.46,-1.43 -1.19,-1.05 -2.44,-2.03 -3.73,-2.97 -1.11,-0.81 -2.26,-1.57 -3.44,-2.3 -0.11,-0.07 -0.23,-0.13 -0.35,-0.2 0.06,-0.03 0.1,-0.02 0.15,0 2.59,0.9 4.98,2.17 7.11,3.91 1.01,0.83 1.92,1.75 2.64,2.85 0.41,0.63 0.68,1.32 0.79,2.07 0,0.02 0,0.04 0,0.06 0,0.02 0,0.05 0,0.07"
         style="fill:#ffffff;stroke-width:0px" />
      <path
         id="path33-2"
         data-name="path33"
         class="cls-8"
         d="m 198.39,400.5 c 0,-0.18 0,-0.34 0,-0.5 0,-1.66 0,-3.33 0,-4.99 0,-0.13 0.01,-0.18 0.16,-0.14 0.41,0.1 0.83,0.09 1.25,0 0.14,-0.03 0.17,0 0.17,0.13 -0.01,1.76 -0.02,3.52 -0.03,5.28 0,0.12 -0.02,0.14 -0.14,0.1 -0.47,-0.13 -0.93,-0.08 -1.41,0.13"
         style="fill:#b4c001;stroke-width:0px" />
      <path
         id="path35-2"
         data-name="path35"
         class="cls-6"
         d="m 158.86,395.67 c 0.06,0.03 0.11,0 0.16,-0.03 0.4,-0.3 0.84,-0.55 1.28,-0.77 0.45,-0.22 0.92,-0.41 1.38,-0.61 0.39,-0.17 0.78,-0.32 1.18,-0.44 0.43,-0.13 0.86,-0.29 1.29,-0.4 0.02,0 0.04,0 0.11,0 -0.19,0.09 -0.33,0.17 -0.47,0.24 -0.96,0.47 -1.91,0.98 -2.83,1.54 -0.76,0.46 -1.49,0.96 -2.21,1.48 -0.59,0.43 -1.16,0.88 -1.72,1.35 -0.33,0.28 -0.66,0.57 -0.98,0.87 -0.41,0.37 -0.79,0.76 -1.17,1.15 -0.44,0.45 -0.85,0.93 -1.25,1.42 -0.36,0.44 -0.69,0.9 -1.01,1.37 -0.02,0.03 -0.03,0.08 -0.1,0.07 0.01,-0.18 0.17,-0.33 0.14,-0.52 0,0 0,-0.02 0,-0.03 0,-0.01 0.02,-0.03 0.03,-0.04 0.72,-1.29 1.55,-2.5 2.59,-3.56 0.72,-0.73 1.48,-1.41 2.28,-2.07 0,0.03 0.03,0.07 0.06,0.04 0.05,-0.05 0.14,-0.08 0.1,-0.18 h 0.01 c 0.15,0 0.36,-0.17 0.37,-0.32 0,0 0,-0.01 0.01,0 0.14,0.02 0.3,-0.11 0.3,-0.24 0,0 0,-0.01 0.01,-0.01 0.14,0.02 0.27,-0.08 0.27,-0.21 v 0 c 0,0 0,0 0,0 0.08,0.03 0.14,0.03 0.12,-0.09 v 0 z"
         style="fill:#212020;stroke-width:0px" />
      <path
         id="path37-2"
         data-name="path37"
         class="cls-11"
         d="m 157.59,396.7 c -0.79,0.65 -1.56,1.34 -2.28,2.07 -1.04,1.06 -1.87,2.27 -2.59,3.56 -0.02,0 -0.03,0.01 -0.03,0.04 0,0 0,0.02 0,0.03 -0.36,0.61 -0.67,1.25 -0.95,1.91 -0.2,0.46 -0.37,0.93 -0.48,1.42 -0.01,0 -0.02,0 -0.03,0 0,-0.24 0.08,-0.46 0.15,-0.69 0.13,-0.46 0.26,-0.93 0.44,-1.37 0.58,-1.4 1.27,-2.73 2.13,-3.98 0.95,-1.36 2.04,-2.58 3.41,-3.54 1.13,-0.8 2.35,-1.4 3.63,-1.9 0.24,-0.09 0.49,-0.18 0.74,-0.26 0.01,0.01 0.03,0.02 0.04,0.03 -1.03,0.42 -1.96,0.99 -2.87,1.63 -0.01,0 -0.02,0.02 -0.03,0.04 v 0 c 0,0 -0.08,0.06 -0.12,0.09 v 0 c 0,0 0,0 0,0 -0.09,0.07 -0.18,0.14 -0.27,0.21 0,0 -0.01,0 -0.01,0.01 -0.1,0.08 -0.2,0.16 -0.3,0.24 0,0 -0.01,0 -0.01,0 -0.12,0.1 -0.25,0.2 -0.37,0.31 h -0.01 c -0.05,0.06 -0.11,0.1 -0.16,0.15"
         style="fill:#ffffff;stroke-width:0px" />
      <path
         id="path39-2"
         data-name="path39"
         class="cls-11"
         d="m 171.45,384.95 c 0.07,0.02 0.12,-0.04 0.17,-0.07 0.84,-0.59 1.72,-1.12 2.67,-1.52 0.76,-0.32 1.54,-0.56 2.37,-0.64 0.91,-0.09 1.79,0.04 2.63,0.44 0.21,0.1 0.42,0.21 0.6,0.37 -0.13,-0.05 -0.26,-0.1 -0.39,-0.15 -0.73,-0.27 -1.48,-0.35 -2.25,-0.3 -0.98,0.07 -1.89,0.37 -2.78,0.77 -1.23,0.56 -2.35,1.29 -3.44,2.09 -0.18,0.13 -0.34,0.28 -0.53,0.39 0.08,-0.26 0.25,-0.47 0.4,-0.69 0.15,-0.21 0.31,-0.4 0.47,-0.6 0,0 0,0 0,0 0.03,-0.03 0.06,-0.06 0.09,-0.09"
         style="fill:#ffffff;stroke-width:0px" />
      <path
         id="path41-2"
         data-name="path41"
         class="cls-6"
         d="m 179.71,381.11 c 0.05,-0.35 0.14,-0.69 0.26,-1.02 0.03,-0.09 0.07,-0.12 0.18,-0.09 0.42,0.13 0.85,0.1 1.27,-0.03 0.04,-0.01 0.1,-0.02 0.12,-0.07 0.01,-0.06 -0.05,-0.09 -0.09,-0.11 -0.37,-0.2 -0.77,-0.24 -1.18,-0.19 -0.02,0 -0.03,0 -0.05,0 0.19,-0.44 0.75,-0.6 1.14,-0.34 0.24,0.16 0.4,0.4 0.52,0.66 0.28,0.6 0.38,1.24 0.35,1.9 -0.26,0.17 -0.53,0.27 -0.85,0.22 0,-0.08 0,-0.16 0,-0.24 0.03,-0.37 0.06,-0.31 -0.29,-0.3 -0.06,-0.25 -0.22,-0.43 -0.41,-0.58 -0.24,-0.19 -0.6,-0.16 -0.82,0.05 -0.04,0.04 -0.08,0.1 -0.15,0.11"
         style="fill:#212020;stroke-width:0px" />
      <path
         id="path43-2"
         data-name="path43"
         class="cls-11"
         d="m 167.75,423.81 c -0.39,0.3 -0.76,0.61 -1.17,0.88 -0.81,0.53 -1.7,0.66 -2.65,0.53 -1.07,-0.15 -2.14,-0.31 -3.22,-0.36 -0.7,-0.03 -1.39,0.02 -2.06,0.23 -0.02,0 -0.05,0.02 -0.08,-0.01 0.08,-0.08 0.19,-0.1 0.29,-0.14 0.56,-0.2 1.14,-0.25 1.72,-0.28 0.87,-0.05 1.74,-0.06 2.6,0.03 0.28,0.03 0.57,0.06 0.85,0.11 0.61,0.11 1.19,0.03 1.76,-0.21 0.56,-0.24 1.09,-0.52 1.61,-0.84 0.02,-0.01 0.04,-0.04 0.05,-0.06 0.1,0.02 0.2,0.05 0.29,0.12"
         style="fill:#ffffff;stroke-width:0px" />
      <path
         id="path45-2"
         data-name="path45"
         class="cls-11"
         d="m 186.69,423.83 c 0.78,0.51 1.61,0.89 2.55,1 0.44,0.05 0.87,-0.03 1.3,-0.09 1.34,-0.19 2.69,-0.2 4.03,-0.01 0.21,0.03 0.42,0.1 0.62,0.19 0.06,0.03 0.13,0.07 0.19,0.15 -1.05,-0.4 -2.1,-0.28 -3.14,-0.14 -0.66,0.09 -1.32,0.2 -1.98,0.3 -1.34,0.21 -2.49,-0.22 -3.51,-1.08 -0.09,-0.08 -0.2,-0.13 -0.26,-0.25 0.07,-0.02 0.14,-0.05 0.2,-0.07"
         style="fill:#ffffff;stroke-width:0px" />
      <path
         id="path47-2"
         data-name="path47"
         class="cls-11"
         d="m 151.35,406.85 c 0.26,0.1 0.5,0 0.73,-0.07 1.08,-0.37 2.04,-0.93 2.91,-1.67 1.37,-1.17 2.84,-2.18 4.44,-3.01 0.25,-0.13 0.51,-0.26 0.76,-0.4 0.08,-0.04 0.16,-0.05 0.24,-0.07 -0.76,0.6 -1.45,1.29 -2.28,1.79 -1.42,0.85 -2.82,1.72 -4.2,2.62 -0.62,0.4 -1.3,0.71 -2.03,0.86 -0.18,0.04 -0.37,0.04 -0.56,-0.01 v -0.04"
         style="fill:#ffffff;stroke-width:0px" />
      <path
         id="path49-2"
         data-name="path49"
         class="cls-6"
         d="m 172.93,380.08 c 0.34,0 0.67,0 1,-0.11 0.05,-0.02 0.13,-0.02 0.14,-0.08 0,-0.06 -0.07,-0.09 -0.12,-0.11 -0.42,-0.21 -0.86,-0.23 -1.31,-0.14 -0.03,0 -0.05,0.01 -0.08,0.02 0,0 -0.02,0 -0.03,0 0.24,-0.46 0.76,-0.66 1.18,-0.37 0.19,0.13 0.32,0.3 0.43,0.5 0.21,0.39 0.33,0.8 0.4,1.24 -0.24,-0.09 -0.43,-0.26 -0.64,-0.39 -0.3,-0.18 -0.6,-0.35 -0.92,-0.49 -0.03,-0.01 -0.04,-0.03 -0.05,-0.05"
         style="fill:#212020;stroke-width:0px" />
      <path
         id="path51-2"
         data-name="path51"
         class="cls-11"
         d="m 180.27,373.31 c 1.38,-0.13 3.73,1.25 4.26,2.54 -0.57,-0.63 -1.22,-1.15 -1.95,-1.57 -0.73,-0.43 -1.49,-0.77 -2.31,-0.96"
         style="fill:#ffffff;stroke-width:0px" />
      <path
         id="path53-2"
         data-name="path53"
         class="cls-11"
         d="m 181.09,381.53 c 0.35,-0.01 0.33,-0.08 0.29,0.3 0,0.08 0,0.16 0,0.24 -0.07,0.38 -0.17,0.74 -0.38,1.07 -0.03,0.04 -0.03,0.13 -0.1,0.1 -0.06,-0.02 -0.04,-0.09 -0.03,-0.15 0.11,-0.51 0.19,-1.03 0.23,-1.55"
         style="fill:#ffffff;stroke-width:0px" />
      <path
         id="path55-2"
         data-name="path55"
         class="cls-11"
         d="m 173.12,383.05 c -0.13,-0.13 -0.17,-0.31 -0.21,-0.47 -0.09,-0.37 -0.19,-0.75 -0.17,-1.14 0,-0.08 0,-0.13 0.11,-0.11 0.1,0.02 0.24,-0.03 0.3,0.03 0.07,0.06 -0.03,0.19 -0.01,0.29 0,0.03 0,0.06 0,0.09 -0.02,0.09 -0.03,0.19 -0.02,0.29 0,0.17 0,0.34 0,0.51 0,0.02 0,0.04 0,0.06 0,0.04 0,0.08 0,0.13 0,0.11 0,0.22 0,0.33"
         style="fill:#ffffff;stroke-width:0px" />
      <path
         id="path57-2"
         data-name="path57"
         class="cls-6"
         d="m 199.84,400.94 c 0,0 -0.09,-0.03 -0.13,-0.04 -0.03,-0.1 -0.15,-0.11 -0.2,-0.2 -0.03,-0.05 -0.07,-0.1 -0.04,-0.16 0.03,-0.06 0.11,-0.05 0.16,-0.03 0.09,0.03 0.19,0.08 0.25,0.15 0.06,0.07 0.12,0.15 0.2,0.2 0.03,0.02 0.08,0.05 0.05,0.1 -0.03,0.04 -0.07,0 -0.1,0 -0.06,-0.03 -0.13,-0.06 -0.19,0"
         style="fill:#212020;stroke-width:0px" />
      <path
         id="path59-2"
         data-name="path59"
         class="cls-7"
         d="m 151.22,405.71 c 0,0 0.02,0 0.03,0 -0.03,0.14 -0.07,0.28 -0.11,0.43 0,-0.15 0.03,-0.3 0.07,-0.43"
         style="fill:#c8cab5;stroke-width:0px" />
      <path
         id="path61-2"
         data-name="path61"
         class="cls-6"
         d="m 200.52,401.15 c 0,0 -0.03,0.04 -0.06,0.03 -0.05,-0.02 -0.12,-0.04 -0.13,-0.1 0,-0.04 0.03,-0.05 0.07,-0.04 0.06,0.01 0.1,0.06 0.12,0.11"
         style="fill:#212020;stroke-width:0px" />
      <path
         id="path63-2"
         data-name="path63"
         class="cls-6"
         d="m 173.12,383.05 c 0,-0.11 0,-0.22 0,-0.33 0.08,0.11 0.08,0.27 0,0.33"
         style="fill:#212020;stroke-width:0px" />
      <path
         id="path65-2"
         data-name="path65"
         class="cls-6"
         d="m 172.04,382.19 c -0.02,-0.1 -0.03,-0.21 -0.02,-0.32 0.1,0.1 0.06,0.21 0.02,0.32"
         style="fill:#212020;stroke-width:0px" />
      <path
         id="path67-2"
         data-name="path67"
         class="cls-6"
         d="m 173.13,382.03 c 0,-0.1 0,-0.19 0.02,-0.29 0.04,0.1 0.07,0.2 -0.02,0.29"
         style="fill:#212020;stroke-width:0px" />
      <path
         id="path69-2"
         data-name="path69"
         class="cls-7"
         d="m 161.76,394.01 c 0,0 -0.03,-0.02 -0.04,-0.03 0.1,-0.06 0.21,-0.07 0.31,-0.11 0,0 0.01,0.02 0.02,0.02 -0.1,0.04 -0.19,0.08 -0.29,0.12"
         style="fill:#c8cab5;stroke-width:0px" />
      <path
         id="path71-2"
         data-name="path71"
         class="cls-6"
         d="m 199.81,422.49 c -0.02,-0.18 -0.02,-0.35 0,-0.53 0,0.18 0,0.35 0,0.53"
         style="fill:#212020;stroke-width:0px" />
      <path
         id="path73-2"
         data-name="path73"
         class="cls-7"
         d="m 175.49,373.01 c 0,0 0,-0.03 0,-0.05 h 0.23 c -0.07,0.05 -0.15,0.05 -0.23,0.05"
         style="fill:#c8cab5;stroke-width:0px" />
      <path
         id="path75-2"
         data-name="path75"
         class="cls-6"
         d="m 151.23,406.8 c 0,0 -0.03,0 -0.05,0 -0.03,0 -0.07,0 -0.07,-0.05 0,0 0,-0.02 0.01,-0.03 0.04,-0.01 0.06,0.01 0.08,0.04 0.01,0.01 0.02,0.02 0.03,0.04 z"
         style="fill:#212020;stroke-width:0px" />
      <path
         id="path77-2"
         data-name="path77"
         class="cls-6"
         d="m 162.46,393.79 c 0,0 -0.05,0 -0.04,-0.03 0,-0.02 0.03,-0.03 0.05,-0.02 0.01,0 0.03,0.01 0.03,0.02 0,0.03 -0.02,0.03 -0.04,0.03"
         style="fill:#212020;stroke-width:0px" />
      <path
         id="path79-2"
         data-name="path79"
         class="cls-6"
         d="m 162.73,393.7 c 0,0 -0.02,0.02 -0.03,0.01 -0.01,0 -0.02,-0.02 -0.03,-0.03 0,0 0.02,-0.01 0.03,-0.01 0.02,0 0.03,0.01 0.03,0.03"
         style="fill:#212020;stroke-width:0px" />
      <path
         id="path81-2"
         data-name="path81"
         class="cls-6"
         d="m 151.35,406.85 v 0.04 c 0,0 -0.05,0 -0.04,-0.04 0,-0.03 0.03,-0.02 0.04,0"
         style="fill:#212020;stroke-width:0px" />
      <path
         id="path83-2"
         data-name="path83"
         class="cls-6"
         d="m 173.12,382.6 c 0,0 0,-0.04 0,-0.06 l 0.04,0.03 c 0,0 -0.03,0.02 -0.04,0.03"
         style="fill:#212020;stroke-width:0px" />
      <path
         id="path85-2"
         data-name="path85"
         class="cls-2"
         d="m 184.58,375.94 c 0,0 -0.05,-0.03 -0.05,-0.07 0,-0.02 0.01,-0.03 0.03,-0.02 0.03,0.01 0.04,0.04 0.05,0.07 0,0 -0.01,0.01 -0.02,0.02"
         style="fill:#f6f6f2;stroke-width:0px" />
      <path
         id="path87-2"
         data-name="path87"
         class="cls-6"
         d="m 162.61,393.72 c 0,0 0,0.01 -0.01,0.02 0,0 -0.01,0 -0.01,0 0,0 0,-0.01 0,-0.02 0,0 0.01,0 0.02,0.01"
         style="fill:#212020;stroke-width:0px" />
      <path
         id="path89-2"
         data-name="path89"
         class="cls-7"
         d="m 162.18,393.86 c 0,0 -0.02,0 -0.03,-0.01 0,0 0.02,-0.02 0.03,-0.02 0.01,0 0.03,0 0.04,0.01 -0.01,0 -0.03,0.01 -0.04,0.02"
         style="fill:#c8cab5;stroke-width:0px" />
      <path
         id="path91-2"
         data-name="path91"
         class="cls-2"
         d="m 184.6,375.92 c 0,0 0.04,0.05 0.02,0.1 -0.01,-0.03 -0.03,-0.06 -0.04,-0.08 0,0 0.01,-0.01 0.02,-0.02"
         style="fill:#f6f6f2;stroke-width:0px" />
      <path
         id="path93-2"
         data-name="path93"
         class="cls-7"
         d="m 162.03,393.87 c 0,0 0.05,-0.04 0.07,0 -0.02,0 -0.04,0.01 -0.06,0.02 0,0 -0.01,-0.02 -0.02,-0.02"
         style="fill:#c8cab5;stroke-width:0px" />
      <path
         id="path95-2"
         data-name="path95"
         class="cls-2"
         d="m 162.01,418.2 c 0,0 0,0.04 0,0.06 0,0 -0.03,-0.02 -0.03,-0.03 0,-0.03 0,-0.03 0.03,-0.03 0,0 0,0 0,0"
         style="fill:#f6f6f2;stroke-width:0px" />
      <path
         id="path97-2"
         data-name="path97"
         class="cls-6"
         d="m 200.63,401.39 c 0,0 -0.03,-0.02 -0.05,-0.04 0.02,0.01 0.03,0.02 0.05,0.04"
         style="fill:#212020;stroke-width:0px" />
      <path
         id="path99-2"
         data-name="path99"
         class="cls-6"
         d="m 151.23,406.79 c 0,0 0,0 0.01,0 0,0 -0.01,0 -0.02,0 0,0 0,0 0,0"
         style="fill:#212020;stroke-width:0px" />
      <path
         id="path101-2"
         data-name="path101"
         class="cls-2"
         d="m 170.49,386.33 c 0,0 -0.02,0.03 -0.04,0.02 0.01,0 0.03,-0.01 0.04,-0.02"
         style="fill:#f6f6f2;stroke-width:0px" />
      <path
         id="path103-2"
         data-name="path103"
         class="cls-3"
         d="m 171.36,385.05 c 0,0 0,0 0,0 0,0 0,0 0,0"
         style="fill:#facb01;stroke-width:0px" />
      <path
         id="path105-2"
         data-name="path105"
         class="cls-8"
         d="m 194.21,380.03 c 0,0 0,0 0,0 0,0 0,0 0,0"
         style="fill:#b4c001;stroke-width:0px" />
      <path
         id="path107-2"
         data-name="path107"
         class="cls-11"
         d="m 174.59,421.78 c 0.06,-0.05 0.12,-0.03 0.17,-0.03 0.47,0 0.95,0 1.42,0 0.4,0 0.8,-0.03 1.21,-0.03 0.85,0 1.7,-0.03 2.55,0 0.54,0.02 1.09,-0.03 1.63,0.08 0.04,0 0.1,-0.01 0.1,0.05 0,0.05 -0.05,0.04 -0.09,0.05 -0.42,0.09 -0.84,0.16 -1.27,0.21 -0.64,0.07 -1.29,0.11 -1.94,0.09 -0.83,-0.02 -1.67,-0.05 -2.5,-0.18 -0.39,-0.06 -0.78,-0.11 -1.16,-0.2 -0.05,-0.01 -0.1,0 -0.13,-0.07"
         style="fill:#ffffff;stroke-width:0px" />
      <path
         id="path109-2"
         data-name="path109"
         class="cls-2"
         d="m 196.57,388.92 c 0,0 0,0.05 0,0.07 -0.02,0 -0.03,0 -0.05,0 -0.22,-1.33 -0.11,-2.63 0.32,-3.91 0.33,-0.98 0.78,-1.91 1.24,-2.83 0.31,-0.62 0.64,-1.24 0.96,-1.86 0.03,-0.05 0.05,-0.1 0.1,-0.13 -0.08,0.19 -0.15,0.39 -0.24,0.58 -0.18,0.38 -0.39,0.74 -0.56,1.12 -0.34,0.76 -0.69,1.51 -0.98,2.29 -0.43,1.13 -0.74,2.29 -0.81,3.51 -0.02,0.25 -0.01,0.49 -0.02,0.74 0,0.05 0,0.1 0,0.15 0,0.08 0,0.17 0.01,0.25 0,0 0,0 0,0.01 0,0 0,0.01 0.01,0.02"
         style="fill:#f6f6f2;stroke-width:0px" />
      <path
         id="path111-2"
         data-name="path111"
         class="cls-7"
         d="m 196.53,388.99 c 0,0 0.03,0 0.05,0 0,0.04 0.02,0.07 0.03,0.11 0.02,0.17 0.04,0.34 0.06,0.53 -0.05,-0.22 -0.13,-0.42 -0.13,-0.64"
         style="fill:#c8cab5;stroke-width:0px" />
      <path
         id="path113-2"
         data-name="path113"
         class="cls-7"
         d="m 196.55,388.64 c 0,0 0,-0.1 0,-0.15 0.02,0.05 0.02,0.1 0,0.15"
         style="fill:#c8cab5;stroke-width:0px" />
      <path
         id="path115-2"
         data-name="path115"
         class="cls-5"
         d="m 201.55,392.43 c 0,0 0.03,-0.03 0.05,-0.05 0,0 0.02,0.02 0.02,0.03 -0.02,0.02 -0.04,0.04 -0.07,0.02 z"
         style="fill:#1d1d1c;stroke-width:0px" />
      <path
         id="path117-2"
         data-name="path117"
         class="cls-5"
         d="m 196.91,392.58 c 0,0 0.05,0.01 0.03,0.04 -0.01,0.02 -0.04,0 -0.05,-0.02 0,0 0.01,-0.01 0.02,-0.02"
         style="fill:#1d1d1c;stroke-width:0px" />
      <path
         id="path119-2"
         data-name="path119"
         class="cls-7"
         d="m 196.57,388.92 c 0,0 0,-0.01 -0.01,-0.02 0,0 0,0 0,-0.01 0,0 0,0.01 0.01,0.02 0,0 0,0 0,0.01"
         style="fill:#c8cab5;stroke-width:0px" />
      <path
         id="path121-2"
         data-name="path121"
         class="cls-5"
         d="m 201.55,392.43 v 0.02 c 0,0 0,0 0,0 0,0 0,0 0.01,0 0,0 0,0 0,0"
         style="fill:#1d1d1c;stroke-width:0px" />
      <path
         id="path123-2"
         data-name="path123"
         class="cls-5"
         d="m 183.21,389.11 c -0.38,0.23 -0.81,0.33 -1.24,0.38 -0.75,0.09 -1.5,0.04 -2.23,-0.2 -0.64,-0.21 -1.31,-0.31 -1.98,-0.38 -1.31,-0.12 -2.57,0.03 -3.79,0.53 -0.9,0.37 -1.84,0.37 -2.78,0.15 -0.11,-0.03 -0.22,-0.05 -0.33,-0.09 0.2,-0.04 0.39,0.01 0.58,0.02 0.82,0.04 1.6,-0.09 2.36,-0.4 0.92,-0.38 1.87,-0.55 2.86,-0.58 0.94,-0.03 1.86,0.04 2.77,0.28 0.29,0.08 0.56,0.2 0.85,0.29 0.96,0.29 1.92,0.31 2.87,-0.04 0.02,0 0.04,0.02 0.06,0.03"
         style="fill:#1d1d1c;stroke-width:0px" />
      <path
         id="path125-2"
         data-name="path125"
         class="cls-6"
         d="m 183.21,389.11 c 0,0 -0.04,-0.02 -0.06,-0.03 0.14,-0.07 0.26,-0.17 0.41,-0.22 v 0 c -0.09,0.11 -0.21,0.19 -0.35,0.25"
         style="fill:#212020;stroke-width:0px" />
      <path
         id="path127-2"
         data-name="path127"
         class="cls-6"
         d="m 183.65,388.76 c 0,0 -0.01,0.07 -0.06,0.07 v 0 c -0.02,-0.05 0.07,-0.01 0.06,-0.06 0,0 0,0 0,0"
         style="fill:#212020;stroke-width:0px" />
      <path
         id="path129-2"
         data-name="path129"
         class="cls-6"
         d="m 183.59,388.83 c 0,0 -0.02,0.02 -0.03,0.03 0,0 0,0 0,0 0,-0.03 0.01,-0.03 0.03,-0.03 0,0 0,0 0,0"
         style="fill:#212020;stroke-width:0px" />
      <path
         id="path131-2"
         data-name="path131"
         class="cls-6"
         d="m 183.68,388.74 c 0,0 -0.02,0.02 -0.03,0.03 0,0 0,0 0,0 0.01,0 0.02,-0.02 0.03,-0.03 z"
         style="fill:#212020;stroke-width:0px" />
      <path
         id="path133-2"
         data-name="path133"
         class="cls-6"
         d="m 183.68,388.74 v 0 c 0,0 0,0 0,0 0,0 0,0 0,0"
         style="fill:#212020;stroke-width:0px" />
      <path
         id="path135-2"
         data-name="path135"
         class="cls-5"
         d="m 157.76,396.55 c 0.12,-0.1 0.25,-0.2 0.37,-0.31 0,0.15 -0.22,0.32 -0.37,0.31"
         style="fill:#1d1d1c;stroke-width:0px" />
      <path
         id="path137-2"
         data-name="path137"
         class="cls-5"
         d="m 158.14,396.24 c 0.1,-0.08 0.2,-0.16 0.3,-0.24 0,0.13 -0.16,0.26 -0.3,0.24"
         style="fill:#1d1d1c;stroke-width:0px" />
      <path
         id="path139-2"
         data-name="path139"
         class="cls-5"
         d="m 158.46,395.98 c 0.09,-0.07 0.18,-0.14 0.27,-0.21 0,0.13 -0.13,0.23 -0.27,0.21"
         style="fill:#1d1d1c;stroke-width:0px" />
      <path
         id="path141-2"
         data-name="path141"
         class="cls-5"
         d="m 157.59,396.7 c 0.05,-0.05 0.11,-0.1 0.16,-0.14 0.04,0.1 -0.05,0.13 -0.1,0.18 -0.03,0.03 -0.05,0 -0.06,-0.04"
         style="fill:#1d1d1c;stroke-width:0px" />
      <path
         id="path143-2"
         data-name="path143"
         class="cls-5"
         d="m 158.75,395.76 c 0,0 0.08,-0.06 0.12,-0.09 0.02,0.11 -0.03,0.12 -0.12,0.09"
         style="fill:#1d1d1c;stroke-width:0px" />
      <path
         id="path145-2"
         data-name="path145"
         class="cls-5"
         d="m 152.69,402.36 c 0,0 0.01,-0.03 0.03,-0.04 0,0.01 -0.02,0.03 -0.03,0.04"
         style="fill:#1d1d1c;stroke-width:0px" />
    </g>
    <g
       id="g345"
       transform="matrix(2.4144636,0,0,2.4144636,-273.43835,-787.83231)">
      <path
         class="cls-6"
         d="m 215.2,480.16 h 0.64 l 0.32,1.25 c 0.08,0.29 0.13,0.57 0.21,0.86 h 0.02 c 0.08,-0.29 0.14,-0.57 0.21,-0.86 l 0.32,-1.25 h 0.62 l -0.81,2.68 H 216 l -0.81,-2.68 z"
         id="path323"
         style="fill:#ffffff;fill-opacity:1;stroke-width:0px" />
      <path
         class="cls-6"
         d="m 217.84,481.82 c 0,-0.67 0.52,-1.07 1.06,-1.07 0.63,0 0.96,0.43 0.96,0.98 0,0.11 -0.02,0.22 -0.03,0.27 h -1.55 v -0.41 h 1.14 l -0.09,0.12 c 0,-0.33 -0.14,-0.5 -0.41,-0.5 -0.3,0 -0.5,0.2 -0.5,0.61 0,0.41 0.23,0.61 0.63,0.61 0.19,0 0.35,-0.05 0.53,-0.14 l 0.2,0.37 c -0.23,0.15 -0.54,0.24 -0.81,0.24 -0.64,0 -1.13,-0.39 -1.13,-1.07 z"
         id="path324"
         style="fill:#ffffff;fill-opacity:1;stroke-width:0px" />
      <path
         class="cls-6"
         d="m 220.93,482.04 v -1.61 h -0.64 v -0.48 h 1.25 v 2.11 c 0,0.25 0.16,0.33 0.33,0.33 0.09,0 0.19,-0.02 0.32,-0.07 l 0.13,0.45 c -0.21,0.07 -0.36,0.11 -0.61,0.11 -0.51,0 -0.78,-0.33 -0.78,-0.85 z"
         id="path325"
         style="fill:#ffffff;fill-opacity:1;stroke-width:0px" />
      <path
         class="cls-6"
         d="m 223.41,482.04 v -1.61 h -0.64 v -0.48 h 1.25 v 2.11 c 0,0.25 0.16,0.33 0.33,0.33 0.09,0 0.19,-0.02 0.32,-0.07 l 0.13,0.45 c -0.21,0.07 -0.36,0.11 -0.61,0.11 -0.51,0 -0.78,-0.33 -0.78,-0.85 z"
         id="path326"
         style="fill:#ffffff;fill-opacity:1;stroke-width:0px" />
      <path
         class="cls-6"
         d="m 225.26,481.82 c 0,-0.67 0.52,-1.07 1.06,-1.07 0.63,0 0.96,0.43 0.96,0.98 0,0.11 -0.02,0.22 -0.03,0.27 h -1.55 v -0.41 h 1.14 l -0.09,0.12 c 0,-0.33 -0.14,-0.5 -0.41,-0.5 -0.3,0 -0.5,0.2 -0.5,0.61 0,0.41 0.23,0.61 0.63,0.61 0.19,0 0.35,-0.05 0.53,-0.14 l 0.2,0.37 c -0.23,0.15 -0.54,0.24 -0.81,0.24 -0.64,0 -1.13,-0.39 -1.13,-1.07 z"
         id="path327"
         style="fill:#ffffff;fill-opacity:1;stroke-width:0px" />
      <path
         class="cls-6"
         d="m 228.22,481.99 v -0.72 h -0.51 v -0.45 l 0.54,-0.02 0.08,-0.62 h 0.5 v 0.62 h 0.86 v 0.48 h -0.86 v 0.71 c 0,0.31 0.13,0.43 0.43,0.43 0.15,0 0.28,-0.03 0.4,-0.07 l 0.11,0.44 c -0.18,0.05 -0.4,0.11 -0.67,0.11 -0.65,0 -0.88,-0.36 -0.88,-0.9 z"
         id="path328"
         style="fill:#ffffff;fill-opacity:1;stroke-width:0px" />
      <path
         class="cls-6"
         d="m 230.45,480.8 h 0.5 l 0.05,0.45 h 0.01 c 0.2,-0.33 0.5,-0.5 0.83,-0.5 0.18,0 0.28,0.03 0.39,0.08 l -0.12,0.51 c -0.13,-0.04 -0.21,-0.06 -0.36,-0.06 -0.25,0 -0.51,0.13 -0.69,0.5 v 1.06 h -0.61 z"
         id="path329"
         style="fill:#ffffff;fill-opacity:1;stroke-width:0px" />
      <path
         class="cls-6"
         d="m 233.6,481.27 h -0.82 v -0.48 h 1.43 v 2.04 h -0.61 v -1.57 z m -0.13,-1.16 c 0,-0.22 0.17,-0.38 0.4,-0.38 0.23,0 0.4,0.15 0.4,0.38 0,0.23 -0.17,0.37 -0.4,0.37 -0.23,0 -0.4,-0.15 -0.4,-0.37 z"
         id="path330"
         style="fill:#ffffff;fill-opacity:1;stroke-width:0px" />
      <path
         class="cls-6"
         d="m 223,485.1 h 0.61 v 2.17 h 1.2 v 0.51 h -1.8 v -2.68 z"
         id="path331"
         style="fill:#212020;stroke-width:0px" />
      <path
         class="cls-6"
         d="m 226.18,486.22 h -0.82 v -0.48 h 1.43 v 2.04 h -0.61 v -1.57 z m -0.13,-1.17 c 0,-0.22 0.17,-0.38 0.4,-0.38 0.23,0 0.4,0.15 0.4,0.38 0,0.23 -0.17,0.37 -0.4,0.37 -0.23,0 -0.4,-0.15 -0.4,-0.37 z"
         id="path332"
         style="fill:#ffffff;fill-opacity:1;stroke-width:0px" />
      <path
         class="cls-6"
         d="m 227.8,485.74 h 0.49 l 0.04,0.27 h 0.02 c 0.18,-0.17 0.4,-0.32 0.71,-0.32 0.46,0 0.67,0.32 0.67,0.83 v 1.26 h -0.61 v -1.18 c 0,-0.27 -0.08,-0.39 -0.3,-0.39 -0.16,0 -0.27,0.08 -0.41,0.21 v 1.36 h -0.61 z"
         id="path333"
         style="fill:#ffffff;fill-opacity:1;stroke-width:0px" />
      <path
         class="cls-6"
         d="m 230.23,487 v -1.26 h 0.61 v 1.18 c 0,0.27 0.07,0.39 0.3,0.39 0.15,0 0.26,-0.05 0.4,-0.23 v -1.34 h 0.61 v 2.04 h -0.5 l -0.04,-0.29 h -0.02 c -0.18,0.21 -0.4,0.34 -0.69,0.34 -0.46,0 -0.66,-0.32 -0.66,-0.83 z"
         id="path334"
         style="fill:#ffffff;fill-opacity:1;stroke-width:0px" />
      <path
         class="cls-6"
         d="m 233.31,486.73 -0.66,-0.98 h 0.65 l 0.21,0.33 c 0.06,0.11 0.14,0.24 0.21,0.35 h 0.02 c 0.05,-0.11 0.12,-0.24 0.17,-0.35 l 0.18,-0.33 h 0.63 l -0.67,1.05 0.71,0.99 h -0.65 l -0.23,-0.34 c -0.07,-0.11 -0.16,-0.24 -0.23,-0.36 h -0.02 c -0.06,0.12 -0.13,0.24 -0.19,0.36 l -0.2,0.33 h -0.63 l 0.71,-1.06 z"
         id="path335"
         style="fill:#ffffff;fill-opacity:1;stroke-width:0px" />
      <path
         class="cls-6"
         d="m 222.82,491.7 v -1.65 h 0.61 v 1.71 c 0,0.32 0.12,0.5 0.37,0.5 0.25,0 0.38,-0.17 0.38,-0.5 v -1.71 h 0.59 v 1.65 c 0,0.7 -0.31,1.08 -0.97,1.08 -0.66,0 -0.98,-0.39 -0.98,-1.08 z"
         id="path336"
         style="fill:#212020;stroke-width:0px" />
      <path
         class="cls-6"
         d="m 225.25,492.47 0.26,-0.38 c 0.25,0.16 0.53,0.24 0.83,0.24 0.22,0 0.32,-0.08 0.32,-0.18 0,-0.11 -0.1,-0.16 -0.5,-0.24 -0.56,-0.12 -0.78,-0.32 -0.78,-0.64 0,-0.38 0.36,-0.64 0.94,-0.64 0.36,0 0.67,0.14 0.88,0.28 l -0.27,0.36 c -0.21,-0.12 -0.44,-0.2 -0.67,-0.2 -0.19,0 -0.28,0.07 -0.28,0.16 0,0.11 0.13,0.14 0.47,0.22 0.63,0.14 0.81,0.32 0.81,0.65 0,0.37 -0.35,0.66 -1.01,0.66 -0.36,0 -0.74,-0.14 -1,-0.31 z"
         id="path337"
         style="fill:#ffffff;fill-opacity:1;stroke-width:0px" />
      <path
         class="cls-6"
         d="m 227.73,491.71 c 0,-0.67 0.52,-1.07 1.06,-1.07 0.63,0 0.96,0.43 0.96,0.98 0,0.11 -0.02,0.22 -0.03,0.27 h -1.55 v -0.41 h 1.14 l -0.09,0.12 c 0,-0.33 -0.14,-0.5 -0.41,-0.5 -0.3,0 -0.5,0.2 -0.5,0.61 0,0.41 0.23,0.61 0.63,0.61 0.19,0 0.35,-0.05 0.53,-0.14 l 0.2,0.37 c -0.23,0.15 -0.54,0.24 -0.81,0.24 -0.64,0 -1.13,-0.39 -1.13,-1.07 z"
         id="path338"
         style="fill:#ffffff;fill-opacity:1;stroke-width:0px" />
      <path
         class="cls-6"
         d="m 230.45,490.69 h 0.5 l 0.05,0.45 h 0.01 c 0.2,-0.33 0.5,-0.5 0.83,-0.5 0.18,0 0.28,0.03 0.39,0.08 l -0.12,0.51 c -0.13,-0.04 -0.21,-0.06 -0.36,-0.06 -0.25,0 -0.51,0.13 -0.69,0.5 v 1.06 h -0.61 z"
         id="path339"
         style="fill:#ffffff;fill-opacity:1;stroke-width:0px" />
      <path
         class="cls-6"
         d="m 232.67,492.47 0.26,-0.38 c 0.25,0.16 0.53,0.24 0.83,0.24 0.22,0 0.32,-0.08 0.32,-0.18 0,-0.11 -0.1,-0.16 -0.5,-0.24 -0.56,-0.12 -0.78,-0.32 -0.78,-0.64 0,-0.38 0.36,-0.64 0.94,-0.64 0.36,0 0.67,0.14 0.88,0.28 l -0.27,0.36 c -0.21,-0.12 -0.44,-0.2 -0.67,-0.2 -0.19,0 -0.28,0.07 -0.28,0.16 0,0.11 0.13,0.14 0.47,0.22 0.63,0.14 0.81,0.32 0.81,0.65 0,0.37 -0.35,0.66 -1.01,0.66 -0.36,0 -0.74,-0.14 -1,-0.31 z"
         id="path340"
         style="fill:#ffffff;fill-opacity:1;stroke-width:0px" />
      <path
         class="cls-6"
         d="m 222.74,496.35 c 0,-0.9 0.55,-1.41 1.24,-1.41 0.36,0 0.61,0.17 0.78,0.34 l -0.33,0.38 c -0.12,-0.12 -0.24,-0.19 -0.45,-0.19 -0.35,0 -0.62,0.32 -0.62,0.86 0,0.54 0.22,0.87 0.64,0.87 0.1,0 0.2,-0.03 0.26,-0.08 v -0.46 h -0.39 v -0.5 h 0.93 v 1.24 c -0.18,0.17 -0.5,0.33 -0.84,0.33 -0.69,0 -1.23,-0.47 -1.23,-1.38 z"
         id="path341"
         style="fill:#212020;stroke-width:0px" />
      <path
         class="cls-6"
         d="m 225.51,495.63 h 0.5 l 0.05,0.45 h 0.01 c 0.2,-0.33 0.5,-0.5 0.83,-0.5 0.18,0 0.28,0.03 0.39,0.08 l -0.12,0.51 c -0.13,-0.04 -0.21,-0.06 -0.36,-0.06 -0.25,0 -0.51,0.13 -0.69,0.5 v 1.06 h -0.61 z"
         id="path342"
         style="fill:#ffffff;fill-opacity:1;stroke-width:0px" />
      <path
         class="cls-6"
         d="m 227.7,496.66 c 0,-0.68 0.5,-1.07 1.04,-1.07 0.54,0 1.04,0.39 1.04,1.07 0,0.68 -0.5,1.07 -1.04,1.07 -0.54,0 -1.04,-0.39 -1.04,-1.07 z m 1.46,0 c 0,-0.35 -0.14,-0.58 -0.42,-0.58 -0.28,0 -0.42,0.23 -0.42,0.58 0,0.35 0.14,0.58 0.42,0.58 0.28,0 0.42,-0.23 0.42,-0.58 z"
         id="path343"
         style="fill:#ffffff;fill-opacity:1;stroke-width:0px" />
      <path
         class="cls-6"
         d="m 230.23,496.9 v -1.26 h 0.61 v 1.18 c 0,0.27 0.07,0.39 0.3,0.39 0.15,0 0.26,-0.05 0.4,-0.23 v -1.34 h 0.61 v 2.04 h -0.5 l -0.04,-0.29 h -0.02 c -0.18,0.21 -0.4,0.34 -0.69,0.34 -0.46,0 -0.66,-0.32 -0.66,-0.83 z"
         id="path344"
         style="fill:#ffffff;fill-opacity:1;stroke-width:0px" />
      <path
         class="cls-6"
         d="m 232.75,495.63 h 0.49 l 0.04,0.21 h 0.02 c 0.16,-0.15 0.39,-0.26 0.61,-0.26 0.51,0 0.82,0.41 0.82,1.04 0,0.7 -0.43,1.1 -0.89,1.1 -0.18,0 -0.36,-0.08 -0.5,-0.22 h -0.01 l 0.03,0.33 v 0.6 h -0.61 z m 1.36,1 c 0,-0.37 -0.12,-0.55 -0.38,-0.55 -0.13,0 -0.25,0.05 -0.38,0.19 v 0.82 c 0.11,0.1 0.24,0.14 0.35,0.14 0.22,0 0.4,-0.18 0.4,-0.6 z"
         id="path345"
         style="fill:#ffffff;fill-opacity:1;stroke-width:0px" />
    </g>
  </g>
</svg>
