<?xml version="1.0" encoding="UTF-8" standalone="no"?>
<!-- Created with Inkscape (http://www.inkscape.org/) -->

<svg
   width="420mm"
   height="297mm"
   viewBox="0 0 420 297"
   version="1.1"
   id="svg1"
   inkscape:version="1.3.2 (091e20ef0f, 2023-11-25)"
   sodipodi:docname="arancione_retro.svg"
   xmlns:inkscape="http://www.inkscape.org/namespaces/inkscape"
   xmlns:sodipodi="http://sodipodi.sourceforge.net/DTD/sodipodi-0.dtd"
   xmlns="http://www.w3.org/2000/svg"
   xmlns:svg="http://www.w3.org/2000/svg">
  <sodipodi:namedview
     id="namedview1"
     pagecolor="#ffffff"
     bordercolor="#666666"
     borderopacity="1.0"
     inkscape:showpageshadow="2"
     inkscape:pageopacity="0.0"
     inkscape:pagecheckerboard="0"
     inkscape:deskcolor="#d1d1d1"
     inkscape:document-units="mm"
     inkscape:zoom="0.46161446"
     inkscape:cx="839.4451"
     inkscape:cy="630.39619"
     inkscape:window-width="1920"
     inkscape:window-height="982"
     inkscape:window-x="0"
     inkscape:window-y="32"
     inkscape:window-maximized="1"
     inkscape:current-layer="layer1" />
  <defs
     id="defs1" />
  <g
     inkscape:label="Layer 1"
     inkscape:groupmode="layer"
     id="layer1">
    <rect
       style="fill:#ff7f2a;stroke:#030303;stroke-width:0.278485;stroke-linecap:round"
       id="rect1"
       width="419.85379"
       height="296.85382"
       x="0.14621893"
       y="0.14618841" />
    <text
       xml:space="preserve"
       style="font-size:9.59512px;line-height:1.25;font-family:sans-serif;letter-spacing:0px;word-spacing:0px;fill:#fdfffd;fill-opacity:1;stroke-width:3.19836"
       x="61.149597"
       y="20.533545"
       id="text886-5-0"><tspan
         sodipodi:role="line"
         id="tspan886-9-3"
         x="61.149597"
         y="20.533545"
         style="font-style:normal;font-variant:normal;font-weight:normal;font-stretch:normal;font-size:15.9919px;font-family:'Nimbus Mono PS';-inkscape-font-specification:'Nimbus Mono PS';fill:#fdfffd;fill-opacity:1;stroke-width:3.19836">$ sed &quot;s/le fave/li software/&quot;</tspan><tspan
         sodipodi:role="line"
         x="61.149597"
         y="40.523418"
         style="font-style:italic;font-variant:normal;font-weight:normal;font-stretch:normal;font-size:15.9919px;font-family:'Nimbus Mono PS';-inkscape-font-specification:'Nimbus Mono PS Italic';fill:#fdfffd;fill-opacity:1;stroke-width:3.19836"
         id="tspan887-2-6"> ce vònno le fave che dureno</tspan><tspan
         sodipodi:role="line"
         x="61.149597"
         y="60.513294"
         style="font-style:italic;font-variant:normal;font-weight:normal;font-stretch:normal;font-size:15.9919px;font-family:'Nimbus Mono PS';-inkscape-font-specification:'Nimbus Mono PS Italic';fill:#fdfffd;fill-opacity:1;stroke-width:3.19836"
         id="tspan888-2-10"> no li confetti che scórteno</tspan><tspan
         sodipodi:role="line"
         x="61.149597"
         y="80.503174"
         style="font-style:normal;font-variant:normal;font-weight:normal;font-stretch:normal;font-size:15.9919px;font-family:'Nimbus Mono PS';-inkscape-font-specification:'Nimbus Mono PS';fill:#fdfffd;fill-opacity:1;stroke-width:3.19836"
         id="tspan892-8-6" /><tspan
         sodipodi:role="line"
         x="61.149597"
         y="100.49305"
         style="font-style:normal;font-variant:normal;font-weight:bold;font-stretch:normal;font-size:15.9919px;font-family:'Nimbus Mono PS';-inkscape-font-specification:'Nimbus Mono PS Bold';fill:#fdfffd;fill-opacity:1;stroke-width:3.19836"
         id="tspan889-9-3">ce vònno li software che dureno</tspan><tspan
         sodipodi:role="line"
         x="61.149597"
         y="120.48293"
         style="font-style:normal;font-variant:normal;font-weight:bold;font-stretch:normal;font-size:15.9919px;font-family:'Nimbus Mono PS';-inkscape-font-specification:'Nimbus Mono PS Bold';fill:#fdfffd;fill-opacity:1;stroke-width:3.19836"
         id="tspan890-7-2">no li confetti che scórteno</tspan><tspan
         sodipodi:role="line"
         x="61.149597"
         y="135.05408"
         style="font-style:normal;font-variant:normal;font-weight:normal;font-stretch:normal;font-size:9.59512px;font-family:Monospace;-inkscape-font-specification:Monospace;fill:#fdfffd;fill-opacity:1;stroke-width:3.19836"
         id="tspan891-3-0" /></text>
    <g
       id="_190Hsc-2"
       data-name="190Hsc"
       transform="matrix(3.2867172,0,0,3.2867172,-1121.7121,-1108.6538)">
      <g
         id="g292">
        <path
           class="cls-11"
           d="m 387.35,418.93 c 0.32,-0.41 0.63,-0.82 0.94,-1.23 0.03,-0.04 0.07,-0.07 0.13,-0.07 0.37,0 0.73,0 1.1,-0.01 0.06,0 0.08,0 0.08,0.08 0,0.81 0.02,1.61 0.03,2.42 0,0.07 -0.02,0.08 -0.08,0.08 -0.28,0 -0.56,0 -0.84,0 -0.06,0 -0.09,-0.01 -0.09,-0.08 0,-0.42 0,-0.84 -0.01,-1.26 -0.03,0 -0.04,0.03 -0.05,0.04 -0.3,0.41 -0.59,0.83 -0.89,1.25 -0.03,0.04 -0.06,0.07 -0.12,0.06 -0.07,0 -0.14,0 -0.21,0 -0.18,0.03 -0.28,-0.05 -0.38,-0.19 -0.26,-0.37 -0.54,-0.72 -0.81,-1.08 -0.02,-0.02 -0.03,-0.04 -0.06,-0.08 0,0.05 0,0.07 0,0.1 0,0.39 0,0.79 0.01,1.18 0,0.06 -0.01,0.08 -0.08,0.08 -0.29,0 -0.57,0 -0.86,0 -0.06,0 -0.07,-0.02 -0.07,-0.07 0,-0.81 -0.02,-1.62 -0.03,-2.44 0,-0.05 0.01,-0.07 0.06,-0.07 0.38,0 0.76,0 1.14,-0.01 0.05,0 0.08,0.02 0.11,0.06 0.3,0.38 0.61,0.76 0.91,1.14 0.02,0.02 0.04,0.04 0.06,0.07 z"
           id="path276"
           style="fill:#ffffff;stroke-width:0px" />
        <path
           class="cls-11"
           d="m 393.21,418.84 c 0,0 -0.02,0 -0.04,-0.02 0.02,-0.02 0.04,-0.03 0.06,-0.05 0.33,-0.28 0.29,-0.82 -0.07,-1.05 -0.15,-0.1 -0.32,-0.14 -0.5,-0.14 -0.8,0 -1.6,0.02 -2.4,0.02 -0.07,0 -0.09,0.01 -0.09,0.09 0.01,0.8 0.02,1.6 0.03,2.4 0,0.07 0.02,0.09 0.09,0.09 0.86,-0.01 1.72,-0.02 2.57,-0.03 0.08,0 0.16,-0.01 0.24,-0.03 0.32,-0.07 0.53,-0.3 0.55,-0.59 0.03,-0.33 -0.13,-0.57 -0.44,-0.7 z m -2.01,-0.34 c 0,-0.08 0,-0.15 0,-0.23 0,-0.04 0,-0.05 0.05,-0.05 0.36,0 0.73,0 1.09,-0.01 0.1,0 0.18,0.08 0.18,0.17 0,0.1 -0.07,0.17 -0.18,0.17 -0.18,0 -0.36,0 -0.53,0 -0.18,0 -0.36,0 -0.53,0 -0.05,0 -0.07,0 -0.07,-0.06 z m 1.32,1.05 c -0.41,0 -0.83,0 -1.24,0.02 -0.05,0 -0.08,0 -0.07,-0.07 0,-0.07 0,-0.13 0,-0.2 0,-0.07 0.02,-0.08 0.08,-0.08 0.21,0 0.41,0 0.62,0 0.2,0 0.41,0 0.61,0 0.11,0 0.19,0.06 0.19,0.16 0,0.1 -0.07,0.18 -0.19,0.18 z"
           id="path277"
           style="fill:#ffffff;stroke-width:0px" />
        <path
           class="cls-11"
           d="m 396.9,419.35 c 0.37,-0.22 0.55,-0.66 0.44,-1.07 -0.11,-0.42 -0.48,-0.73 -0.9,-0.73 -0.83,0 -1.65,0.02 -2.48,0.02 -0.05,0 -0.06,0.02 -0.06,0.06 0.01,0.82 0.02,1.64 0.03,2.45 0,0.05 0.02,0.06 0.06,0.06 0.3,0 0.59,0 0.89,0 0.05,0 0.06,-0.02 0.06,-0.06 0,-0.17 0,-0.33 0,-0.5 0,-0.05 0,-0.07 0.06,-0.07 0.26,0 0.52,0 0.77,0 0.04,0 0.07,0.01 0.09,0.05 0.13,0.17 0.27,0.34 0.4,0.51 0.04,0.05 0.09,0.07 0.15,0.07 0.29,0 0.59,0 0.88,-0.01 0.03,0 0.06,0 0.09,-0.01 -0.17,-0.21 -0.33,-0.42 -0.5,-0.63 -0.05,-0.06 -0.05,-0.08 0.02,-0.12 z m -0.76,-0.61 c -0.19,0 -0.39,0 -0.58,0 -0.19,0 -0.38,0 -0.58,0 -0.05,0 -0.06,-0.01 -0.06,-0.06 0,-0.11 0,-0.21 0,-0.32 0,-0.05 0.01,-0.06 0.06,-0.06 0.39,0 0.77,0 1.16,-0.01 0.13,0 0.22,0.09 0.22,0.21 0,0.12 -0.09,0.22 -0.22,0.22 z"
           id="path278"
           style="fill:#ffffff;stroke-width:0px" />
        <path
           class="cls-11"
           d="m 401.4,420.04 c -0.46,-0.83 -0.91,-1.65 -1.36,-2.48 -0.03,-0.05 -0.06,-0.05 -0.1,-0.05 -0.35,0 -0.71,0 -1.06,0.01 -0.05,0 -0.08,0.02 -0.1,0.06 -0.43,0.82 -0.86,1.65 -1.29,2.47 0,0.02 -0.03,0.03 0,0.06 0.35,0 0.71,0 1.07,-0.01 0.04,0 0.05,-0.02 0.07,-0.05 0.05,-0.11 0.1,-0.22 0.15,-0.34 0.02,-0.04 0.04,-0.05 0.08,-0.05 0.39,0 0.78,0 1.17,-0.01 0.04,0 0.06,0.02 0.08,0.05 0.05,0.11 0.11,0.22 0.16,0.33 0.02,0.04 0.04,0.05 0.08,0.05 0.36,0 0.71,0 1.08,-0.01 0,-0.02 0,-0.03 -0.01,-0.03 z m -2.32,-1.02 c 0.11,-0.25 0.22,-0.49 0.34,-0.75 0.12,0.25 0.23,0.49 0.35,0.74 h -0.69 z"
           id="path279"
           style="fill:#ffffff;stroke-width:0px" />
        <path
           class="cls-11"
           d="m 385,420.2 c -0.45,-0.82 -0.9,-1.63 -1.35,-2.45 -0.02,-0.05 -0.05,-0.06 -0.1,-0.05 -0.35,0 -0.71,0.01 -1.06,0.01 -0.06,0 -0.08,0.02 -0.11,0.07 -0.35,0.67 -0.7,1.35 -1.06,2.02 -0.09,0.16 -0.17,0.33 -0.26,0.5 0.37,0 0.74,0 1.1,-0.01 0.04,0 0.05,-0.03 0.06,-0.06 0.05,-0.11 0.1,-0.22 0.15,-0.34 0.02,-0.04 0.04,-0.05 0.08,-0.05 0.39,0 0.79,0 1.18,-0.01 0.04,0 0.06,0.01 0.08,0.05 0.05,0.1 0.1,0.2 0.15,0.31 0.02,0.06 0.06,0.08 0.12,0.08 0.26,0 0.53,0 0.79,-0.01 0.08,0 0.16,0 0.24,0 0.01,-0.03 0,-0.04 -0.01,-0.06 z m -2.31,-1 c 0.11,-0.25 0.22,-0.49 0.34,-0.75 0.12,0.25 0.24,0.49 0.35,0.74 h -0.69 z"
           id="path280"
           style="fill:#ffffff;stroke-width:0px" />
        <g
           id="g282">
          <path
             class="cls-11"
             d="m 396.78,412.46 c 0,-0.49 -0.01,-0.99 -0.02,-1.48 0,-0.07 0,-0.13 -0.01,-0.2 -0.08,-0.24 -0.35,-0.35 -0.58,-0.22 -0.62,0.36 -1.23,0.73 -1.85,1.09 -0.04,0.02 -0.05,0.05 -0.05,0.1 0,0.32 0,0.63 0.01,0.95 q 0,0.24 0.21,0.34 c 0,0 0,0 0,0 0.32,0.18 0.65,0.37 0.97,0.55 0.06,0.03 0.12,0.07 0.18,0.1 0.19,0.11 0.37,0.21 0.56,0.31 0.25,0.13 0.57,-0.04 0.57,-0.31 0,-0.41 0,-0.83 -0.01,-1.24 v 0 z"
             id="path281"
             style="fill:#ffffff;stroke-width:0px" />
          <path
             class="cls-11"
             d="m 394.88,414.83 v 0 c -0.17,-0.33 -0.34,-0.66 -0.51,-0.99 q -0.12,-0.24 -0.4,-0.22 c -0.52,0 -1.04,0.01 -1.57,0.02 -0.48,0 -0.95,0.01 -1.43,0.02 h -1.04 c 0,0 0.02,-0.05 0.03,-0.08 0.2,-0.42 0.41,-0.84 0.61,-1.26 0.15,-0.31 0.29,-0.61 0.44,-0.92 0.04,-0.05 0.06,-0.11 0.08,-0.17 0.01,0 0.02,-0.02 0.02,-0.03 0.05,-0.04 0.02,-0.13 0.1,-0.14 l 1.71,-0.02 c -0.19,-0.36 -0.38,-0.72 -0.56,-1.08 -0.01,-0.03 -0.02,-0.06 -0.04,-0.09 -0.09,-0.17 -0.18,-0.34 -0.27,-0.51 -0.12,-0.24 -0.25,-0.48 -0.37,-0.73 -0.04,-0.08 -0.09,-0.11 -0.17,-0.09 -0.26,0 -0.53,0 -0.79,0 -0.05,0 -0.06,0.03 -0.07,0.06 -0.08,0.16 -0.16,0.33 -0.24,0.49 -0.14,0.29 -0.28,0.58 -0.42,0.87 v 0 c -0.07,0.12 -0.12,0.24 -0.18,0.37 -0.02,0.03 -0.03,0.05 -0.04,0.09 0,0.02 -0.02,0.04 -0.03,0.05 -0.09,0.19 -0.19,0.38 -0.28,0.57 -0.16,0.32 -0.31,0.65 -0.47,0.97 v 0 c 0,0 0,0 0,0 v 0 c 0,0 0,0 0,0 -0.04,0.05 -0.06,0.11 -0.08,0.17 -0.02,0.03 -0.04,0.07 -0.05,0.1 -0.02,0.01 -0.02,0.03 -0.03,0.05 -0.01,0.02 -0.03,0.04 -0.04,0.07 -0.17,0.34 -0.33,0.69 -0.5,1.03 -0.05,0.1 -0.09,0.2 -0.14,0.3 0,0.01 -0.02,0.02 -0.02,0.04 -0.4,0.82 -0.8,1.64 -1.2,2.46 0,0.02 -0.02,0.03 -0.02,0.06 0,0 0.02,0 0.02,0 0.55,0 1.1,-0.01 1.64,-0.02 0.05,0 0.07,-0.03 0.09,-0.06 0.12,-0.25 0.24,-0.5 0.36,-0.75 0.02,-0.04 0.04,-0.06 0.09,-0.07 0.16,0 0.32,0 0.47,0 0.12,0.01 0.24,0 0.36,0 v 0 c 0,0 0,0 0,0 0.03,0 0.07,0 0.1,0 0.14,0 0.29,0 0.43,0 0.01,0 0.03,0 0.05,0 0.53,0 1.06,-0.01 1.59,-0.02 0.01,0 0.02,0 0.03,0 0.27,0 0.55,0 0.82,0 0.13,0 0.27,0 0.4,0 0.09,0.18 0.19,0.36 0.28,0.54 0.04,0.08 0.09,0.17 0.12,0.25 0.02,0.06 0.06,0.07 0.12,0.07 0.52,0 1.04,-0.01 1.57,-0.02 h 0.08 c 0,0 0,-0.03 0,-0.03 -0.23,-0.45 -0.46,-0.89 -0.69,-1.33 z m -1.17,0.99 z M 391.1,410 c 0,0 0.02,-0.03 0.04,-0.03 -0.01,0 -0.03,0.02 -0.04,0.03 z m 0.42,-0.3 z m -0.39,-0.77 z m 2.27,6.43 z"
             id="path282"
             style="fill:#ffffff;stroke-width:0px" />
        </g>
        <g
           id="g291">
          <path
             class="cls-11"
             d="m 395.45,421.61 c 0,0 0.08,0 0.12,0 0.05,0 0.09,0 0.14,0 v 0 c 0,0 0.09,0 0.13,0 0.05,0 0.08,0 0.08,-0.06 0,-0.07 -0.03,-0.07 -0.08,-0.06 -0.04,0 -0.09,0 -0.13,0 -0.05,0 -0.09,0 -0.14,0 -0.03,0 -0.07,0 -0.1,0 -0.06,0 -0.11,0 -0.17,0 -0.02,0.2 -0.01,0.41 0,0.61 v 0 c 0,0 0,0 0,0 0.04,0.01 0.08,0 0.12,0 0.04,0 0.08,0 0.12,0 0.05,0 0.1,0 0.15,0 v 0 c 0,0 0.07,0 0.1,0 0.04,-0.01 0.11,0.05 0.12,-0.05 0,-0.11 -0.07,-0.06 -0.12,-0.07 h -0.1 c -0.05,0 -0.1,0 -0.15,0 -0.03,0 -0.06,0 -0.09,0 -0.07,-0.03 -0.02,-0.08 -0.03,-0.12 0.03,0 0.06,0 0.09,0 0.09,0 0.18,0.02 0.27,-0.02 0.01,-0.04 0.01,-0.07 0,-0.11 -0.02,-0.03 -0.05,-0.01 -0.08,-0.01 -0.09,0 -0.19,0 -0.28,0 0.01,-0.04 -0.03,-0.1 0.03,-0.12 z"
             id="path283"
             style="fill:#ffffff;stroke-width:0px" />
          <path
             class="cls-11"
             d="m 385.68,421.6 c 0,0 -0.1,-0.03 -0.14,0.03 -0.04,0.03 -0.07,0.06 -0.1,0.1 -0.03,0.02 -0.06,0.05 -0.08,0.08 -0.06,0.04 -0.07,-0.04 -0.12,-0.05 -0.05,-0.06 -0.1,-0.11 -0.15,-0.15 v 0 c -0.12,-0.04 -0.14,-0.03 -0.14,0.09 0,0.15 0,0.31 0,0.46 0,0.05 0.02,0.06 0.06,0.06 0.04,0 0.07,0 0.07,-0.06 0,-0.09 0,-0.19 0,-0.28 0,-0.02 -0.02,-0.06 0.02,-0.07 0.04,0.04 0.08,0.08 0.12,0.12 0.03,0.03 0.05,0.05 0.08,0.08 0.03,0.03 0.05,0.02 0.06,-0.02 0.04,-0.05 0.1,-0.06 0.12,-0.12 0.03,-0.02 0.05,-0.04 0.09,-0.07 0,0 0,0 0,0.01 0,0.06 0,0.11 0,0.16 0,0.08 -0.02,0.16 0.02,0.24 q 0.12,0.01 0.12,-0.1 c 0,-0.14 0,-0.28 0,-0.42 0,-0.03 0.02,-0.08 -0.02,-0.09 z"
             id="path284"
             style="fill:#ffffff;stroke-width:0px" />
          <path
             class="cls-11"
             d="m 397.34,421.86 v 0 c 0,0 -0.1,-0.08 -0.02,-0.14 v 0 c 0.08,-0.08 0.15,-0.17 0.23,-0.25 -0.09,0 -0.19,-0.02 -0.25,0.09 v 0 c 0,0 -0.08,0.08 -0.12,0.12 -0.06,-0.01 -0.08,-0.08 -0.14,-0.11 -0.06,-0.11 -0.16,-0.11 -0.26,-0.09 0.08,0.09 0.16,0.17 0.25,0.25 v 0 c 0,0 0.04,0.03 0.04,0.07 -0.04,0.04 -0.08,0.08 -0.12,0.12 v 0 c -0.06,0.05 -0.11,0.11 -0.18,0.18 0.08,0 0.14,0.01 0.2,-0.02 0.04,-0.03 0.07,-0.06 0.1,-0.1 0.05,-0.02 0.06,-0.08 0.12,-0.09 0.05,0.05 0.09,0.09 0.14,0.14 v 0 c 0.06,0.1 0.15,0.06 0.24,0.07 -0.07,-0.08 -0.15,-0.15 -0.22,-0.23 z"
             id="path285"
             style="fill:#ffffff;stroke-width:0px" />
          <path
             class="cls-11"
             d="m 391.32,421.58 c 0,0 0,-0.06 -0.04,-0.05 v 0 c -0.07,-0.02 -0.09,0.01 -0.09,0.08 0,0.15 0,0.3 0,0.45 0,0.07 0.02,0.1 0.09,0.08 0.04,0 0.04,-0.02 0.04,-0.05 0,-0.17 0,-0.35 0,-0.52 z"
             id="path286"
             style="fill:#ffffff;stroke-width:0px" />
          <path
             class="cls-11"
             d="m 388.69,422.06 c 0,0 -0.04,0 -0.07,0 v 0 c 0,0 -0.07,0 -0.1,0 -0.04,0 -0.08,0 -0.12,0 -0.04,0 -0.08,0 -0.12,0 v 0 c 0,0 0,-0.1 -0.01,-0.14 0,-0.02 0,-0.04 0,-0.06 0,-0.02 0,-0.04 0,-0.07 0,-0.08 0,-0.15 -0.01,-0.23 v 0 c 0,0 0,0 0,0 q -0.12,-0.02 -0.12,0.1 c 0,0.14 0,0.27 0,0.41 q 0,0.12 0.12,0.11 c 0,0 0.09,0 0.14,0 0.04,0 0.08,0 0.12,0 0.04,0 0.08,0 0.12,0 0.02,0 0.03,0 0.05,0 0.04,0 0.08,0.01 0.08,-0.06 0,-0.07 -0.03,-0.07 -0.08,-0.07 z"
             id="path287"
             style="fill:#ffffff;stroke-width:0px" />
          <path
             class="cls-11"
             d="m 390.2,421.54 c 0,0 -0.04,0 -0.07,0 -0.03,0 -0.07,0 -0.1,0 -0.04,0 -0.08,0 -0.12,0 -0.03,0 -0.07,0 -0.1,0 -0.02,0 -0.05,0 -0.07,0 -0.05,0 -0.07,0.01 -0.07,0.07 0,0.06 0.03,0.06 0.07,0.06 0.02,0 0.04,0 0.07,0 0.03,0 0.07,0 0.1,0 v 0 c 0,0.15 0,0.29 0,0.44 0,0.05 0.02,0.06 0.06,0.06 0.05,0 0.07,0 0.07,-0.07 0,-0.15 0,-0.29 0,-0.44 0.03,0 0.07,0 0.1,0 0.02,0 0.03,0 0.05,0 0.04,0 0.09,0.02 0.09,-0.06 0,-0.08 -0.05,-0.06 -0.09,-0.06 z"
             id="path288"
             style="fill:#ffffff;stroke-width:0px" />
          <path
             class="cls-11"
             d="m 387.22,421.58 v 0 q -0.12,-0.02 -0.12,0.1 c 0,0.1 0,0.21 0,0.31 0,0.03 0,0.06 -0.03,0.08 -0.05,0 -0.09,0 -0.14,0.01 -0.05,0 -0.1,0 -0.15,0 -0.04,-0.02 -0.04,-0.06 -0.04,-0.1 0,-0.11 0,-0.22 0,-0.34 0,-0.05 0,-0.07 -0.07,-0.07 -0.06,0 -0.07,0.02 -0.07,0.08 0,0.13 0,0.26 0,0.4 0,0.12 0.05,0.16 0.17,0.15 v 0 c 0.06,0 0.11,0 0.17,0 v 0 c 0,0 0.09,0 0.14,0 0.08,0.01 0.12,-0.02 0.14,-0.1 0,-0.17 0.01,-0.35 0,-0.52 z"
             id="path289"
             style="fill:#ffffff;stroke-width:0px" />
          <path
             class="cls-11"
             d="m 394.32,422 c 0,0 -0.08,0 -0.12,0 -0.04,0 -0.08,0 -0.12,0 v 0 c 0,0 -0.09,0 -0.14,0 v 0 c 0,0 0,0 0,0 -0.04,0 -0.05,-0.01 -0.05,-0.06 0,-0.11 0,-0.23 0,-0.34 q 0,-0.11 -0.12,-0.09 c -0.01,0.2 -0.01,0.41 0,0.61 v 0 c 0,0 0,0 0,0 0.05,0.01 0.1,0 0.15,0 0.05,0 0.09,0 0.14,0 0.04,0 0.08,0 0.12,0 0.05,0 0.09,0 0.14,0 0.06,0.02 0.07,0 0.07,-0.06 0,-0.06 -0.03,-0.07 -0.07,-0.05 z"
             id="path290"
             style="fill:#ffffff;stroke-width:0px" />
          <path
             class="cls-11"
             d="m 392.71,421.52 h -0.14 c -0.06,0 -0.11,0 -0.17,0 -0.04,0 -0.08,0 -0.12,0 -0.04,-0.01 -0.06,0 -0.05,0.05 0,0.17 0,0.35 0,0.52 0,0.04 0.01,0.06 0.06,0.05 0.06,0.01 0.07,0 0.07,-0.06 0,-0.06 -0.02,-0.12 0.01,-0.18 0.06,0 0.12,0 0.19,0 0.06,0 0.13,0.01 0.19,0 0,0 0,0 0,0 0,0 0,0 0,0 0,0 0,0 0.01,0 v 0 c 0,0 0.06,-0.03 0.07,-0.06 0.02,-0.05 0,-0.11 0,-0.17 0,-0.09 -0.04,-0.13 -0.14,-0.13 z m 0.01,0.22 c 0,0 -0.02,0.01 -0.03,0.02 -0.1,0 -0.21,0 -0.31,0 -0.01,-0.05 -0.06,-0.11 0.03,-0.13 0.06,0 0.11,0 0.17,0 0.04,0 0.08,0.01 0.12,0.02 0.02,0.03 0.03,0.05 0.02,0.09 z"
             id="path291"
             style="fill:#ffffff;stroke-width:0px" />
        </g>
      </g>
    </g>
    <g
       id="g319"
       transform="matrix(3.2867172,0,0,3.2867172,-1121.7121,-1108.6538)">
      <path
         id="circle292"
         style="stroke-width:0px"
         class="cls-1"
         d="M 418.95008 405.01992 C 413.23392 405.01991 408.60005 409.65378 408.60006 415.36994 C 408.60005 421.08608 413.23392 425.71996 418.95008 425.71995 C 424.66621 425.71996 429.3001 421.08607 429.30009 415.36994 C 429.3001 409.65378 424.66622 405.01991 418.95008 405.01992 z M 411.51995 410.82007 L 412.72007 410.82007 L 412.72007 411.29002 L 412.52008 411.29002 L 412.54004 412.67002 L 412.74004 412.67002 L 412.74004 413.13997 L 411.54007 413.13997 L 411.54007 412.68008 L 411.74007 412.68008 L 411.71994 411.29993 L 411.51995 411.29993 L 411.51995 410.82007 z M 411.54998 414.10001 L 412.74994 414.10001 L 412.74994 414.53002 L 412.54995 414.53002 L 412.57007 415.94995 L 413.09993 415.94995 L 413.09993 415.36003 L 413.62004 415.36003 L 413.62995 416.42006 L 411.58001 416.44003 L 411.58001 415.96001 L 411.76994 415.96001 L 411.74997 414.53993 L 411.54998 414.53993 L 411.54998 414.10001 z M 422.74006 415.09007 L 424.35008 415.52999 L 425.95993 415.97008 L 424.77994 417.12004 L 423.59994 418.27001 L 423.17008 416.67996 L 422.74006 415.09007 z M 412.37999 417.30997 C 412.67997 417.30997 412.93006 417.38997 413.12006 417.55997 L 413.12006 417.34 L 413.60008 417.34 L 413.60008 418.02992 L 413.17006 418.02992 C 413.12006 417.94992 413.04003 417.88002 412.94003 417.82002 C 412.84003 417.76002 412.73001 417.73999 412.61001 417.73999 C 412.47001 417.73999 412.39995 417.80009 412.39995 417.90005 C 412.39995 417.96005 412.43004 418.00998 412.49004 418.03998 C 412.55004 418.06998 412.65994 418.10008 412.79994 418.13008 L 412.96 418.15995 L 412.94994 418.20004 C 413.20994 418.25004 413.39995 418.33994 413.52995 418.45994 C 413.64995 418.57994 413.72004 418.75005 413.72004 418.98005 C 413.72004 419.22005 413.65004 419.40994 413.50008 419.53994 C 413.35008 419.66994 413.14994 419.73993 412.89994 419.73993 C 412.75994 419.73993 412.61998 419.71997 412.47998 419.66997 C 412.33998 419.61997 412.22006 419.54997 412.14006 419.46997 L 412.14006 419.71006 L 411.61994 419.71006 L 411.61994 418.90993 L 412.06993 418.90993 C 412.13993 419.02993 412.23995 419.13001 412.34995 419.20001 C 412.46995 419.27001 412.59004 419.30001 412.74004 419.30001 C 412.81004 419.30001 412.87 419.28001 412.91 419.25001 C 412.95 419.22001 412.97006 419.16991 412.97006 419.10992 C 412.97006 419.04992 412.93994 418.99993 412.89994 418.95993 C 412.84994 418.92993 412.77001 418.89999 412.66001 418.86999 L 412.60954 418.86103 L 412.34005 418.8104 C 412.08005 418.7504 411.88994 418.67044 411.76994 418.54044 C 411.64994 418.42044 411.59007 418.25046 411.59007 418.04046 C 411.59007 417.90046 411.62001 417.7805 411.68001 417.6705 C 411.75001 417.5605 411.84003 417.47044 411.96003 417.41044 C 412.08003 417.35044 412.21999 417.31045 412.37999 417.31045 L 412.37999 417.30997 z " />
      <g
         id="g310">
        <path
           class="cls-11"
           d="m 413.72,413.13 c -0.36,0 -0.54,-0.15 -0.54,-0.47 v -0.73 c 0,0 -0.19,0 -0.19,0 v -0.4 c 0,0 0.17,0 0.17,0 v -0.51 c 0,0 0.69,-0.1 0.69,-0.1 v 0.61 c 0,0 0.35,0 0.35,0 v 0.4 c 0,0 -0.34,0 -0.34,0 v 0.6 c 0,0.07 0.02,0.12 0.05,0.15 0.03,0.03 0.08,0.04 0.14,0.04 h 0.16 c 0,0 0,0.42 0,0.42 h -0.51 z"
           id="path293"
           style="fill:#ffffff;stroke-width:0px" />
        <path
           class="cls-11"
           d="m 416.22,412.7 v 0.4 c 0,0 -0.74,0 -0.74,0 l -0.06,-0.14 c -0.14,0.12 -0.3,0.19 -0.49,0.19 -0.16,0 -0.29,-0.04 -0.39,-0.12 -0.09,-0.08 -0.14,-0.2 -0.14,-0.34 0,-0.17 0.06,-0.3 0.18,-0.38 0.12,-0.08 0.27,-0.13 0.46,-0.13 0.13,0 0.23,0.01 0.33,0.04 v -0.04 c 0,-0.19 -0.1,-0.28 -0.28,-0.28 -0.07,0 -0.15,0.01 -0.23,0.03 -0.08,0.02 -0.17,0.06 -0.29,0.11 l -0.15,-0.39 c 0.29,-0.13 0.58,-0.2 0.86,-0.2 0.25,0 0.44,0.06 0.57,0.17 0.13,0.11 0.2,0.29 0.21,0.51 v 0.57 c 0,0 0.18,0 0.18,0 z m -1.2,-0.06 c 0,0.05 0.02,0.09 0.05,0.12 0.03,0.03 0.08,0.04 0.13,0.04 0.07,0 0.12,-0.02 0.17,-0.07 v -0.24 c 0,0 -0.09,-0.03 -0.15,-0.03 -0.06,0 -0.11,0.02 -0.14,0.05 -0.03,0.03 -0.06,0.07 -0.05,0.13 v 0 z"
           id="path294"
           style="fill:#ffffff;stroke-width:0px" />
        <path
           class="cls-11"
           d="m 416.32,413.1 v -0.4 c 0,0 0.17,0 0.17,0 l -0.02,-1.58 h -0.18 c 0,0 0,-0.4 0,-0.4 h 0.87 c 0,0 0.02,1.97 0.02,1.97 h 0.18 c 0,0 0,0.4 0,0.4 h -1.04 z"
           id="path295"
           style="fill:#ffffff;stroke-width:0px" />
        <path
           class="cls-11"
           d="m 417.91,411.19 c -0.12,0 -0.22,-0.03 -0.29,-0.1 -0.07,-0.07 -0.11,-0.16 -0.11,-0.28 0,-0.12 0.03,-0.21 0.11,-0.27 0.07,-0.07 0.17,-0.11 0.29,-0.11 0.12,0 0.22,0.03 0.29,0.1 0.07,0.07 0.11,0.16 0.11,0.27 0,0.11 -0.03,0.21 -0.1,0.28 -0.07,0.07 -0.17,0.11 -0.29,0.11 v 0 z m -0.46,1.9 v -0.4 c 0,0 0.17,0 0.17,0 v -0.81 c 0,0 -0.19,0 -0.19,0 v -0.4 c 0,0 0.87,0 0.87,0 v 1.21 c 0,0 0.19,0 0.19,0 v 0.4 c 0,0 -1.05,0.01 -1.05,0.01 z"
           id="path296"
           style="fill:#ffffff;stroke-width:0px" />
        <path
           class="cls-11"
           d="m 420.47,412.65 v 0.4 c 0,0 -0.74,0 -0.74,0 l -0.06,-0.14 c -0.14,0.12 -0.3,0.19 -0.49,0.19 -0.16,0 -0.29,-0.04 -0.39,-0.12 -0.09,-0.08 -0.14,-0.2 -0.14,-0.34 0,-0.17 0.06,-0.3 0.18,-0.38 0.12,-0.08 0.27,-0.13 0.46,-0.13 0.13,0 0.23,0.01 0.33,0.04 v -0.04 c 0,-0.19 -0.1,-0.28 -0.28,-0.28 -0.07,0 -0.15,0.01 -0.23,0.03 -0.08,0.02 -0.17,0.06 -0.29,0.11 l -0.15,-0.39 c 0.29,-0.13 0.58,-0.2 0.86,-0.2 0.25,0 0.44,0.06 0.57,0.17 0.13,0.11 0.2,0.29 0.21,0.51 v 0.57 c 0,0 0.18,0 0.18,0 z m -1.2,-0.05 c 0,0.05 0.02,0.09 0.05,0.12 0.03,0.03 0.08,0.04 0.13,0.04 0.07,0 0.12,-0.02 0.17,-0.07 v -0.24 c 0,0 -0.09,-0.03 -0.15,-0.03 -0.06,0 -0.11,0.02 -0.14,0.05 -0.03,0.03 -0.06,0.07 -0.05,0.13 v 0 z"
           id="path297"
           style="fill:#ffffff;stroke-width:0px" />
        <path
           class="cls-11"
           d="m 422.68,412.63 v 0.4 c 0,0 -1.01,0.01 -1.01,0.01 v -0.4 c 0,0 0.13,0 0.13,0 v -0.57 c 0,-0.07 -0.02,-0.12 -0.06,-0.16 -0.03,-0.04 -0.08,-0.06 -0.14,-0.06 -0.06,0 -0.11,0.02 -0.17,0.05 v 0.75 c 0,0 0.14,0 0.14,0 v 0.4 c 0,0 -1.01,0.01 -1.01,0.01 v -0.4 c 0,0 0.17,0 0.17,0 v -0.81 c 0,0 -0.19,0 -0.19,0 v -0.4 c 0,0 0.81,0 0.81,0 l 0.02,0.14 c 0.18,-0.12 0.36,-0.18 0.54,-0.18 0.18,0 0.31,0.05 0.41,0.16 0.1,0.11 0.15,0.24 0.15,0.41 v 0.68 c 0,0 0.18,0 0.18,0 z"
           id="path298"
           style="fill:#ffffff;stroke-width:0px" />
        <path
           class="cls-11"
           d="m 414.23,414.52 c -0.12,0 -0.22,-0.03 -0.29,-0.1 -0.07,-0.07 -0.11,-0.16 -0.11,-0.28 0,-0.12 0.03,-0.21 0.11,-0.27 0.07,-0.07 0.17,-0.11 0.29,-0.11 0.12,0 0.22,0.03 0.29,0.1 0.07,0.07 0.11,0.16 0.11,0.27 0,0.11 -0.03,0.21 -0.1,0.28 -0.07,0.07 -0.17,0.11 -0.29,0.11 v 0 z m -0.46,1.89 v -0.4 c 0,0 0.17,0 0.17,0 v -0.81 c 0,0 -0.19,0 -0.19,0 v -0.4 c 0,0 0.87,0 0.87,0 v 1.21 c 0,0 0.19,0 0.19,0 v 0.4 c 0,0 -1.05,0.01 -1.05,0.01 z"
           id="path300"
           style="fill:#ffffff;stroke-width:0px" />
        <path
           class="cls-11"
           d="m 417.02,415.98 v 0.4 c 0,0 -1.01,0.01 -1.01,0.01 v -0.4 c 0,0 0.13,0 0.13,0 v -0.57 c 0,-0.07 -0.02,-0.12 -0.06,-0.16 -0.03,-0.04 -0.08,-0.06 -0.14,-0.06 -0.06,0 -0.11,0.02 -0.17,0.05 V 416 c 0,0 0.14,0 0.14,0 v 0.4 c 0,0 -1.01,0.01 -1.01,0.01 v -0.4 c 0,0 0.17,0 0.17,0 v -0.81 c 0,0 -0.19,0 -0.19,0 v -0.4 c 0,0 0.81,0 0.81,0 l 0.02,0.14 c 0.18,-0.12 0.36,-0.18 0.54,-0.18 0.18,0 0.31,0.05 0.41,0.16 0.1,0.11 0.15,0.24 0.15,0.41 v 0.68 c 0,0 0.18,0 0.18,0 z"
           id="path301"
           style="fill:#ffffff;stroke-width:0px" />
        <path
           class="cls-11"
           d="m 419.22,415.95 v 0.4 c 0,0 -0.81,0 -0.81,0 l -0.02,-0.14 c -0.18,0.12 -0.36,0.18 -0.54,0.18 -0.18,0 -0.31,-0.05 -0.41,-0.16 -0.1,-0.11 -0.15,-0.25 -0.15,-0.41 v -0.68 c 0,0 -0.18,0 -0.18,0 v -0.4 c 0,0 0.87,0 0.87,0 v 0.97 c 0.01,0.07 0.03,0.12 0.06,0.16 0.03,0.04 0.08,0.06 0.14,0.05 0.06,-0.01 0.11,-0.02 0.17,-0.05 v -0.75 c 0,0 -0.14,0 -0.14,0 v -0.4 c 0,0 0.83,0 0.83,0 v 1.21 c 0,0 0.19,0 0.19,0 z"
           id="path302"
           style="fill:#ffffff;stroke-width:0px" />
        <path
           class="cls-11"
           d="m 419.31,416.35 v -0.4 c 0,0 0.12,0 0.12,0 l 0.41,-0.42 -0.38,-0.39 h -0.12 c 0,0 0,-0.4 0,-0.4 h 0.88 c 0,0 0,0.39 0,0.39 h -0.08 c 0,0 0.17,0.18 0.17,0.18 l 0.16,-0.19 h -0.08 c 0,0 0,-0.4 0,-0.4 h 0.88 c 0,0 0,0.39 0,0.39 h -0.12 c 0,0 -0.37,0.4 -0.37,0.4 l 0.42,0.41 h 0.12 c 0,0 0,0.4 0,0.4 h -0.9 c 0,0 0,-0.39 0,-0.39 h 0.1 c 0,0 -0.2,-0.2 -0.2,-0.2 l -0.19,0.2 h 0.1 c 0,0 0,0.4 0,0.4 h -0.9 z"
           id="path303"
           style="fill:#ffffff;stroke-width:0px" />
        <path
           class="cls-11"
           d="m 414.85,419.72 c -0.18,0 -0.34,-0.03 -0.48,-0.1 -0.14,-0.07 -0.24,-0.17 -0.32,-0.3 -0.08,-0.13 -0.12,-0.28 -0.12,-0.44 0,-0.16 0.03,-0.32 0.11,-0.45 0.07,-0.13 0.18,-0.23 0.31,-0.3 0.14,-0.07 0.3,-0.11 0.48,-0.11 0.18,0 0.34,0.03 0.47,0.1 0.14,0.07 0.25,0.17 0.32,0.29 0.08,0.13 0.12,0.28 0.12,0.44 0,0.16 -0.03,0.32 -0.11,0.45 -0.07,0.13 -0.18,0.23 -0.32,0.3 -0.14,0.07 -0.29,0.11 -0.47,0.11 z m -0.01,-0.52 c 0.08,0 0.15,-0.03 0.19,-0.09 0.05,-0.06 0.07,-0.14 0.07,-0.25 0,-0.11 -0.02,-0.18 -0.07,-0.24 -0.05,-0.06 -0.11,-0.08 -0.2,-0.08 -0.09,0 -0.15,0.03 -0.2,0.09 -0.04,0.06 -0.07,0.14 -0.07,0.24 0,0.1 0.02,0.19 0.07,0.24 0.05,0.06 0.11,0.09 0.2,0.08 z"
           id="path305"
           style="fill:#ffffff;stroke-width:0px" />
        <path
           class="cls-11"
           d="m 417.57,419.45 c -0.21,0.17 -0.46,0.25 -0.76,0.25 -0.18,0 -0.35,-0.03 -0.49,-0.1 -0.14,-0.07 -0.25,-0.17 -0.33,-0.3 -0.08,-0.13 -0.12,-0.28 -0.12,-0.46 0,-0.16 0.03,-0.31 0.1,-0.43 0.07,-0.12 0.16,-0.22 0.28,-0.29 0.12,-0.07 0.25,-0.11 0.4,-0.11 0.17,0 0.31,0.04 0.41,0.13 v -0.09 c 0,0 0.44,0 0.44,0 v 0.7 c 0,0 -0.41,0 -0.41,0 -0.02,-0.2 -0.12,-0.3 -0.3,-0.29 -0.09,0 -0.16,0.03 -0.21,0.09 -0.05,0.06 -0.07,0.14 -0.07,0.25 0,0.12 0.04,0.21 0.11,0.28 0.07,0.07 0.17,0.1 0.3,0.1 0.18,0 0.33,-0.05 0.46,-0.15 l 0.19,0.41 z"
           id="path306"
           style="fill:#ffffff;stroke-width:0px" />
        <path
           class="cls-11"
           d="m 418.14,417.75 c -0.12,0 -0.22,-0.03 -0.29,-0.1 -0.07,-0.07 -0.11,-0.16 -0.11,-0.28 0,-0.12 0.03,-0.21 0.11,-0.27 0.07,-0.07 0.17,-0.11 0.29,-0.11 0.12,0 0.22,0.03 0.29,0.1 0.07,0.07 0.11,0.16 0.11,0.27 0,0.11 -0.03,0.21 -0.1,0.28 -0.07,0.07 -0.17,0.11 -0.29,0.11 v 0 z m -0.45,1.9 v -0.4 c 0,0 0.17,0 0.17,0 v -0.81 c 0,0 -0.19,0 -0.19,0 v -0.4 c 0,0 0.87,0 0.87,0 v 1.21 c 0,0 0.19,0 0.19,0 v 0.4 c 0,0 -1.05,0.01 -1.05,0.01 z"
           id="path307"
           style="fill:#ffffff;stroke-width:0px" />
        <path
           class="cls-11"
           d="m 420.53,418.92 h -1.03 c 0.02,0.09 0.07,0.14 0.14,0.18 0.07,0.03 0.15,0.05 0.25,0.05 0.18,0 0.33,-0.05 0.46,-0.15 l 0.19,0.41 c -0.1,0.08 -0.21,0.14 -0.34,0.19 -0.13,0.04 -0.27,0.07 -0.42,0.07 -0.29,0 -0.52,-0.07 -0.69,-0.21 -0.17,-0.14 -0.25,-0.35 -0.26,-0.63 0,-0.16 0.03,-0.31 0.11,-0.44 0.08,-0.13 0.18,-0.23 0.31,-0.3 0.14,-0.07 0.29,-0.11 0.46,-0.11 0.17,0 0.31,0.03 0.43,0.1 0.12,0.07 0.22,0.16 0.28,0.29 0.06,0.13 0.1,0.27 0.1,0.43 v 0.12 z m -0.65,-0.28 c 0,-0.15 -0.07,-0.23 -0.2,-0.23 -0.13,0 -0.19,0.08 -0.21,0.23 z"
           id="path308"
           style="fill:#ffffff;stroke-width:0px" />
        <path
           class="cls-11"
           d="m 421.36,419.61 c -0.36,0 -0.54,-0.15 -0.54,-0.47 v -0.73 c 0,0 -0.19,0 -0.19,0 v -0.4 c 0,0 0.17,0 0.17,0 v -0.51 c 0,0 0.69,-0.1 0.69,-0.1 v 0.61 c 0,0 0.35,0 0.35,0 v 0.4 c 0,0 -0.34,0 -0.34,0 v 0.6 c 0,0.07 0.02,0.12 0.05,0.15 0.03,0.03 0.08,0.04 0.14,0.04 h 0.16 c 0,0 0,0.42 0,0.42 h -0.51 z"
           id="path309"
           style="fill:#ffffff;stroke-width:0px" />
        <path
           class="cls-11"
           d="m 422.29,419.79 h 0.13 c 0.09,0 0.17,-0.02 0.22,-0.04 0.05,-0.03 0.1,-0.08 0.14,-0.15 l 0.06,-0.11 h -0.17 c 0,0 -0.61,-1.1 -0.61,-1.1 h -0.12 c 0,0 0,-0.4 0,-0.4 h 1.01 c 0,0 0,0.39 0,0.39 h -0.18 c 0,0 0.29,0.58 0.29,0.58 l 0.27,-0.59 h -0.18 c 0,0 0,-0.4 0,-0.4 h 0.89 c 0,0 0,0.39 0,0.39 h -0.12 c 0,0 -0.68,1.34 -0.68,1.34 -0.08,0.16 -0.15,0.28 -0.21,0.35 -0.06,0.08 -0.13,0.13 -0.21,0.17 -0.09,0.04 -0.2,0.06 -0.34,0.06 h -0.18 c 0,0 0,-0.5 0,-0.5 z"
           id="path310"
           style="fill:#ffffff;stroke-width:0px" />
      </g>
      <g
         id="g317">
        <g
           id="g315">
          <g
             id="g311">
            <ellipse
               class="cls-11"
               cx="426.03"
               cy="414.56"
               rx="1.35"
               ry="1.38"
               transform="rotate(-72.53,426.0356,414.55881)"
               id="ellipse310"
               style="fill:#ffffff;stroke-width:0px" />
            <path
               class="cls-1"
               d="m 424.55,414.56 c 0,-0.15 0.02,-0.3 0.07,-0.45 0.12,-0.37 0.37,-0.67 0.72,-0.85 0.35,-0.18 0.75,-0.21 1.13,-0.09 0.78,0.25 1.22,1.07 0.98,1.84 -0.12,0.37 -0.37,0.67 -0.72,0.85 -0.35,0.18 -0.75,0.21 -1.13,0.09 -0.63,-0.2 -1.04,-0.77 -1.04,-1.39 z m 2.75,0 c 0,-0.53 -0.36,-1.02 -0.9,-1.19 -0.32,-0.1 -0.67,-0.07 -0.97,0.08 -0.3,0.15 -0.52,0.41 -0.62,0.73 -0.21,0.66 0.17,1.36 0.84,1.57 0.32,0.1 0.67,0.07 0.97,-0.08 0.3,-0.15 0.52,-0.41 0.62,-0.73 0.04,-0.13 0.06,-0.26 0.06,-0.38 z"
               id="path311"
               style="stroke-width:0px" />
          </g>
          <g
             id="g312">
            <ellipse
               class="cls-1"
               cx="425.38"
               cy="414.35001"
               rx="0.31"
               ry="0.31999999"
               transform="rotate(-72.53,425.38081,414.35101)"
               id="ellipse311"
               style="stroke-width:0px" />
            <path
               class="cls-1"
               d="m 424.97,414.36 c 0,0 0,-0.08 0.02,-0.12 0.07,-0.21 0.3,-0.33 0.51,-0.26 0.1,0.03 0.19,0.1 0.24,0.2 0.05,0.1 0.06,0.21 0.03,0.31 -0.03,0.1 -0.1,0.19 -0.2,0.24 -0.1,0.05 -0.21,0.06 -0.31,0.03 -0.17,-0.06 -0.29,-0.21 -0.29,-0.39 z m 0.63,-0.01 c 0,0 0,-0.07 -0.03,-0.1 -0.03,-0.05 -0.07,-0.09 -0.13,-0.11 -0.12,-0.04 -0.24,0.03 -0.28,0.14 -0.04,0.12 0.03,0.24 0.15,0.28 0.06,0.02 0.12,0.01 0.17,-0.01 0.05,-0.03 0.09,-0.07 0.11,-0.13 0,-0.02 0.01,-0.04 0,-0.07 z"
               id="path312"
               style="stroke-width:0px" />
          </g>
          <g
             id="g313">
            <ellipse
               class="cls-11"
               cx="423.41"
               cy="413.73999"
               rx="1.35"
               ry="1.38"
               transform="rotate(-72.53,423.41827,413.73943)"
               id="ellipse312"
               style="fill:#ffffff;stroke-width:0px" />
            <path
               class="cls-1"
               d="m 421.94,413.74 c 0,-0.15 0.02,-0.3 0.07,-0.44 0.12,-0.37 0.37,-0.67 0.72,-0.85 0.35,-0.18 0.74,-0.21 1.12,-0.09 v 0 c 0.37,0.12 0.68,0.37 0.86,0.72 0.18,0.34 0.22,0.74 0.1,1.11 -0.24,0.76 -1.06,1.18 -1.84,0.94 -0.62,-0.2 -1.03,-0.77 -1.03,-1.38 z m 2.76,-0.01 c 0,-0.2 -0.05,-0.39 -0.15,-0.57 -0.16,-0.3 -0.43,-0.52 -0.76,-0.63 v 0 c -0.33,-0.1 -0.67,-0.07 -0.98,0.08 -0.3,0.15 -0.52,0.42 -0.63,0.74 -0.21,0.66 0.17,1.37 0.85,1.59 0.67,0.21 1.39,-0.15 1.6,-0.82 0.04,-0.13 0.06,-0.26 0.06,-0.39 z m -0.88,-1.29 z"
               id="path313"
               style="stroke-width:0px" />
          </g>
          <g
             id="g314">
            <ellipse
               class="cls-1"
               cx="424.07001"
               cy="413.94"
               rx="0.31"
               ry="0.31999999"
               transform="rotate(-72.53,424.06624,413.94223)"
               id="ellipse313"
               style="stroke-width:0px" />
            <path
               class="cls-1"
               d="m 423.65,413.94 c 0,0 0,-0.08 0.02,-0.13 0.03,-0.1 0.1,-0.19 0.2,-0.24 0.1,-0.05 0.21,-0.06 0.31,-0.03 v 0 c 0.22,0.07 0.34,0.3 0.27,0.51 -0.03,0.1 -0.1,0.19 -0.2,0.24 -0.1,0.05 -0.21,0.06 -0.31,0.03 -0.1,-0.03 -0.19,-0.1 -0.24,-0.2 -0.03,-0.06 -0.05,-0.12 -0.05,-0.19 z m 0.48,-0.21 v 0 c -0.06,-0.02 -0.12,-0.01 -0.17,0.01 -0.05,0.03 -0.09,0.07 -0.11,0.13 -0.02,0.06 -0.01,0.11 0.02,0.17 0.03,0.05 0.07,0.09 0.13,0.11 0.06,0.02 0.12,0.01 0.17,-0.01 0.05,-0.03 0.09,-0.07 0.11,-0.13 0.04,-0.12 -0.03,-0.24 -0.15,-0.28 z"
               id="path314"
               style="stroke-width:0px" />
          </g>
        </g>
        <g
           id="g316">
          <path
             class="cls-1"
             d="m 422.65,415.09 c 0,0 0,-0.05 0.03,-0.07 0.02,-0.02 0.06,-0.03 0.09,-0.02 l 3.22,0.88 c 0,0 0.06,0.03 0.07,0.07 0,0.03 0,0.07 -0.03,0.09 l -2.36,2.3 c 0,0 -0.06,0.03 -0.09,0.02 -0.03,0 -0.06,-0.03 -0.07,-0.07 l -0.86,-3.18 z m 3.13,0.93 -2.91,-0.8 0.78,2.87 2.13,-2.08 z"
             id="path316"
             style="stroke-width:0px" />
        </g>
      </g>
    </g>
  </g>
</svg>
