<?xml version="1.0" encoding="UTF-8" standalone="no"?>
<!-- Created with Inkscape (http://www.inkscape.org/) -->

<svg
   width="210mm"
   height="297mm"
   viewBox="0 0 210 297"
   version="1.1"
   id="svg1"
   inkscape:version="1.2.2 (b0a8486541, 2022-12-01)"
   sodipodi:docname="retro_n.svg"
   xmlns:inkscape="http://www.inkscape.org/namespaces/inkscape"
   xmlns:sodipodi="http://sodipodi.sourceforge.net/DTD/sodipodi-0.dtd"
   xmlns="http://www.w3.org/2000/svg"
   xmlns:svg="http://www.w3.org/2000/svg">
  <sodipodi:namedview
     id="namedview1"
     pagecolor="#ffffff"
     bordercolor="#666666"
     borderopacity="1.0"
     inkscape:showpageshadow="2"
     inkscape:pageopacity="0.0"
     inkscape:pagecheckerboard="0"
     inkscape:deskcolor="#d1d1d1"
     inkscape:document-units="mm"
     inkscape:zoom="0.54135999"
     inkscape:cx="518.13951"
     inkscape:cy="735.18547"
     inkscape:window-width="1280"
     inkscape:window-height="988"
     inkscape:window-x="3840"
     inkscape:window-y="1136"
     inkscape:window-maximized="1"
     inkscape:current-layer="layer1"
     showgrid="false" />
  <defs
     id="defs1" />
  <g
     inkscape:label="Layer 1"
     inkscape:groupmode="layer"
     id="layer1">
    <text
       xml:space="preserve"
       style="font-size:5.90932px;line-height:1.25;font-family:sans-serif;letter-spacing:0px;word-spacing:0px;fill:#000000;fill-opacity:1;stroke:#ffffff;stroke-width:0.1;stroke-dasharray:none;stroke-opacity:1"
       x="14.152134"
       y="37.516487"
       id="text886-5-0"><tspan
         sodipodi:role="line"
         id="tspan886-9-3"
         x="14.152134"
         y="37.516487"
         style="font-style:normal;font-variant:normal;font-weight:normal;font-stretch:normal;font-size:9.84886px;font-family:'Nimbus Mono PS';-inkscape-font-specification:'Nimbus Mono PS';fill:#000000;fill-opacity:1;stroke:#ffffff;stroke-width:0.1;stroke-dasharray:none;stroke-opacity:1">$ sed &quot;s/le fave/li software/&quot;</tspan><tspan
         sodipodi:role="line"
         x="14.152134"
         y="49.82756"
         style="font-style:italic;font-variant:normal;font-weight:normal;font-stretch:normal;font-size:9.84886px;font-family:'Nimbus Mono PS';-inkscape-font-specification:'Nimbus Mono PS Italic';fill:#000000;fill-opacity:1;stroke:#ffffff;stroke-width:0.1;stroke-dasharray:none;stroke-opacity:1"
         id="tspan887-2-6"> ce vònno le fave che dureno</tspan><tspan
         sodipodi:role="line"
         x="14.152134"
         y="62.138638"
         style="font-style:italic;font-variant:normal;font-weight:normal;font-stretch:normal;font-size:9.84886px;font-family:'Nimbus Mono PS';-inkscape-font-specification:'Nimbus Mono PS Italic';fill:#000000;fill-opacity:1;stroke:#ffffff;stroke-width:0.1;stroke-dasharray:none;stroke-opacity:1"
         id="tspan888-2-10"> no li confetti che scórteno</tspan><tspan
         sodipodi:role="line"
         x="14.152134"
         y="74.449715"
         style="font-style:normal;font-variant:normal;font-weight:normal;font-stretch:normal;font-size:9.84886px;font-family:'Nimbus Mono PS';-inkscape-font-specification:'Nimbus Mono PS';fill:#000000;fill-opacity:1;stroke:#ffffff;stroke-width:0.1;stroke-dasharray:none;stroke-opacity:1"
         id="tspan892-8-6" /><tspan
         sodipodi:role="line"
         x="14.152134"
         y="86.760788"
         style="font-style:normal;font-variant:normal;font-weight:bold;font-stretch:normal;font-size:9.84886px;font-family:'Nimbus Mono PS';-inkscape-font-specification:'Nimbus Mono PS Bold';fill:#000000;fill-opacity:1;stroke:#ffffff;stroke-width:0.1;stroke-dasharray:none;stroke-opacity:1"
         id="tspan889-9-3">ce vònno li software che dureno</tspan><tspan
         sodipodi:role="line"
         x="14.152134"
         y="99.071861"
         style="font-style:normal;font-variant:normal;font-weight:bold;font-stretch:normal;font-size:9.84886px;font-family:'Nimbus Mono PS';-inkscape-font-specification:'Nimbus Mono PS Bold';fill:#000000;fill-opacity:1;stroke:#ffffff;stroke-width:0.1;stroke-dasharray:none;stroke-opacity:1"
         id="tspan890-7-2">no li confetti che scórteno</tspan><tspan
         sodipodi:role="line"
         x="14.152134"
         y="109.58971"
         style="font-style:normal;font-variant:normal;font-weight:normal;font-stretch:normal;font-size:5.90932px;font-family:Monospace;-inkscape-font-specification:Monospace;fill:#000000;fill-opacity:1;stroke:#ffffff;stroke-width:0.1;stroke-dasharray:none;stroke-opacity:1"
         id="tspan891-3-0" /></text>
    <g
       id="_190Hsc-2"
       data-name="190Hsc"
       transform="matrix(3.2867172,0,0,3.2867172,-1238.3145,-1118.97)"
       style="stroke:#000000;stroke-width:0.0304255;stroke-dasharray:none">
      <g
         id="g292"
         style="stroke:#000000;stroke-width:0.0304255;stroke-dasharray:none">
        <path
           class="cls-11"
           d="m 387.35,418.93 c 0.32,-0.41 0.63,-0.82 0.94,-1.23 0.03,-0.04 0.07,-0.07 0.13,-0.07 0.37,0 0.73,0 1.1,-0.01 0.06,0 0.08,0 0.08,0.08 0,0.81 0.02,1.61 0.03,2.42 0,0.07 -0.02,0.08 -0.08,0.08 -0.28,0 -0.56,0 -0.84,0 -0.06,0 -0.09,-0.01 -0.09,-0.08 0,-0.42 0,-0.84 -0.01,-1.26 -0.03,0 -0.04,0.03 -0.05,0.04 -0.3,0.41 -0.59,0.83 -0.89,1.25 -0.03,0.04 -0.06,0.07 -0.12,0.06 -0.07,0 -0.14,0 -0.21,0 -0.18,0.03 -0.28,-0.05 -0.38,-0.19 -0.26,-0.37 -0.54,-0.72 -0.81,-1.08 -0.02,-0.02 -0.03,-0.04 -0.06,-0.08 0,0.05 0,0.07 0,0.1 0,0.39 0,0.79 0.01,1.18 0,0.06 -0.01,0.08 -0.08,0.08 -0.29,0 -0.57,0 -0.86,0 -0.06,0 -0.07,-0.02 -0.07,-0.07 0,-0.81 -0.02,-1.62 -0.03,-2.44 0,-0.05 0.01,-0.07 0.06,-0.07 0.38,0 0.76,0 1.14,-0.01 0.05,0 0.08,0.02 0.11,0.06 0.3,0.38 0.61,0.76 0.91,1.14 0.02,0.02 0.04,0.04 0.06,0.07 z"
           id="path276"
           style="fill:#ffffff;stroke-width:0.0304255;stroke:#000000;stroke-dasharray:none" />
        <path
           class="cls-11"
           d="m 393.21,418.84 c 0,0 -0.02,0 -0.04,-0.02 0.02,-0.02 0.04,-0.03 0.06,-0.05 0.33,-0.28 0.29,-0.82 -0.07,-1.05 -0.15,-0.1 -0.32,-0.14 -0.5,-0.14 -0.8,0 -1.6,0.02 -2.4,0.02 -0.07,0 -0.09,0.01 -0.09,0.09 0.01,0.8 0.02,1.6 0.03,2.4 0,0.07 0.02,0.09 0.09,0.09 0.86,-0.01 1.72,-0.02 2.57,-0.03 0.08,0 0.16,-0.01 0.24,-0.03 0.32,-0.07 0.53,-0.3 0.55,-0.59 0.03,-0.33 -0.13,-0.57 -0.44,-0.7 z m -2.01,-0.34 c 0,-0.08 0,-0.15 0,-0.23 0,-0.04 0,-0.05 0.05,-0.05 0.36,0 0.73,0 1.09,-0.01 0.1,0 0.18,0.08 0.18,0.17 0,0.1 -0.07,0.17 -0.18,0.17 -0.18,0 -0.36,0 -0.53,0 -0.18,0 -0.36,0 -0.53,0 -0.05,0 -0.07,0 -0.07,-0.06 z m 1.32,1.05 c -0.41,0 -0.83,0 -1.24,0.02 -0.05,0 -0.08,0 -0.07,-0.07 0,-0.07 0,-0.13 0,-0.2 0,-0.07 0.02,-0.08 0.08,-0.08 0.21,0 0.41,0 0.62,0 0.2,0 0.41,0 0.61,0 0.11,0 0.19,0.06 0.19,0.16 0,0.1 -0.07,0.18 -0.19,0.18 z"
           id="path277"
           style="fill:#ffffff;stroke-width:0.0304255;stroke:#000000;stroke-dasharray:none" />
        <path
           class="cls-11"
           d="m 396.9,419.35 c 0.37,-0.22 0.55,-0.66 0.44,-1.07 -0.11,-0.42 -0.48,-0.73 -0.9,-0.73 -0.83,0 -1.65,0.02 -2.48,0.02 -0.05,0 -0.06,0.02 -0.06,0.06 0.01,0.82 0.02,1.64 0.03,2.45 0,0.05 0.02,0.06 0.06,0.06 0.3,0 0.59,0 0.89,0 0.05,0 0.06,-0.02 0.06,-0.06 0,-0.17 0,-0.33 0,-0.5 0,-0.05 0,-0.07 0.06,-0.07 0.26,0 0.52,0 0.77,0 0.04,0 0.07,0.01 0.09,0.05 0.13,0.17 0.27,0.34 0.4,0.51 0.04,0.05 0.09,0.07 0.15,0.07 0.29,0 0.59,0 0.88,-0.01 0.03,0 0.06,0 0.09,-0.01 -0.17,-0.21 -0.33,-0.42 -0.5,-0.63 -0.05,-0.06 -0.05,-0.08 0.02,-0.12 z m -0.76,-0.61 c -0.19,0 -0.39,0 -0.58,0 -0.19,0 -0.38,0 -0.58,0 -0.05,0 -0.06,-0.01 -0.06,-0.06 0,-0.11 0,-0.21 0,-0.32 0,-0.05 0.01,-0.06 0.06,-0.06 0.39,0 0.77,0 1.16,-0.01 0.13,0 0.22,0.09 0.22,0.21 0,0.12 -0.09,0.22 -0.22,0.22 z"
           id="path278"
           style="fill:#ffffff;stroke-width:0.0304255;stroke:#000000;stroke-dasharray:none" />
        <path
           class="cls-11"
           d="m 401.4,420.04 c -0.46,-0.83 -0.91,-1.65 -1.36,-2.48 -0.03,-0.05 -0.06,-0.05 -0.1,-0.05 -0.35,0 -0.71,0 -1.06,0.01 -0.05,0 -0.08,0.02 -0.1,0.06 -0.43,0.82 -0.86,1.65 -1.29,2.47 0,0.02 -0.03,0.03 0,0.06 0.35,0 0.71,0 1.07,-0.01 0.04,0 0.05,-0.02 0.07,-0.05 0.05,-0.11 0.1,-0.22 0.15,-0.34 0.02,-0.04 0.04,-0.05 0.08,-0.05 0.39,0 0.78,0 1.17,-0.01 0.04,0 0.06,0.02 0.08,0.05 0.05,0.11 0.11,0.22 0.16,0.33 0.02,0.04 0.04,0.05 0.08,0.05 0.36,0 0.71,0 1.08,-0.01 0,-0.02 0,-0.03 -0.01,-0.03 z m -2.32,-1.02 c 0.11,-0.25 0.22,-0.49 0.34,-0.75 0.12,0.25 0.23,0.49 0.35,0.74 h -0.69 z"
           id="path279"
           style="fill:#ffffff;stroke-width:0.0304255;stroke:#000000;stroke-dasharray:none" />
        <path
           class="cls-11"
           d="m 385,420.2 c -0.45,-0.82 -0.9,-1.63 -1.35,-2.45 -0.02,-0.05 -0.05,-0.06 -0.1,-0.05 -0.35,0 -0.71,0.01 -1.06,0.01 -0.06,0 -0.08,0.02 -0.11,0.07 -0.35,0.67 -0.7,1.35 -1.06,2.02 -0.09,0.16 -0.17,0.33 -0.26,0.5 0.37,0 0.74,0 1.1,-0.01 0.04,0 0.05,-0.03 0.06,-0.06 0.05,-0.11 0.1,-0.22 0.15,-0.34 0.02,-0.04 0.04,-0.05 0.08,-0.05 0.39,0 0.79,0 1.18,-0.01 0.04,0 0.06,0.01 0.08,0.05 0.05,0.1 0.1,0.2 0.15,0.31 0.02,0.06 0.06,0.08 0.12,0.08 0.26,0 0.53,0 0.79,-0.01 0.08,0 0.16,0 0.24,0 0.01,-0.03 0,-0.04 -0.01,-0.06 z m -2.31,-1 c 0.11,-0.25 0.22,-0.49 0.34,-0.75 0.12,0.25 0.24,0.49 0.35,0.74 h -0.69 z"
           id="path280"
           style="fill:#ffffff;stroke-width:0.0304255;stroke:#000000;stroke-dasharray:none" />
        <g
           id="g282"
           style="stroke:#000000;stroke-width:0.0304255;stroke-dasharray:none">
          <path
             class="cls-11"
             d="m 396.78,412.46 c 0,-0.49 -0.01,-0.99 -0.02,-1.48 0,-0.07 0,-0.13 -0.01,-0.2 -0.08,-0.24 -0.35,-0.35 -0.58,-0.22 -0.62,0.36 -1.23,0.73 -1.85,1.09 -0.04,0.02 -0.05,0.05 -0.05,0.1 0,0.32 0,0.63 0.01,0.95 q 0,0.24 0.21,0.34 c 0,0 0,0 0,0 0.32,0.18 0.65,0.37 0.97,0.55 0.06,0.03 0.12,0.07 0.18,0.1 0.19,0.11 0.37,0.21 0.56,0.31 0.25,0.13 0.57,-0.04 0.57,-0.31 0,-0.41 0,-0.83 -0.01,-1.24 v 0 z"
             id="path281"
             style="fill:#ffffff;stroke-width:0.0304255;stroke:#000000;stroke-dasharray:none" />
          <path
             class="cls-11"
             d="m 394.88,414.83 v 0 c -0.17,-0.33 -0.34,-0.66 -0.51,-0.99 q -0.12,-0.24 -0.4,-0.22 c -0.52,0 -1.04,0.01 -1.57,0.02 -0.48,0 -0.95,0.01 -1.43,0.02 h -1.04 c 0,0 0.02,-0.05 0.03,-0.08 0.2,-0.42 0.41,-0.84 0.61,-1.26 0.15,-0.31 0.29,-0.61 0.44,-0.92 0.04,-0.05 0.06,-0.11 0.08,-0.17 0.01,0 0.02,-0.02 0.02,-0.03 0.05,-0.04 0.02,-0.13 0.1,-0.14 l 1.71,-0.02 c -0.19,-0.36 -0.38,-0.72 -0.56,-1.08 -0.01,-0.03 -0.02,-0.06 -0.04,-0.09 -0.09,-0.17 -0.18,-0.34 -0.27,-0.51 -0.12,-0.24 -0.25,-0.48 -0.37,-0.73 -0.04,-0.08 -0.09,-0.11 -0.17,-0.09 -0.26,0 -0.53,0 -0.79,0 -0.05,0 -0.06,0.03 -0.07,0.06 -0.08,0.16 -0.16,0.33 -0.24,0.49 -0.14,0.29 -0.28,0.58 -0.42,0.87 v 0 c -0.07,0.12 -0.12,0.24 -0.18,0.37 -0.02,0.03 -0.03,0.05 -0.04,0.09 0,0.02 -0.02,0.04 -0.03,0.05 -0.09,0.19 -0.19,0.38 -0.28,0.57 -0.16,0.32 -0.31,0.65 -0.47,0.97 v 0 c 0,0 0,0 0,0 v 0 c 0,0 0,0 0,0 -0.04,0.05 -0.06,0.11 -0.08,0.17 -0.02,0.03 -0.04,0.07 -0.05,0.1 -0.02,0.01 -0.02,0.03 -0.03,0.05 -0.01,0.02 -0.03,0.04 -0.04,0.07 -0.17,0.34 -0.33,0.69 -0.5,1.03 -0.05,0.1 -0.09,0.2 -0.14,0.3 0,0.01 -0.02,0.02 -0.02,0.04 -0.4,0.82 -0.8,1.64 -1.2,2.46 0,0.02 -0.02,0.03 -0.02,0.06 0,0 0.02,0 0.02,0 0.55,0 1.1,-0.01 1.64,-0.02 0.05,0 0.07,-0.03 0.09,-0.06 0.12,-0.25 0.24,-0.5 0.36,-0.75 0.02,-0.04 0.04,-0.06 0.09,-0.07 0.16,0 0.32,0 0.47,0 0.12,0.01 0.24,0 0.36,0 v 0 c 0,0 0,0 0,0 0.03,0 0.07,0 0.1,0 0.14,0 0.29,0 0.43,0 0.01,0 0.03,0 0.05,0 0.53,0 1.06,-0.01 1.59,-0.02 0.01,0 0.02,0 0.03,0 0.27,0 0.55,0 0.82,0 0.13,0 0.27,0 0.4,0 0.09,0.18 0.19,0.36 0.28,0.54 0.04,0.08 0.09,0.17 0.12,0.25 0.02,0.06 0.06,0.07 0.12,0.07 0.52,0 1.04,-0.01 1.57,-0.02 h 0.08 c 0,0 0,-0.03 0,-0.03 -0.23,-0.45 -0.46,-0.89 -0.69,-1.33 z m -1.17,0.99 z M 391.1,410 c 0,0 0.02,-0.03 0.04,-0.03 -0.01,0 -0.03,0.02 -0.04,0.03 z m 0.42,-0.3 z m -0.39,-0.77 z m 2.27,6.43 z"
             id="path282"
             style="fill:#ffffff;stroke-width:0.0304255;stroke:#000000;stroke-dasharray:none" />
        </g>
        <g
           id="g291"
           style="stroke:#000000;stroke-width:0.0304255;stroke-dasharray:none">
          <path
             class="cls-11"
             d="m 395.45,421.61 c 0,0 0.08,0 0.12,0 0.05,0 0.09,0 0.14,0 v 0 c 0,0 0.09,0 0.13,0 0.05,0 0.08,0 0.08,-0.06 0,-0.07 -0.03,-0.07 -0.08,-0.06 -0.04,0 -0.09,0 -0.13,0 -0.05,0 -0.09,0 -0.14,0 -0.03,0 -0.07,0 -0.1,0 -0.06,0 -0.11,0 -0.17,0 -0.02,0.2 -0.01,0.41 0,0.61 v 0 c 0,0 0,0 0,0 0.04,0.01 0.08,0 0.12,0 0.04,0 0.08,0 0.12,0 0.05,0 0.1,0 0.15,0 v 0 c 0,0 0.07,0 0.1,0 0.04,-0.01 0.11,0.05 0.12,-0.05 0,-0.11 -0.07,-0.06 -0.12,-0.07 h -0.1 c -0.05,0 -0.1,0 -0.15,0 -0.03,0 -0.06,0 -0.09,0 -0.07,-0.03 -0.02,-0.08 -0.03,-0.12 0.03,0 0.06,0 0.09,0 0.09,0 0.18,0.02 0.27,-0.02 0.01,-0.04 0.01,-0.07 0,-0.11 -0.02,-0.03 -0.05,-0.01 -0.08,-0.01 -0.09,0 -0.19,0 -0.28,0 0.01,-0.04 -0.03,-0.1 0.03,-0.12 z"
             id="path283"
             style="fill:#ffffff;stroke-width:0.0304255;stroke:#000000;stroke-dasharray:none" />
          <path
             class="cls-11"
             d="m 385.68,421.6 c 0,0 -0.1,-0.03 -0.14,0.03 -0.04,0.03 -0.07,0.06 -0.1,0.1 -0.03,0.02 -0.06,0.05 -0.08,0.08 -0.06,0.04 -0.07,-0.04 -0.12,-0.05 -0.05,-0.06 -0.1,-0.11 -0.15,-0.15 v 0 c -0.12,-0.04 -0.14,-0.03 -0.14,0.09 0,0.15 0,0.31 0,0.46 0,0.05 0.02,0.06 0.06,0.06 0.04,0 0.07,0 0.07,-0.06 0,-0.09 0,-0.19 0,-0.28 0,-0.02 -0.02,-0.06 0.02,-0.07 0.04,0.04 0.08,0.08 0.12,0.12 0.03,0.03 0.05,0.05 0.08,0.08 0.03,0.03 0.05,0.02 0.06,-0.02 0.04,-0.05 0.1,-0.06 0.12,-0.12 0.03,-0.02 0.05,-0.04 0.09,-0.07 0,0 0,0 0,0.01 0,0.06 0,0.11 0,0.16 0,0.08 -0.02,0.16 0.02,0.24 q 0.12,0.01 0.12,-0.1 c 0,-0.14 0,-0.28 0,-0.42 0,-0.03 0.02,-0.08 -0.02,-0.09 z"
             id="path284"
             style="fill:#ffffff;stroke-width:0.0304255;stroke:#000000;stroke-dasharray:none" />
          <path
             class="cls-11"
             d="m 397.34,421.86 v 0 c 0,0 -0.1,-0.08 -0.02,-0.14 v 0 c 0.08,-0.08 0.15,-0.17 0.23,-0.25 -0.09,0 -0.19,-0.02 -0.25,0.09 v 0 c 0,0 -0.08,0.08 -0.12,0.12 -0.06,-0.01 -0.08,-0.08 -0.14,-0.11 -0.06,-0.11 -0.16,-0.11 -0.26,-0.09 0.08,0.09 0.16,0.17 0.25,0.25 v 0 c 0,0 0.04,0.03 0.04,0.07 -0.04,0.04 -0.08,0.08 -0.12,0.12 v 0 c -0.06,0.05 -0.11,0.11 -0.18,0.18 0.08,0 0.14,0.01 0.2,-0.02 0.04,-0.03 0.07,-0.06 0.1,-0.1 0.05,-0.02 0.06,-0.08 0.12,-0.09 0.05,0.05 0.09,0.09 0.14,0.14 v 0 c 0.06,0.1 0.15,0.06 0.24,0.07 -0.07,-0.08 -0.15,-0.15 -0.22,-0.23 z"
             id="path285"
             style="fill:#ffffff;stroke-width:0.0304255;stroke:#000000;stroke-dasharray:none" />
          <path
             class="cls-11"
             d="m 391.32,421.58 c 0,0 0,-0.06 -0.04,-0.05 v 0 c -0.07,-0.02 -0.09,0.01 -0.09,0.08 0,0.15 0,0.3 0,0.45 0,0.07 0.02,0.1 0.09,0.08 0.04,0 0.04,-0.02 0.04,-0.05 0,-0.17 0,-0.35 0,-0.52 z"
             id="path286"
             style="fill:#ffffff;stroke-width:0.0304255;stroke:#000000;stroke-dasharray:none" />
          <path
             class="cls-11"
             d="m 388.69,422.06 c 0,0 -0.04,0 -0.07,0 v 0 c 0,0 -0.07,0 -0.1,0 -0.04,0 -0.08,0 -0.12,0 -0.04,0 -0.08,0 -0.12,0 v 0 c 0,0 0,-0.1 -0.01,-0.14 0,-0.02 0,-0.04 0,-0.06 0,-0.02 0,-0.04 0,-0.07 0,-0.08 0,-0.15 -0.01,-0.23 v 0 c 0,0 0,0 0,0 q -0.12,-0.02 -0.12,0.1 c 0,0.14 0,0.27 0,0.41 q 0,0.12 0.12,0.11 c 0,0 0.09,0 0.14,0 0.04,0 0.08,0 0.12,0 0.04,0 0.08,0 0.12,0 0.02,0 0.03,0 0.05,0 0.04,0 0.08,0.01 0.08,-0.06 0,-0.07 -0.03,-0.07 -0.08,-0.07 z"
             id="path287"
             style="fill:#ffffff;stroke-width:0.0304255;stroke:#000000;stroke-dasharray:none" />
          <path
             class="cls-11"
             d="m 390.2,421.54 c 0,0 -0.04,0 -0.07,0 -0.03,0 -0.07,0 -0.1,0 -0.04,0 -0.08,0 -0.12,0 -0.03,0 -0.07,0 -0.1,0 -0.02,0 -0.05,0 -0.07,0 -0.05,0 -0.07,0.01 -0.07,0.07 0,0.06 0.03,0.06 0.07,0.06 0.02,0 0.04,0 0.07,0 0.03,0 0.07,0 0.1,0 v 0 c 0,0.15 0,0.29 0,0.44 0,0.05 0.02,0.06 0.06,0.06 0.05,0 0.07,0 0.07,-0.07 0,-0.15 0,-0.29 0,-0.44 0.03,0 0.07,0 0.1,0 0.02,0 0.03,0 0.05,0 0.04,0 0.09,0.02 0.09,-0.06 0,-0.08 -0.05,-0.06 -0.09,-0.06 z"
             id="path288"
             style="fill:#ffffff;stroke-width:0.0304255;stroke:#000000;stroke-dasharray:none" />
          <path
             class="cls-11"
             d="m 387.22,421.58 v 0 q -0.12,-0.02 -0.12,0.1 c 0,0.1 0,0.21 0,0.31 0,0.03 0,0.06 -0.03,0.08 -0.05,0 -0.09,0 -0.14,0.01 -0.05,0 -0.1,0 -0.15,0 -0.04,-0.02 -0.04,-0.06 -0.04,-0.1 0,-0.11 0,-0.22 0,-0.34 0,-0.05 0,-0.07 -0.07,-0.07 -0.06,0 -0.07,0.02 -0.07,0.08 0,0.13 0,0.26 0,0.4 0,0.12 0.05,0.16 0.17,0.15 v 0 c 0.06,0 0.11,0 0.17,0 v 0 c 0,0 0.09,0 0.14,0 0.08,0.01 0.12,-0.02 0.14,-0.1 0,-0.17 0.01,-0.35 0,-0.52 z"
             id="path289"
             style="fill:#ffffff;stroke-width:0.0304255;stroke:#000000;stroke-dasharray:none" />
          <path
             class="cls-11"
             d="m 394.32,422 c 0,0 -0.08,0 -0.12,0 -0.04,0 -0.08,0 -0.12,0 v 0 c 0,0 -0.09,0 -0.14,0 v 0 c 0,0 0,0 0,0 -0.04,0 -0.05,-0.01 -0.05,-0.06 0,-0.11 0,-0.23 0,-0.34 q 0,-0.11 -0.12,-0.09 c -0.01,0.2 -0.01,0.41 0,0.61 v 0 c 0,0 0,0 0,0 0.05,0.01 0.1,0 0.15,0 0.05,0 0.09,0 0.14,0 0.04,0 0.08,0 0.12,0 0.05,0 0.09,0 0.14,0 0.06,0.02 0.07,0 0.07,-0.06 0,-0.06 -0.03,-0.07 -0.07,-0.05 z"
             id="path290"
             style="fill:#ffffff;stroke-width:0.0304255;stroke:#000000;stroke-dasharray:none" />
          <path
             class="cls-11"
             d="m 392.71,421.52 h -0.14 c -0.06,0 -0.11,0 -0.17,0 -0.04,0 -0.08,0 -0.12,0 -0.04,-0.01 -0.06,0 -0.05,0.05 0,0.17 0,0.35 0,0.52 0,0.04 0.01,0.06 0.06,0.05 0.06,0.01 0.07,0 0.07,-0.06 0,-0.06 -0.02,-0.12 0.01,-0.18 0.06,0 0.12,0 0.19,0 0.06,0 0.13,0.01 0.19,0 0,0 0,0 0,0 0,0 0,0 0,0 0,0 0,0 0.01,0 v 0 c 0,0 0.06,-0.03 0.07,-0.06 0.02,-0.05 0,-0.11 0,-0.17 0,-0.09 -0.04,-0.13 -0.14,-0.13 z m 0.01,0.22 c 0,0 -0.02,0.01 -0.03,0.02 -0.1,0 -0.21,0 -0.31,0 -0.01,-0.05 -0.06,-0.11 0.03,-0.13 0.06,0 0.11,0 0.17,0 0.04,0 0.08,0.01 0.12,0.02 0.02,0.03 0.03,0.05 0.02,0.09 z"
             id="path291"
             style="fill:#ffffff;stroke-width:0.0304255;stroke:#000000;stroke-dasharray:none" />
        </g>
      </g>
    </g>
    <g
       id="g12852"
       transform="translate(-8.3760818,80.984256)">
      <circle
         class="cls-1"
         cx="167.68599"
         cy="165.96634"
         r="33.930122"
         id="circle247"
         style="stroke-width:0.1;stroke:#ffffff;stroke-opacity:1;stroke-dasharray:none" />
      <g
         id="g273"
         transform="matrix(3.2782727,0,0,3.2782727,-1165.817,-439.51424)">
        <g
           id="g265">
          <path
             class="cls-10"
             d="m 400.14,182.29 v -0.48 c 0,0 0.2,0 0.2,0 l -0.02,-1.38 h -0.2 c 0,0 0,-0.48 0,-0.48 h 1.2 c 0,0 0,0.47 0,0.47 h -0.2 c 0,0 0.02,1.38 0.02,1.38 h 0.2 c 0,0 0,0.47 0,0.47 h -1.2 z"
             id="path247"
             style="fill:#ffffff;stroke-width:0px" />
          <path
             class="cls-11"
             d="m 402.32,182.27 c -0.36,0 -0.54,-0.15 -0.54,-0.47 v -0.73 c 0,0 -0.19,0 -0.19,0 v -0.4 c 0,0 0.17,0 0.17,0 v -0.51 c 0,0 0.69,-0.1 0.69,-0.1 v 0.61 c 0,0 0.35,0 0.35,0 v 0.4 c 0,0 -0.34,0 -0.34,0 v 0.6 c 0,0.07 0.02,0.12 0.05,0.15 0.03,0.03 0.08,0.04 0.14,0.04 h 0.16 c 0,0 0,0.42 0,0.42 h -0.51 z"
             id="path248"
             style="fill:#ffffff;stroke-width:0px" />
          <path
             class="cls-11"
             d="m 404.83,181.84 v 0.4 c 0,0 -0.74,0 -0.74,0 l -0.06,-0.14 c -0.14,0.12 -0.3,0.19 -0.49,0.19 -0.16,0 -0.29,-0.04 -0.39,-0.12 -0.09,-0.08 -0.14,-0.2 -0.14,-0.34 0,-0.17 0.06,-0.3 0.18,-0.38 0.12,-0.08 0.27,-0.13 0.46,-0.13 0.13,0 0.23,0.01 0.33,0.04 v -0.04 c 0,-0.19 -0.1,-0.28 -0.28,-0.28 -0.07,0 -0.15,0.01 -0.23,0.03 -0.08,0.02 -0.17,0.06 -0.29,0.11 l -0.15,-0.39 c 0.29,-0.13 0.58,-0.2 0.86,-0.2 0.25,0 0.44,0.06 0.57,0.17 0.13,0.11 0.2,0.29 0.21,0.51 v 0.57 c 0,0 0.18,0 0.18,0 z m -1.21,-0.06 c 0,0.05 0.02,0.09 0.05,0.12 0.03,0.03 0.08,0.04 0.13,0.04 0.07,0 0.12,-0.02 0.17,-0.07 v -0.24 c 0,0 -0.09,-0.03 -0.15,-0.03 -0.06,0 -0.11,0.02 -0.14,0.05 -0.03,0.03 -0.06,0.07 -0.05,0.13 v 0 z"
             id="path249"
             style="fill:#ffffff;stroke-width:0px" />
          <path
             class="cls-11"
             d="m 404.92,182.24 v -0.4 c 0,0 0.17,0 0.17,0 l -0.02,-1.58 h -0.18 c 0,0 0,-0.4 0,-0.4 h 0.87 c 0,0 0.02,1.97 0.02,1.97 h 0.18 c 0,0 0,0.4 0,0.4 h -1.04 z"
             id="path250"
             style="fill:#ffffff;stroke-width:0px" />
          <path
             class="cls-11"
             d="m 406.51,180.33 c -0.12,0 -0.22,-0.03 -0.29,-0.1 -0.07,-0.07 -0.11,-0.16 -0.11,-0.28 0,-0.12 0.03,-0.21 0.11,-0.27 0.07,-0.07 0.17,-0.11 0.29,-0.11 0.12,0 0.22,0.03 0.29,0.1 0.07,0.07 0.11,0.16 0.11,0.27 0,0.11 -0.03,0.21 -0.1,0.28 -0.07,0.07 -0.17,0.11 -0.29,0.11 v 0 z m -0.45,1.89 v -0.4 c 0,0 0.17,0 0.17,0 v -0.81 c 0,0 -0.19,0 -0.19,0 v -0.4 c 0,0 0.87,0 0.87,0 v 1.21 c 0,0 0.19,0 0.19,0 v 0.4 c 0,0 -1.05,0.01 -1.05,0.01 z"
             id="path251"
             style="fill:#ffffff;stroke-width:0px" />
          <path
             class="cls-11"
             d="m 409.07,181.79 v 0.4 c 0,0 -0.74,0 -0.74,0 l -0.06,-0.14 c -0.14,0.12 -0.3,0.19 -0.49,0.19 -0.16,0 -0.29,-0.04 -0.39,-0.12 -0.09,-0.08 -0.14,-0.2 -0.14,-0.34 0,-0.17 0.06,-0.3 0.18,-0.38 0.12,-0.08 0.27,-0.13 0.46,-0.13 0.13,0 0.23,0.01 0.33,0.04 v -0.04 c 0,-0.19 -0.1,-0.28 -0.28,-0.28 -0.07,0 -0.15,0.01 -0.23,0.03 -0.08,0.02 -0.17,0.06 -0.29,0.11 l -0.15,-0.39 c 0.29,-0.13 0.58,-0.2 0.86,-0.2 0.25,0 0.44,0.06 0.57,0.17 0.13,0.11 0.2,0.29 0.21,0.51 v 0.57 c 0,0 0.18,0 0.18,0 z m -1.2,-0.06 c 0,0.05 0.02,0.09 0.05,0.12 0.03,0.03 0.08,0.04 0.13,0.04 0.07,0 0.12,-0.02 0.17,-0.07 v -0.24 c 0,0 -0.09,-0.03 -0.15,-0.03 -0.06,0 -0.11,0.02 -0.14,0.05 -0.03,0.03 -0.06,0.07 -0.05,0.13 v 0 z"
             id="path252"
             style="fill:#ffffff;stroke-width:0px" />
          <path
             class="cls-11"
             d="m 411.28,181.76 v 0.4 c 0,0 -1.01,0.01 -1.01,0.01 v -0.4 c 0,0 0.13,0 0.13,0 v -0.57 c 0,-0.07 -0.02,-0.12 -0.06,-0.16 -0.03,-0.04 -0.08,-0.06 -0.14,-0.06 -0.06,0 -0.11,0.02 -0.17,0.05 v 0.75 c 0,0 0.14,0 0.14,0 v 0.4 c 0,0 -1.01,0.01 -1.01,0.01 v -0.4 c 0,0 0.17,0 0.17,0 v -0.81 c 0,0 -0.19,0 -0.19,0 v -0.4 c 0,0 0.81,0 0.81,0 l 0.02,0.14 c 0.18,-0.12 0.36,-0.18 0.54,-0.18 0.18,0 0.31,0.05 0.41,0.16 0.1,0.11 0.15,0.24 0.15,0.41 v 0.68 c 0,0 0.18,0 0.18,0 z"
             id="path253"
             style="fill:#ffffff;stroke-width:0px" />
          <path
             class="cls-10"
             d="m 400.18,185.57 v -0.48 c 0,0 0.19,0 0.19,0 l -0.02,-1.42 h -0.2 c 0,0 0,-0.44 0,-0.44 h 1.2 c 0,0 0,0.43 0,0.43 h -0.2 c 0,0 0.02,1.42 0.02,1.42 h 0.53 c 0,0 0,-0.59 0,-0.59 h 0.52 c 0,0 0.01,1.06 0.01,1.06 z"
             id="path254"
             style="fill:#ffffff;stroke-width:0px" />
          <path
             class="cls-11"
             d="m 402.83,183.65 c -0.12,0 -0.22,-0.03 -0.29,-0.1 -0.07,-0.07 -0.11,-0.16 -0.11,-0.28 0,-0.12 0.03,-0.21 0.11,-0.27 0.07,-0.07 0.17,-0.11 0.29,-0.11 0.12,0 0.22,0.03 0.29,0.1 0.07,0.07 0.11,0.16 0.11,0.27 0,0.11 -0.03,0.21 -0.1,0.28 -0.07,0.07 -0.17,0.11 -0.29,0.11 v 0 z m -0.45,1.9 v -0.4 c 0,0 0.17,0 0.17,0 v -0.81 c 0,0 -0.19,0 -0.19,0 v -0.4 c 0,0 0.87,0 0.87,0 v 1.21 c 0,0 0.19,0 0.19,0 v 0.4 c 0,0 -1.05,0.01 -1.05,0.01 z"
             id="path255"
             style="fill:#ffffff;stroke-width:0px" />
          <path
             class="cls-11"
             d="m 405.63,185.11 v 0.4 c 0,0 -1.01,0.01 -1.01,0.01 v -0.4 c 0,0 0.13,0 0.13,0 v -0.57 c 0,-0.07 -0.02,-0.12 -0.06,-0.16 -0.03,-0.04 -0.08,-0.06 -0.14,-0.06 -0.06,0 -0.11,0.02 -0.17,0.05 v 0.75 c 0,0 0.14,0 0.14,0 v 0.4 c 0,0 -1.01,0.01 -1.01,0.01 v -0.4 c 0,0 0.17,0 0.17,0 v -0.81 c 0,0 -0.19,0 -0.19,0 v -0.4 c 0,0 0.81,0 0.81,0 l 0.02,0.14 c 0.18,-0.12 0.36,-0.18 0.54,-0.18 0.18,0 0.31,0.05 0.41,0.16 0.1,0.11 0.15,0.24 0.15,0.41 v 0.68 c 0,0 0.18,0 0.18,0 z"
             id="path256"
             style="fill:#ffffff;stroke-width:0px" />
          <path
             class="cls-11"
             d="m 407.82,185.09 v 0.4 c 0,0 -0.81,0 -0.81,0 l -0.02,-0.14 c -0.18,0.12 -0.36,0.18 -0.54,0.18 -0.18,0 -0.31,-0.05 -0.41,-0.16 -0.1,-0.11 -0.15,-0.25 -0.15,-0.41 v -0.68 c 0,0 -0.18,0 -0.18,0 v -0.4 c 0,0 0.87,0 0.87,0 v 0.97 c 0.01,0.07 0.03,0.12 0.06,0.16 0.03,0.04 0.08,0.06 0.14,0.05 0.06,-0.01 0.11,-0.02 0.17,-0.05 v -0.75 c 0,0 -0.14,0 -0.14,0 v -0.4 c 0,0 0.83,0 0.83,0 v 1.21 c 0,0 0.19,0 0.19,0 z"
             id="path257"
             style="fill:#ffffff;stroke-width:0px" />
          <path
             class="cls-11"
             d="m 407.91,185.49 v -0.4 c 0,0 0.12,0 0.12,0 l 0.41,-0.42 -0.38,-0.39 h -0.12 c 0,0 0,-0.4 0,-0.4 h 0.88 c 0,0 0,0.39 0,0.39 h -0.08 c 0,0 0.17,0.18 0.17,0.18 l 0.16,-0.19 h -0.08 c 0,0 0,-0.4 0,-0.4 h 0.88 c 0,0 0,0.39 0,0.39 h -0.12 c 0,0 -0.37,0.4 -0.37,0.4 l 0.42,0.41 h 0.12 c 0,0 0,0.4 0,0.4 h -0.9 c 0,0 0,-0.39 0,-0.39 h 0.1 c 0,0 -0.2,-0.2 -0.2,-0.2 l -0.19,0.2 h 0.1 c 0,0 0,0.4 0,0.4 h -0.9 z"
             id="path258"
             style="fill:#ffffff;stroke-width:0px" />
          <path
             class="cls-10"
             d="m 401.55,187.33 c 0.26,0.05 0.45,0.14 0.58,0.26 0.12,0.12 0.19,0.29 0.19,0.52 0,0.24 -0.07,0.43 -0.22,0.56 -0.15,0.13 -0.35,0.2 -0.6,0.2 -0.14,0 -0.28,-0.02 -0.42,-0.07 -0.14,-0.05 -0.26,-0.12 -0.34,-0.2 v 0.24 c 0,0 -0.52,0 -0.52,0 v -0.8 c 0,0 0.45,0 0.45,0 0.07,0.12 0.17,0.22 0.28,0.29 0.12,0.07 0.24,0.1 0.39,0.1 0.07,0 0.13,-0.02 0.17,-0.05 0.04,-0.03 0.06,-0.08 0.06,-0.14 0,-0.06 -0.03,-0.11 -0.07,-0.15 -0.05,-0.03 -0.13,-0.06 -0.24,-0.09 l -0.32,-0.06 c -0.26,-0.06 -0.45,-0.14 -0.57,-0.27 -0.12,-0.12 -0.18,-0.29 -0.18,-0.5 0,-0.14 0.03,-0.26 0.09,-0.37 0.07,-0.11 0.16,-0.2 0.28,-0.26 0.12,-0.06 0.26,-0.1 0.42,-0.1 0.3,0 0.55,0.08 0.74,0.25 v -0.22 c 0,0 0.48,0 0.48,0 v 0.69 c 0,0 -0.43,0 -0.43,0 -0.05,-0.08 -0.13,-0.15 -0.23,-0.21 -0.1,-0.06 -0.21,-0.08 -0.33,-0.08 -0.14,0 -0.21,0.06 -0.21,0.16 0,0.06 0.03,0.11 0.09,0.14 0.06,0.03 0.17,0.06 0.31,0.09 l 0.16,0.03 z"
             id="path259"
             style="fill:#ffffff;stroke-width:0px" />
          <path
             class="cls-11"
             d="m 403.45,188.86 c -0.18,0 -0.34,-0.03 -0.48,-0.1 -0.14,-0.07 -0.24,-0.17 -0.32,-0.3 -0.08,-0.13 -0.12,-0.28 -0.12,-0.44 0,-0.16 0.03,-0.32 0.11,-0.45 0.07,-0.13 0.18,-0.23 0.31,-0.3 0.14,-0.07 0.3,-0.11 0.48,-0.11 0.18,0 0.34,0.03 0.47,0.1 0.14,0.07 0.25,0.17 0.32,0.29 0.08,0.13 0.12,0.28 0.12,0.44 0,0.16 -0.03,0.32 -0.11,0.45 -0.07,0.13 -0.18,0.23 -0.32,0.3 -0.14,0.07 -0.29,0.11 -0.47,0.11 z m 0,-0.52 c 0.08,0 0.15,-0.03 0.19,-0.09 0.05,-0.06 0.07,-0.14 0.07,-0.25 0,-0.11 -0.02,-0.18 -0.07,-0.24 -0.05,-0.06 -0.11,-0.08 -0.2,-0.08 -0.09,0 -0.15,0.03 -0.2,0.09 -0.04,0.06 -0.07,0.14 -0.07,0.24 0,0.1 0.02,0.19 0.07,0.24 0.05,0.06 0.11,0.09 0.2,0.08 z"
             id="path260"
             style="fill:#ffffff;stroke-width:0px" />
          <path
             class="cls-11"
             d="m 406.18,188.58 c -0.21,0.17 -0.46,0.25 -0.76,0.25 -0.18,0 -0.35,-0.03 -0.49,-0.1 -0.14,-0.07 -0.25,-0.17 -0.33,-0.3 -0.08,-0.13 -0.12,-0.28 -0.12,-0.46 0,-0.16 0.03,-0.31 0.1,-0.43 0.07,-0.12 0.16,-0.22 0.28,-0.29 0.12,-0.07 0.25,-0.11 0.4,-0.11 0.17,0 0.31,0.04 0.41,0.13 v -0.09 c 0,0 0.44,0 0.44,0 v 0.7 c 0,0 -0.41,0 -0.41,0 -0.02,-0.2 -0.12,-0.3 -0.3,-0.29 -0.09,0 -0.16,0.03 -0.21,0.09 -0.05,0.06 -0.07,0.14 -0.07,0.25 0,0.12 0.04,0.21 0.11,0.28 0.07,0.07 0.17,0.1 0.3,0.1 0.18,0 0.33,-0.05 0.46,-0.15 l 0.19,0.41 z"
             id="path261"
             style="fill:#ffffff;stroke-width:0px" />
          <path
             class="cls-11"
             d="m 406.74,186.89 c -0.12,0 -0.22,-0.03 -0.29,-0.1 -0.07,-0.07 -0.11,-0.16 -0.11,-0.28 0,-0.12 0.03,-0.21 0.11,-0.27 0.07,-0.07 0.17,-0.11 0.29,-0.11 0.12,0 0.22,0.03 0.29,0.1 0.07,0.07 0.11,0.16 0.11,0.27 0,0.11 -0.03,0.21 -0.1,0.28 -0.07,0.07 -0.17,0.11 -0.29,0.11 v 0 z m -0.45,1.9 v -0.4 c 0,0 0.17,0 0.17,0 v -0.81 c 0,0 -0.19,0 -0.19,0 v -0.4 c 0,0 0.87,0 0.87,0 v 1.21 c 0,0 0.19,0 0.19,0 v 0.4 c 0,0 -1.05,0.01 -1.05,0.01 z"
             id="path262"
             style="fill:#ffffff;stroke-width:0px" />
          <path
             class="cls-11"
             d="m 409.13,188.05 h -1.03 c 0.02,0.09 0.07,0.14 0.14,0.18 0.07,0.03 0.15,0.05 0.25,0.05 0.18,0 0.33,-0.05 0.46,-0.15 l 0.19,0.41 c -0.1,0.08 -0.21,0.14 -0.34,0.19 -0.13,0.04 -0.27,0.07 -0.42,0.07 -0.29,0 -0.52,-0.07 -0.69,-0.21 -0.17,-0.14 -0.25,-0.35 -0.26,-0.63 0,-0.16 0.03,-0.31 0.11,-0.44 0.08,-0.13 0.18,-0.23 0.31,-0.3 0.14,-0.07 0.29,-0.11 0.46,-0.11 0.17,0 0.31,0.03 0.43,0.1 0.12,0.07 0.22,0.16 0.28,0.29 0.06,0.13 0.1,0.27 0.1,0.43 v 0.12 z m -0.64,-0.27 c 0,-0.15 -0.07,-0.23 -0.2,-0.23 -0.13,0 -0.19,0.08 -0.21,0.23 z"
             id="path263"
             style="fill:#ffffff;stroke-width:0px" />
          <path
             class="cls-11"
             d="m 409.97,188.74 c -0.36,0 -0.54,-0.15 -0.54,-0.47 v -0.73 c 0,0 -0.19,0 -0.19,0 v -0.4 c 0,0 0.17,0 0.17,0 v -0.51 c 0,0 0.69,-0.1 0.69,-0.1 v 0.61 c 0,0 0.35,0 0.35,0 v 0.4 c 0,0 -0.34,0 -0.34,0 v 0.6 c 0,0.07 0.02,0.12 0.05,0.15 0.03,0.03 0.08,0.04 0.14,0.04 h 0.16 c 0,0 0,0.42 0,0.42 h -0.51 z"
             id="path264"
             style="fill:#ffffff;stroke-width:0px" />
          <path
             class="cls-11"
             d="m 410.89,188.92 h 0.13 c 0.09,0 0.17,-0.02 0.22,-0.04 0.05,-0.03 0.1,-0.08 0.14,-0.15 l 0.06,-0.11 h -0.17 c 0,0 -0.61,-1.1 -0.61,-1.1 h -0.12 c 0,0 0,-0.4 0,-0.4 h 1.01 c 0,0 0,0.39 0,0.39 h -0.18 c 0,0 0.29,0.58 0.29,0.58 l 0.27,-0.59 h -0.18 c 0,0 0,-0.4 0,-0.4 h 0.89 c 0,0 0,0.39 0,0.39 h -0.12 c 0,0 -0.68,1.34 -0.68,1.34 -0.08,0.16 -0.15,0.28 -0.21,0.35 -0.06,0.08 -0.13,0.13 -0.21,0.17 -0.09,0.04 -0.2,0.06 -0.34,0.06 h -0.18 c 0,0 0,-0.5 0,-0.5 z"
             id="path265"
             style="fill:#ffffff;stroke-width:0px" />
        </g>
        <g
           id="g272">
          <g
             id="g270">
            <g
               id="g266">
              <ellipse
                 class="cls-11"
                 cx="414.63"
                 cy="183.69"
                 rx="1.35"
                 ry="1.38"
                 transform="rotate(-72.53,414.6377,183.69383)"
                 id="ellipse265"
                 style="fill:#ffffff;stroke-width:0px" />
              <path
                 class="cls-1"
                 d="m 413.15,183.7 c 0,-0.15 0.02,-0.3 0.07,-0.45 0.12,-0.37 0.37,-0.67 0.72,-0.85 0.35,-0.18 0.75,-0.21 1.13,-0.09 0.78,0.25 1.22,1.07 0.98,1.84 -0.12,0.37 -0.37,0.67 -0.72,0.85 -0.35,0.18 -0.75,0.21 -1.13,0.09 -0.63,-0.2 -1.04,-0.77 -1.04,-1.39 z m 2.75,0 c 0,-0.53 -0.36,-1.02 -0.9,-1.19 -0.32,-0.1 -0.67,-0.07 -0.97,0.08 -0.3,0.15 -0.52,0.41 -0.62,0.73 -0.21,0.66 0.17,1.36 0.84,1.57 0.32,0.1 0.67,0.07 0.97,-0.08 0.3,-0.15 0.52,-0.41 0.62,-0.73 0.04,-0.13 0.06,-0.26 0.06,-0.38 z"
                 id="path266"
                 style="stroke-width:0px" />
            </g>
            <g
               id="g267">
              <ellipse
                 class="cls-1"
                 cx="413.98001"
                 cy="183.49001"
                 rx="0.31"
                 ry="0.31999999"
                 transform="rotate(-72.53,413.98292,183.48603)"
                 id="ellipse266"
                 style="stroke-width:0px" />
              <path
                 class="cls-1"
                 d="m 413.57,183.49 c 0,0 0,-0.08 0.02,-0.12 0.07,-0.21 0.3,-0.33 0.51,-0.26 0.1,0.03 0.19,0.1 0.24,0.2 0.05,0.1 0.06,0.21 0.03,0.31 -0.03,0.1 -0.1,0.19 -0.2,0.24 -0.1,0.05 -0.21,0.06 -0.31,0.03 -0.17,-0.06 -0.29,-0.21 -0.29,-0.39 z m 0.64,0 c 0,0 0,-0.07 -0.03,-0.1 -0.03,-0.05 -0.07,-0.09 -0.13,-0.11 -0.12,-0.04 -0.24,0.03 -0.28,0.14 -0.04,0.12 0.03,0.24 0.15,0.28 0.06,0.02 0.12,0.01 0.17,-0.01 0.05,-0.03 0.09,-0.07 0.11,-0.13 0,-0.02 0.01,-0.04 0,-0.07 z"
                 id="path267"
                 style="stroke-width:0px" />
            </g>
            <g
               id="g268">
              <ellipse
                 class="cls-11"
                 cx="412.01999"
                 cy="182.87"
                 rx="1.35"
                 ry="1.38"
                 transform="rotate(-72.53,412.02538,182.86763)"
                 id="ellipse267"
                 style="fill:#ffffff;stroke-width:0px" />
              <path
                 class="cls-1"
                 d="m 410.55,182.87 c 0,-0.15 0.02,-0.3 0.07,-0.44 0.12,-0.37 0.37,-0.67 0.72,-0.85 0.35,-0.18 0.74,-0.21 1.12,-0.09 v 0 c 0.37,0.12 0.68,0.37 0.86,0.72 0.18,0.34 0.22,0.74 0.1,1.11 -0.24,0.76 -1.06,1.18 -1.84,0.94 -0.62,-0.2 -1.03,-0.77 -1.03,-1.38 z m 2.75,0 c 0,-0.2 -0.05,-0.39 -0.15,-0.57 -0.16,-0.3 -0.43,-0.52 -0.76,-0.63 v 0 c -0.33,-0.1 -0.67,-0.07 -0.98,0.08 -0.3,0.15 -0.52,0.42 -0.63,0.74 -0.21,0.66 0.17,1.37 0.85,1.59 0.67,0.21 1.39,-0.15 1.6,-0.82 0.04,-0.13 0.06,-0.26 0.06,-0.39 z m -0.88,-1.29 z"
                 id="path268"
                 style="stroke-width:0px" />
            </g>
            <g
               id="g269">
              <ellipse
                 class="cls-1"
                 cx="412.67001"
                 cy="183.08"
                 rx="0.31"
                 ry="0.31999999"
                 transform="rotate(-72.53,412.67335,183.07043)"
                 id="ellipse268"
                 style="stroke-width:0px" />
              <path
                 class="cls-1"
                 d="m 412.26,183.08 c 0,0 0,-0.08 0.02,-0.13 0.03,-0.1 0.1,-0.19 0.2,-0.24 0.1,-0.05 0.21,-0.06 0.31,-0.03 v 0 c 0.22,0.07 0.34,0.3 0.27,0.51 -0.03,0.1 -0.1,0.19 -0.2,0.24 -0.1,0.05 -0.21,0.06 -0.31,0.03 -0.1,-0.03 -0.19,-0.1 -0.24,-0.2 -0.03,-0.06 -0.05,-0.12 -0.05,-0.19 z m 0.48,-0.21 v 0 c -0.06,-0.02 -0.12,-0.01 -0.17,0.01 -0.05,0.03 -0.09,0.07 -0.11,0.13 -0.02,0.06 -0.01,0.11 0.02,0.17 0.03,0.05 0.07,0.09 0.13,0.11 0.06,0.02 0.12,0.01 0.17,-0.01 0.05,-0.03 0.09,-0.07 0.11,-0.13 0.04,-0.12 -0.03,-0.24 -0.15,-0.28 z"
                 id="path269"
                 style="stroke-width:0px" />
            </g>
          </g>
          <g
             id="g271">
            <path
               class="cls-10"
               d="m 412.21,187.4 -0.43,-1.59 -0.43,-1.59 1.61,0.44 1.61,0.44 -1.18,1.15 z"
               id="path270"
               style="fill:#ffffff;stroke-width:0px" />
            <path
               class="cls-1"
               d="m 411.25,184.22 c 0,0 0,-0.05 0.03,-0.07 0.02,-0.02 0.06,-0.03 0.09,-0.02 l 3.22,0.88 c 0,0 0.06,0.03 0.07,0.07 0,0.03 0,0.07 -0.03,0.09 l -2.36,2.3 c 0,0 -0.06,0.03 -0.09,0.02 -0.03,0 -0.06,-0.03 -0.07,-0.07 l -0.86,-3.18 z m 3.14,0.93 -2.91,-0.8 0.78,2.87 2.13,-2.08 z"
               id="path271"
               style="stroke-width:0px" />
          </g>
        </g>
      </g>
    </g>
  </g>
</svg>
